[
	{"Id": 50, "Src": "UI-#/Story/", "Target": "UI-Story/"},
	{"Id": 51, "Src": "UI-#/Gacha/", "Target": "UI-Gacha/"},
	{"Id": 52, "Src": "UI-#/Alba/Bg/", "Target": "UI-Collection/Alba/"},
	{"Id": 53, "Src": "UI-#/AttrDungeon/Bg/", "Target": "UI-Collection/AttrDungeon/"},
	{"Id": 54, "Src": "UI-#/Battle/Bg/", "Target": "UI-Collection/Battle/"},
	{"Id": 55, "Src": "UI-#/GetChar/", "Target": "UI-Collection/GetChar/"},
	{"Id": 56, "Src": "UI-#/Help/", "Target": "UI-Collection/Help/"},
	{"Id": 57, "Src": "UI-#/Home/Bg/", "Target": "UI-Collection/Home/"},
	{"Id": 58, "Src": "UI-#/PartyRaid/Bg/", "Target": "UI-Collection/PartyRaid/"},
	{"Id": 100, "Src": "C-###/Orlaya_08_A/", "Target": "C-001/Orlaya_08_A/"},
	{"Id": 101, "Src": "C-###/Orlaya_08_B/", "Target": "C-001/Orlaya_08_B/"},
	{"Id": 102, "Src": "C-###/Orlaya_08_M/", "Target": "C-001/Orlaya_08_M/"},
	{"Id": 103, "Src": "C-###/Orlaya_08_W/", "Target": "C-001/Orlaya_08_W/"},
	{"Id": 104, "Src": "C-###/Orlaya_13_A/", "Target": "C-002/Orlaya_13_A/"},
	{"Id": 105, "Src": "C-###/Orlaya_13_B/", "Target": "C-002/Orlaya_13_B/"},
	{"Id": 106, "Src": "C-###/Orlaya_13_M/", "Target": "C-002/Orlaya_13_M/"},
	{"Id": 107, "Src": "C-###/Orlaya_13_W/", "Target": "C-002/Orlaya_13_W/"},
	{"Id": 108, "Src": "C-###/Orlaya_18_A/", "Target": "C-003/Orlaya_18_A/"},
	{"Id": 109, "Src": "C-###/Orlaya_18_B/", "Target": "C-003/Orlaya_18_B/"},
	{"Id": 110, "Src": "C-###/Orlaya_18_M/", "Target": "C-003/Orlaya_18_M/"},
	{"Id": 111, "Src": "C-###/Orlaya_18_W/", "Target": "C-003/Orlaya_18_W/"},
	{"Id": 200, "Src": "C-###/M_Archer_A/", "Target": "C-004/M_Archer_A/"},
	{"Id": 201, "Src": "C-###/M_Archer_B/", "Target": "C-004/M_Archer_B/"},
	{"Id": 202, "Src": "C-###/M_Archer_C/", "Target": "C-004/M_Archer_C/"},
	{"Id": 203, "Src": "C-###/M_Archer_D/", "Target": "C-004/M_Archer_D/"},
	{"Id": 204, "Src": "C-###/M_Archer_E/", "Target": "C-004/M_Archer_E/"},
	{"Id": 205, "Src": "C-###/M_Magician_A/", "Target": "C-004/M_Magician_A/"},
	{"Id": 206, "Src": "C-###/M_Magician_B/", "Target": "C-004/M_Magician_B/"},
	{"Id": 207, "Src": "C-###/M_Magician_C/", "Target": "C-004/M_Magician_C/"},
	{"Id": 208, "Src": "C-###/M_Magician_D/", "Target": "C-004/M_Magician_D/"},
	{"Id": 209, "Src": "C-###/M_Magician_E/", "Target": "C-004/M_Magician_E/"},
	{"Id": 210, "Src": "C-###/M_Warrior_A/", "Target": "C-004/M_Warrior_A/"},
	{"Id": 211, "Src": "C-###/M_Warrior_B/", "Target": "C-004/M_Warrior_B/"},
	{"Id": 212, "Src": "C-###/M_Warrior_C/", "Target": "C-004/M_Warrior_C/"},
	{"Id": 213, "Src": "C-###/M_Warrior_D/", "Target": "C-004/M_Warrior_D/"},
	{"Id": 214, "Src": "C-###/M_Warrior_E/", "Target": "C-004/M_Warrior_E/"},
	{"Id": 215, "Src": "C-###/M_Guardian_A/", "Target": "C-004/M_Guardian_A/"},
	{"Id": 216, "Src": "C-###/M_Guardian_B/", "Target": "C-004/M_Guardian_B/"},
	{"Id": 217, "Src": "C-###/M_Guardian_C/", "Target": "C-004/M_Guardian_C/"},
	{"Id": 218, "Src": "C-###/M_Guardian_D/", "Target": "C-004/M_Guardian_D/"},
	{"Id": 219, "Src": "C-###/M_Guardian_E/", "Target": "C-004/M_Guardian_E/"},
	{"Id": 220, "Src": "C-###/M_Warrior_Desert/", "Target": "C-005/M_Warrior_Desert/"},
	{"Id": 221, "Src": "C-###/M_Archer_Desert/", "Target": "C-005/M_Archer_Desert/"},
	{"Id": 222, "Src": "C-###/M_Guardian_Desert/", "Target": "C-005/M_Guardian_Desert/"},
	{"Id": 223, "Src": "C-###/M_Magician_Desert/", "Target": "C-005/M_Magician_Desert/"},
	{"Id": 224, "Src": "C-###/M_Warrior_Horn/", "Target": "C-005/M_Warrior_Horn/"},
	{"Id": 225, "Src": "C-###/M_Archer_Horn/", "Target": "C-005/M_Archer_Horn/"},
	{"Id": 226, "Src": "C-###/M_Guardian_Horn/", "Target": "C-005/M_Guardian_Horn/"},
	{"Id": 227, "Src": "C-###/M_Magician_Horn/", "Target": "C-005/M_Magician_Horn/"},
	{"Id": 228, "Src": "C-###/M_Warrior_Fire/", "Target": "C-005/M_Warrior_Fire/"},
	{"Id": 229, "Src": "C-###/M_Archer_Fire/", "Target": "C-005/M_Archer_Fire/"},
	{"Id": 230, "Src": "C-###/M_Guardian_Fire/", "Target": "C-005/M_Guardian_Fire/"},
	{"Id": 231, "Src": "C-###/M_Magician_Fire/", "Target": "C-005/M_Magician_Fire/"},
	{"Id": 232, "Src": "C-###/M_Warrior_Flower/", "Target": "C-005/M_Warrior_Flower/"},
	{"Id": 233, "Src": "C-###/M_Archer_Flower/", "Target": "C-005/M_Archer_Flower/"},
	{"Id": 234, "Src": "C-###/M_Guardian_Flower/", "Target": "C-005/M_Guardian_Flower/"},
	{"Id": 235, "Src": "C-###/M_Magician_Flower/", "Target": "C-005/M_Magician_Flower/"},
	{"Id": 236, "Src": "C-###/M_Warrior_Indian/", "Target": "C-005/M_Warrior_Indian/"},
	{"Id": 237, "Src": "C-###/M_Archer_Indian/", "Target": "C-005/M_Archer_Indian/"},
	{"Id": 238, "Src": "C-###/M_Guardian_Indian/", "Target": "C-005/M_Guardian_Indian/"},
	{"Id": 239, "Src": "C-###/M_Magician_Indian/", "Target": "C-005/M_Magician_Indian/"},
	{"Id": 300, "Src": "C-###/Gabriel/", "Target": "C-101/Gabriel/"},
	{"Id": 301, "Src": "C-###/Neko/", "Target": "C-101/Neko/"},
	{"Id": 302, "Src": "C-###/Nyarlathotep/", "Target": "C-101/Nyarlathotep/"},
	{"Id": 303, "Src": "C-###/Durendal/", "Target": "C-102/Durendal/"},
	{"Id": 304, "Src": "C-###/Laurentia/", "Target": "C-102/Laurentia/"},
	{"Id": 305, "Src": "C-###/Raphael/", "Target": "C-102/Raphael/"},
	{"Id": 306, "Src": "C-###/Balmung/", "Target": "C-103/Balmung/"},
	{"Id": 307, "Src": "C-###/Mitama/", "Target": "C-103/Mitama/"},
	{"Id": 308, "Src": "C-###/Tsukumokei/", "Target": "C-103/Tsukumokei/"},
	{"Id": 309, "Src": "C-###/Anemone/", "Target": "C-104/Anemone/"},
	{"Id": 310, "Src": "C-###/Artemis/", "Target": "C-104/Artemis/"},
	{"Id": 311, "Src": "C-###/Brionac/", "Target": "C-104/Brionac/"},
	{"Id": 312, "Src": "C-###/Amine/", "Target": "C-105/Amine/"},
	{"Id": 313, "Src": "C-###/Ascalon/", "Target": "C-105/Ascalon/"},
	{"Id": 314, "Src": "C-###/Atlas/", "Target": "C-105/Atlas/"},
	{"Id": 315, "Src": "C-###/Answerer/", "Target": "C-106/Answerer/"},
	{"Id": 316, "Src": "C-###/Arseria/", "Target": "C-106/Arseria/"},
	{"Id": 317, "Src": "C-###/Excalibur/", "Target": "C-106/Excalibur/"},
	{"Id": 318, "Src": "C-###/Jormungand/", "Target": "C-107/Jormungand/"},
	{"Id": 319, "Src": "C-###/Uriel/", "Target": "C-107/Uriel/"},
	{"Id": 320, "Src": "C-###/Yoshino/", "Target": "C-107/Yoshino/"},
	{"Id": 321, "Src": "C-###/Kasumi/", "Target": "C-108/Kasumi/"},
	{"Id": 322, "Src": "C-###/Kuma/", "Target": "C-108/Kuma/"},
	{"Id": 323, "Src": "C-###/Yutaka/", "Target": "C-108/Yutaka/"},
	{"Id": 324, "Src": "C-###/FailNot/", "Target": "C-109/FailNot/"},
	{"Id": 325, "Src": "C-###/Pleiades/", "Target": "C-109/Pleiades/"},
	{"Id": 326, "Src": "C-###/RobinHood/", "Target": "C-109/RobinHood/"},
	{"Id": 327, "Src": "C-###/Aegis/", "Target": "C-110/Aegis/"},
	{"Id": 328, "Src": "C-###/Inari/", "Target": "C-110/Inari/"},
	{"Id": 329, "Src": "C-###/Michael/", "Target": "C-110/Michael/"},
	{"Id": 330, "Src": "C-###/Fenris/", "Target": "C-111/Fenris/"},
	{"Id": 331, "Src": "C-###/Kohaku/", "Target": "C-111/Kohaku/"},
	{"Id": 332, "Src": "C-###/Szak/", "Target": "C-111/Szak/"},
	{"Id": 333, "Src": "C-###/Azoth/", "Target": "C-112/Azoth/"},
	{"Id": 334, "Src": "C-###/Matsu/", "Target": "C-112/Matsu/"},
	{"Id": 335, "Src": "C-###/Arcana/", "Target": "C-700!/Arcana/"},
	{"Id": 336, "Src": "C-###/Yggdrasill/", "Target": "C-116/Yggdrasill/"},
	{"Id": 337, "Src": "C-###/Goetia/", "Target": "C-114/Goetia/"},
	{"Id": 338, "Src": "C-###/Reiki/", "Target": "C-113/Reiki/"},
	{"Id": 339, "Src": "C-###/Tsukuyomi/", "Target": "C-700!/Tsukuyomi/"},
	{"Id": 340, "Src": "C-###/Amou/", "Target": "C-112/Amou/"},
	{"Id": 341, "Src": "C-###/Odin/", "Target": "C-113/Odin/"},
	{"Id": 342, "Src": "C-###/Luka/", "Target": "C-112/Luka/"},
	{"Id": 343, "Src": "C-###/Bunny/", "Target": "C-700!/Bunny/"},
	{"Id": 344, "Src": "C-###/LudiCrum/", "Target": "C-115/LudiCrum/"},
	{"Id": 345, "Src": "C-###/Pantera/", "Target": "C-114/Pantera/"},
	{"Id": 346, "Src": "C-###/Sandy/", "Target": "C-700!/Sandy/"},
	{"Id": 347, "Src": "C-###/Sombril/", "Target": "C-115/Sombril/"},
	{"Id": 348, "Src": "C-###/Enma/", "Target": "C-113/Enma/"},
	{"Id": 349, "Src": "C-###/Dogabi/", "Target": "C-114/Dogabi/"},
	{"Id": 350, "Src": "C-###/Dynia/", "Target": "C-115/Dynia/"},
	{"Id": 351, "Src": "C-###/Mistel/", "Target": "C-116/Mistel/"},
	{"Id": 900, "Src": "C-###/Jeram/", "Target": "C-999/Jeram/"},
	{"Id": 901, "Src": "C-###/Mari/", "Target": "C-999/Mari/"},
	{"Id": 902, "Src": "C-###/Togo/", "Target": "C-999/Togo/"},
	{"Id": 903, "Src": "C-###/Lace_18/", "Target": "C-999/Lace_18/"}
]