[
	{"Id": 1, "Name": 361, "Desc": 371, "Icon": "Common/IconAttr/Com_Icon_Attr_1", "IconSmall": 82, "StrongAttr": 2, "StrongAtk": 0.25, "WeakAttr": 3, "WeakAttr": 0},
	{"Id": 2, "Name": 362, "Desc": 372, "Icon": "Common/IconAttr/Com_Icon_Attr_2", "IconSmall": 83, "StrongAttr": 3, "StrongAtk": 0.25, "WeakAttr": 1, "WeakAttr": 0},
	{"Id": 3, "Name": 363, "Desc": 373, "Icon": "Common/IconAttr/Com_Icon_Attr_3", "IconSmall": 84, "StrongAttr": 1, "StrongAtk": 0.25, "WeakAttr": 2, "WeakAttr": 0},
	{"Id": 4, "Name": 364, "Desc": 374, "Icon": "Common/IconAttr/Com_Icon_Attr_4", "IconSmall": 85, "StrongAttr": 5, "StrongAtk": 0.25, "WeakAttr": 0, "WeakAttr": 0},
	{"Id": 5, "Name": 365, "Desc": 375, "Icon": "Common/IconAttr/Com_Icon_Attr_5", "IconSmall": 91, "StrongAttr": 0, "StrongAtk": 0, "WeakAttr": 0, "WeakAttr": 0},
	{"Id": 6, "Name": 366, "Desc": 375, "Icon": "Common/IconAttr/Com_Icon_Attr_5", "IconSmall": 91, "StrongAttr": 0, "StrongAtk": 0, "WeakAttr": 0, "WeakAttr": 0}
]