[
	{"Id": 1, "Open": false, "Contents": 0, "ListOrder": 0, "ShowTime": 5, "StartAt": "2020-06-15 00:00:00", "EndAt": "2020-07-10 01:00:00", "Shortcut": 26, "Shortcut2": 2, "UrlId": 1000004},
	{"Id": 2, "Open": true, "Contents": 0, "ListOrder": 99, "ShowTime": 5, "StartAt": "2020-06-15 00:00:00", "EndAt": "2100-12-30 01:00:00", "Shortcut": 32, "Shortcut2": 1, "UrlId": 1000000},
	{"Id": 3, "Open": false, "Contents": 0, "ListOrder": 0, "ShowTime": 5, "StartAt": "2020-06-15 00:00:00", "EndAt": "2020-07-10 01:00:00", "Shortcut": 26, "Shortcut2": 5, "UrlId": 1000005},
	{"Id": 4, "Open": false, "Contents": 0, "ListOrder": 0, "ShowTime": 5, "StartAt": "2020-06-15 00:00:00", "EndAt": "2020-07-10 01:00:00", "Shortcut": 26, "Shortcut2": 4, "UrlId": 1000006},
	{"Id": 5, "Open": false, "Contents": 0, "ListOrder": 0, "ShowTime": 5, "StartAt": "2020-06-15 00:00:00", "EndAt": "2020-07-10 01:00:00", "Shortcut": 26, "Shortcut2": 3, "UrlId": 1000007},
	{"Id": 6, "Open": false, "Contents": 0, "ListOrder": 0, "ShowTime": 5, "StartAt": "2020-06-15 00:00:00", "EndAt": "2020-07-10 01:00:00", "Shortcut": 26, "Shortcut2": 1, "UrlId": 1000008},
	{"Id": 7, "Open": false, "Contents": 0, "ListOrder": 0, "ShowTime": 5, "StartAt": "2020-06-15 00:00:00", "EndAt": "2020-07-09 10:30:00", "Shortcut": 25, "Shortcut2": 1, "UrlId": 1000001},
	{"Id": 8, "Open": false, "Contents": 0, "ListOrder": 0, "ShowTime": 5, "StartAt": "2020-06-15 00:00:00", "EndAt": "2020-07-14 01:00:00", "Shortcut": 13, "Shortcut2": 46, "UrlId": 1000009},
	{"Id": 9, "Open": true, "Contents": 0, "ListOrder": 98, "ShowTime": 5, "StartAt": "2020-06-15 00:00:00", "EndAt": "2100-12-30 01:00:00", "Shortcut": 34, "Shortcut2": 1, "UrlId": 1000010},
	{"Id": 10, "Open": false, "Contents": 0, "ListOrder": 0, "ShowTime": 5, "StartAt": "2020-07-09 10:30:00", "EndAt": "2020-07-22 11:00:00", "Shortcut": 25, "Shortcut2": 2, "UrlId": 1000011},
	{"Id": 11, "Open": false, "Contents": 0, "ListOrder": 0, "ShowTime": 5, "StartAt": "2020-07-20 01:00:00", "EndAt": "2020-08-06 10:30:00", "Shortcut": 25, "Shortcut2": 3, "UrlId": 1000012},
	{"Id": 12, "Open": false, "Contents": 0, "ListOrder": 3, "ShowTime": 5, "StartAt": "2020-07-28 00:00:00", "EndAt": "2020-08-20 10:30:00", "Shortcut": 36, "Shortcut2": 0, "UrlId": 1000013},
	{"Id": 13, "Open": false, "Contents": 0, "ListOrder": 2, "ShowTime": 5, "StartAt": "2020-07-28 00:00:00", "EndAt": "2020-08-20 10:30:00", "Shortcut": 25, "Shortcut2": 5, "UrlId": 1000014},
	{"Id": 14, "Open": false, "Contents": 0, "ListOrder": 1, "ShowTime": 5, "StartAt": "2020-08-14 10:30:00", "EndAt": "2020-09-01 10:30:00", "Shortcut": 25, "Shortcut2": 6, "UrlId": 1000015},
	{"Id": 15, "Open": false, "Contents": 0, "ListOrder": 4, "ShowTime": 5, "StartAt": "2020-08-14 10:30:00", "EndAt": "2020-09-01 10:30:00", "Shortcut": 38, "Shortcut2": 0, "UrlId": 1000016},
	{"Id": 16, "Open": false, "Contents": 0, "ListOrder": 5, "ShowTime": 5, "StartAt": "2020-09-01 10:30:00", "EndAt": "2020-09-24 10:30:00", "Shortcut": 37, "Shortcut2": 0, "UrlId": 1000017},
	{"Id": 17, "Open": false, "Contents": 0, "ListOrder": 2, "ShowTime": 5, "StartAt": "2020-09-01 10:30:00", "EndAt": "2020-09-24 10:30:00", "Shortcut": 25, "Shortcut2": 7, "UrlId": 1000018},
	{"Id": 18, "Open": false, "Contents": 0, "ListOrder": 1, "ShowTime": 5, "StartAt": "2020-09-14 10:30:00", "EndAt": "2020-10-08 10:30:00", "Shortcut": 25, "Shortcut2": 8, "UrlId": 1000019},
	{"Id": 19, "Open": false, "Contents": 0, "ListOrder": 3, "ShowTime": 5, "StartAt": "2020-09-15 10:30:00", "EndAt": "2020-10-08 10:30:00", "Shortcut": 36, "Shortcut2": 0, "UrlId": 1000020},
	{"Id": 20, "Open": false, "Contents": 0, "ListOrder": 2, "ShowTime": 5, "StartAt": "2020-10-05 10:30:00", "EndAt": "2020-10-22 10:30:00", "Shortcut": 25, "Shortcut2": 9, "UrlId": 1000022},
	{"Id": 21, "Open": false, "Contents": 0, "ListOrder": 4, "ShowTime": 5, "StartAt": "2020-09-28 10:30:00", "EndAt": "2020-10-22 10:30:00", "Shortcut": 38, "Shortcut2": 0, "UrlId": 1000021},
	{"Id": 22, "Open": false, "Contents": 0, "ListOrder": 3, "ShowTime": 5, "StartAt": "2020-10-14 10:30:00", "EndAt": "2020-10-28 10:30:00", "Shortcut": 36, "Shortcut2": 0, "UrlId": 1000023},
	{"Id": 23, "Open": false, "Contents": 0, "ListOrder": 1, "ShowTime": 5, "StartAt": "2020-10-15 10:30:00", "EndAt": "2020-11-05 10:30:00", "Shortcut": 25, "Shortcut2": 10, "UrlId": 1000024},
	{"Id": 24, "Open": false, "Contents": 0, "ListOrder": 4, "ShowTime": 5, "StartAt": "2020-10-27 10:30:00", "EndAt": "2020-11-19 10:30:00", "Shortcut": 38, "Shortcut2": 0, "UrlId": 1000025},
	{"Id": 25, "Open": false, "Contents": 0, "ListOrder": 2, "ShowTime": 5, "StartAt": "2020-10-27 10:30:00", "EndAt": "2020-11-19 10:30:00", "Shortcut": 25, "Shortcut2": 11, "UrlId": 1000026},
	{"Id": 26, "Open": false, "Contents": 0, "ListOrder": 5, "ShowTime": 5, "StartAt": "2020-11-11 10:30:00", "EndAt": "2020-12-03 10:30:00", "Shortcut": 37, "Shortcut2": 0, "UrlId": 1000027},
	{"Id": 27, "Open": false, "Contents": 0, "ListOrder": 1, "ShowTime": 5, "StartAt": "2020-11-11 10:30:00", "EndAt": "2020-12-03 10:30:00", "Shortcut": 25, "Shortcut2": 12, "UrlId": 1000028},
	{"Id": 28, "Open": true, "Contents": 0, "ListOrder": 5, "ShowTime": 5, "StartAt": "2020-11-27 10:30:00", "EndAt": "2020-12-17 10:30:00", "Shortcut": 38, "Shortcut2": 0, "UrlId": 1000029},
	{"Id": 29, "Open": true, "Contents": 0, "ListOrder": 1, "ShowTime": 5, "StartAt": "2020-12-10 10:30:00", "EndAt": "2021-01-07 10:30:00", "Shortcut": 25, "Shortcut2": 13, "UrlId": 1000031},
	{"Id": 30, "Open": true, "Contents": 0, "ListOrder": 2, "ShowTime": 5, "StartAt": "2020-12-10 10:30:00", "EndAt": "2021-01-07 10:30:00", "Shortcut": 25, "Shortcut2": 14, "UrlId": 1000032},
	{"Id": 31, "Open": true, "Contents": 0, "ListOrder": 5, "ShowTime": 5, "StartAt": "2020-12-09 10:30:00", "EndAt": "2021-01-07 10:30:00", "Shortcut": 36, "Shortcut2": 0, "UrlId": 1000030}
]