[
	{"Id": 1, "Period": 30, "1": 2671, "2": 2671, "3": 2671, "4": 2671, "5": 2671, "6": 2671, "7": 2671, "8": 2671, "9": 2671, "10": 2671, "11": 2671, "12": 2671, "13": 2671, "14": 2671, "15": 2671, "16": 2671, "17": 2671, "18": 2671, "19": 2671, "20": 2671, "21": 2671, "22": 2671, "23": 2671, "24": 2671, "25": 2671, "26": 2671, "27": 2671, "28": 2671, "29": 0, "30": 0},
	{"Id": 2, "Period": 7, "1": 2670, "2": 2670, "3": 2670, "4": 2670, "5": 2670, "6": 2670, "7": 2670, "8": 0, "9": 0, "10": 0, "11": 0, "12": 0, "13": 0, "14": 0, "15": 0, "16": 0, "17": 0, "18": 0, "19": 0, "20": 0, "21": 0, "22": 0, "23": 0, "24": 0, "25": 0, "26": 0, "27": 0, "28": 0, "29": 0, "30": 0}
]