[
	{"Id": 5, "Desc": 50100005, "RouletteDescImage": "Sprite/PackNo/Event_Img_07", "RouletteBoardBg": "SpriteBgSto/Bg_Sto_Halloween_D", "RouletteText": 50110005, "CostType": 5, "CostItem": 97, "ReqVal": 1, "ReqDia": 100, "RouletteCount": 15},
	{"Id": 6, "Desc": 50100005, "RouletteDescImage": "Sprite/PackNo/Event_Img_08", "RouletteBoardBg": "SpriteBgSto/Bg_Sto_BackYard_D", "RouletteText": 50110006, "CostType": 5, "CostItem": 99, "ReqVal": 1, "ReqDia": 50, "RouletteCount": 15}
]