[
	{"Id": 1, "Name": 115001, "PlayTimeMinute": 60, "CostGuildPoint": 280, "Score": 50000, "Image": "Sprite/Explore/Explore_CellBg_01_Test", "RwdGuildExp": 40, "RwdShareGold": 40000, "RwdShareMedal": 400, "Bg": "Explore/Bg/Bg_01_Test"},
	{"Id": 2, "Name": 115002, "PlayTimeMinute": 60, "CostGuildPoint": 320, "Score": 230000, "Image": "Sprite/Explore/Explore_CellBg_02_Test", "RwdGuildExp": 60, "RwdShareGold": 60000, "RwdShareMedal": 600, "Bg": "Explore/Bg/Bg_02_Test"},
	{"Id": 3, "Name": 115003, "PlayTimeMinute": 60, "CostGuildPoint": 360, "Score": 410000, "Image": "Sprite/Explore/Explore_CellBg_03_Test", "RwdGuildExp": 80, "RwdShareGold": 80000, "RwdShareMedal": 800, "Bg": "Explore/Bg/Bg_01_Test"},
	{"Id": 4, "Name": 115004, "PlayTimeMinute": 60, "CostGuildPoint": 400, "Score": 590000, "Image": "Sprite/Explore/Explore_CellBg_01_Test", "RwdGuildExp": 100, "RwdShareGold": 100000, "RwdShareMedal": 1000, "Bg": "Explore/Bg/Bg_02_Test"},
	{"Id": 5, "Name": 115005, "PlayTimeMinute": 60, "CostGuildPoint": 440, "Score": 770000, "Image": "Sprite/Explore/Explore_CellBg_02_Test", "RwdGuildExp": 120, "RwdShareGold": 120000, "RwdShareMedal": 1200, "Bg": "Explore/Bg/Bg_01_Test"},
	{"Id": 6, "Name": 115006, "PlayTimeMinute": 60, "CostGuildPoint": 480, "Score": 950000, "Image": "Sprite/Explore/Explore_CellBg_03_Test", "RwdGuildExp": 140, "RwdShareGold": 140000, "RwdShareMedal": 1400, "Bg": "Explore/Bg/Bg_02_Test"},
	{"Id": 7, "Name": 115007, "PlayTimeMinute": 60, "CostGuildPoint": 520, "Score": 1130000, "Image": "Sprite/Explore/Explore_CellBg_01_Test", "RwdGuildExp": 160, "RwdShareGold": 160000, "RwdShareMedal": 1600, "Bg": "Explore/Bg/Bg_01_Test"},
	{"Id": 8, "Name": 115008, "PlayTimeMinute": 60, "CostGuildPoint": 560, "Score": 1310000, "Image": "Sprite/Explore/Explore_CellBg_02_Test", "RwdGuildExp": 180, "RwdShareGold": 180000, "RwdShareMedal": 1800, "Bg": "Explore/Bg/Bg_02_Test"},
	{"Id": 9, "Name": 115009, "PlayTimeMinute": 60, "CostGuildPoint": 600, "Score": 1500000, "Image": "Sprite/Explore/Explore_CellBg_03_Test", "RwdGuildExp": 200, "RwdShareGold": 200000, "RwdShareMedal": 2000, "Bg": "Explore/Bg/Bg_01_Test"},
	{"Id": 10, "Name": 115010, "PlayTimeMinute": 60, "CostGuildPoint": 640, "Score": 2000000, "Image": "Sprite/Explore/Explore_CellBg_01_Test", "RwdGuildExp": 220, "RwdShareGold": 220000, "RwdShareMedal": 2200, "Bg": "Explore/Bg/Bg_02_Test"},
	{"Id": 11, "Name": 115011, "PlayTimeMinute": 60, "CostGuildPoint": 680, "Score": 2500000, "Image": "Sprite/Explore/Explore_CellBg_02_Test", "RwdGuildExp": 240, "RwdShareGold": 240000, "RwdShareMedal": 2400, "Bg": "Explore/Bg/Bg_01_Test"},
	{"Id": 12, "Name": 115012, "PlayTimeMinute": 60, "CostGuildPoint": 720, "Score": 3000000, "Image": "Sprite/Explore/Explore_CellBg_03_Test", "RwdGuildExp": 260, "RwdShareGold": 260000, "RwdShareMedal": 2600, "Bg": "Explore/Bg/Bg_02_Test"},
	{"Id": 13, "Name": 115013, "PlayTimeMinute": 60, "CostGuildPoint": 760, "Score": 3500000, "Image": "Sprite/Explore/Explore_CellBg_01_Test", "RwdGuildExp": 280, "RwdShareGold": 280000, "RwdShareMedal": 2800, "Bg": "Explore/Bg/Bg_01_Test"},
	{"Id": 14, "Name": 115014, "PlayTimeMinute": 60, "CostGuildPoint": 800, "Score": 4000000, "Image": "Sprite/Explore/Explore_CellBg_02_Test", "RwdGuildExp": 300, "RwdShareGold": 300000, "RwdShareMedal": 3000, "Bg": "Explore/Bg/Bg_02_Test"},
	{"Id": 15, "Name": 115015, "PlayTimeMinute": 60, "CostGuildPoint": 840, "Score": 4500000, "Image": "Sprite/Explore/Explore_CellBg_03_Test", "RwdGuildExp": 320, "RwdShareGold": 320000, "RwdShareMedal": 3200, "Bg": "Explore/Bg/Bg_01_Test"}
]