[
	{"Id": 1, "UserLv": 10, "RwdElement": 801},
	{"Id": 2, "UserLv": 20, "RwdElement": 802},
	{"Id": 3, "UserLv": 30, "RwdElement": 803},
	{"Id": 4, "UserLv": 40, "RwdElement": 804},
	{"Id": 5, "UserLv": 50, "RwdElement": 805},
	{"Id": 6, "UserLv": 60, "RwdElement": 806},
	{"Id": 7, "UserLv": 70, "RwdElement": 807},
	{"Id": 8, "UserLv": 80, "RwdElement": 808},
	{"Id": 9, "UserLv": 90, "RwdElement": 809},
	{"Id": 10, "UserLv": 100, "RwdElement": 810}
]