[
	{"Id": 1, "Exp": 500, "Member": 10, "DailyRwdVal": 101, "ShopSlotCnt": 8},
	{"Id": 2, "Exp": 600, "Member": 11, "DailyRwdVal": 101, "ShopSlotCnt": 10},
	{"Id": 3, "Exp": 720, "Member": 12, "DailyRwdVal": 101, "ShopSlotCnt": 12},
	{"Id": 4, "Exp": 864, "Member": 13, "DailyRwdVal": 101, "ShopSlotCnt": 14},
	{"Id": 5, "Exp": 1036, "Member": 14, "DailyRwdVal": 101, "ShopSlotCnt": 16},
	{"Id": 6, "Exp": 1243, "Member": 15, "DailyRwdVal": 101, "ShopSlotCnt": 16},
	{"Id": 7, "Exp": 1491, "Member": 16, "DailyRwdVal": 101, "ShopSlotCnt": 16},
	{"Id": 8, "Exp": 1789, "Member": 17, "DailyRwdVal": 101, "ShopSlotCnt": 16},
	{"Id": 9, "Exp": 2146, "Member": 18, "DailyRwdVal": 101, "ShopSlotCnt": 16},
	{"Id": 10, "Exp": 2575, "Member": 19, "DailyRwdVal": 101, "ShopSlotCnt": 16},
	{"Id": 11, "Exp": 3090, "Member": 20, "DailyRwdVal": 101, "ShopSlotCnt": 16},
	{"Id": 12, "Exp": 3708, "Member": 21, "DailyRwdVal": 101, "ShopSlotCnt": 16},
	{"Id": 13, "Exp": 4449, "Member": 22, "DailyRwdVal": 101, "ShopSlotCnt": 16},
	{"Id": 14, "Exp": 5338, "Member": 23, "DailyRwdVal": 101, "ShopSlotCnt": 16},
	{"Id": 15, "Exp": 6405, "Member": 24, "DailyRwdVal": 101, "ShopSlotCnt": 16},
	{"Id": 16, "Exp": 7686, "Member": 25, "DailyRwdVal": 101, "ShopSlotCnt": 16},
	{"Id": 17, "Exp": 9223, "Member": 26, "DailyRwdVal": 101, "ShopSlotCnt": 16},
	{"Id": 18, "Exp": 11067, "Member": 27, "DailyRwdVal": 101, "ShopSlotCnt": 16},
	{"Id": 19, "Exp": 13280, "Member": 28, "DailyRwdVal": 101, "ShopSlotCnt": 16},
	{"Id": 20, "Exp": 15936, "Member": 29, "DailyRwdVal": 101, "ShopSlotCnt": 16},
	{"Id": 21, "Exp": 19123, "Member": 30, "DailyRwdVal": 101, "ShopSlotCnt": 16},
	{"Id": 22, "Exp": 22947, "Member": 31, "DailyRwdVal": 101, "ShopSlotCnt": 16},
	{"Id": 23, "Exp": 27536, "Member": 32, "DailyRwdVal": 101, "ShopSlotCnt": 16},
	{"Id": 24, "Exp": 33043, "Member": 33, "DailyRwdVal": 101, "ShopSlotCnt": 16},
	{"Id": 25, "Exp": 39651, "Member": 34, "DailyRwdVal": 101, "ShopSlotCnt": 16},
	{"Id": 26, "Exp": 47581, "Member": 35, "DailyRwdVal": 101, "ShopSlotCnt": 16},
	{"Id": 27, "Exp": 57097, "Member": 36, "DailyRwdVal": 101, "ShopSlotCnt": 16},
	{"Id": 28, "Exp": 68516, "Member": 37, "DailyRwdVal": 101, "ShopSlotCnt": 16},
	{"Id": 29, "Exp": 82219, "Member": 38, "DailyRwdVal": 101, "ShopSlotCnt": 16},
	{"Id": 30, "Exp": 98662, "Member": 39, "DailyRwdVal": 101, "ShopSlotCnt": 16}
]