[
	{"Id": 1, "Reward": 4400, "RwdGuildExp": 100},
	{"Id": 2, "Reward": 4401, "RwdGuildExp": 200},
	{"Id": 3, "Reward": 4402, "RwdGuildExp": 400},
	{"Id": 4, "Reward": 4403, "RwdGuildExp": 600},
	{"Id": 5, "Reward": 4404, "RwdGuildExp": 800},
	{"Id": 6, "Reward": 4405, "RwdGuildExp": 1000}
]