[
	{"Id": 1, "CharID": 1000, "Voice": "_0031"},
	{"Id": 2, "CharID": 1034, "Voice": "_0031"},
	{"Id": 3, "CharID": 1001, "Voice": "_0031"},
	{"Id": 4, "CharID": 1002, "Voice": "_0031"},
	{"Id": 5, "CharID": 1003, "Voice": "_0031"},
	{"Id": 6, "CharID": 1004, "Voice": "_0031"},
	{"Id": 7, "CharID": 1038, "Voice": "_0031"},
	{"Id": 8, "CharID": 1005, "Voice": "_0031"},
	{"Id": 9, "CharID": 1028, "Voice": "_0031"},
	{"Id": 10, "CharID": 1006, "Voice": "_0031"},
	{"Id": 11, "CharID": 1007, "Voice": "_0031"},
	{"Id": 12, "CharID": 1032, "Voice": "_0031"},
	{"Id": 13, "CharID": 1008, "Voice": "_0031"},
	{"Id": 14, "CharID": 1009, "Voice": "_0031"},
	{"Id": 15, "CharID": 1010, "Voice": "_0031"},
	{"Id": 16, "CharID": 1040, "Voice": "_0031"},
	{"Id": 17, "CharID": 1011, "Voice": "_0031"},
	{"Id": 18, "CharID": 1031, "Voice": "_0031"},
	{"Id": 19, "CharID": 1012, "Voice": "_0031"},
	{"Id": 20, "CharID": 1036, "Voice": "_0031"},
	{"Id": 21, "CharID": 1013, "Voice": "_0031"},
	{"Id": 22, "CharID": 1014, "Voice": "_0031"},
	{"Id": 23, "CharID": 1030, "Voice": "_0031"},
	{"Id": 24, "CharID": 1041, "Voice": "_0031"},
	{"Id": 25, "CharID": 1015, "Voice": "_0031"},
	{"Id": 26, "CharID": 1016, "Voice": "_0031"},
	{"Id": 27, "CharID": 1017, "Voice": "_0031"},
	{"Id": 28, "CharID": 1018, "Voice": "_0031"},
	{"Id": 29, "CharID": 1029, "Voice": "_0031"},
	{"Id": 30, "CharID": 1019, "Voice": "_0031"},
	{"Id": 31, "CharID": 1020, "Voice": "_0031"},
	{"Id": 32, "CharID": 1021, "Voice": "_0031"},
	{"Id": 33, "CharID": 1027, "Voice": "_0031"},
	{"Id": 34, "CharID": 1022, "Voice": "_0031"},
	{"Id": 35, "CharID": 1033, "Voice": "_0031"},
	{"Id": 36, "CharID": 1037, "Voice": "_0031"},
	{"Id": 37, "CharID": 1023, "Voice": "_0031"},
	{"Id": 38, "CharID": 1035, "Voice": "_0031"},
	{"Id": 39, "CharID": 1024, "Voice": "_0031"},
	{"Id": 40, "CharID": 1025, "Voice": "_0031"},
	{"Id": 41, "CharID": 1039, "Voice": "_0031"},
	{"Id": 42, "CharID": 1026, "Voice": "_0031"},
	{"Id": 43, "CharID": 1042, "Voice": "_0031"},
	{"Id": 44, "CharID": 101, "Voice": "_0400"},
	{"Id": 45, "CharID": 102, "Voice": "_0400"},
	{"Id": 46, "CharID": 103, "Voice": "_0400"},
	{"Id": 47, "CharID": 1050, "Voice": "_0031"},
	{"Id": 48, "CharID": 1043, "Voice": "_0031"},
	{"Id": 49, "CharID": 1051, "Voice": "_0031"},
	{"Id": 50, "CharID": 1052, "Voice": "_0031"},
	{"Id": 51, "CharID": 1045, "Voice": "_0031"},
	{"Id": 52, "CharID": 1048, "Voice": "_0031"},
	{"Id": 53, "CharID": 1053, "Voice": "_0031"}
]