[
	{"Id": 1, "Name": 117001, "Stat": 11, "StatVal": 440, "AllCharStat": 12, "AllCharStatValMin": 0.001, "AllCharStatValMax": 0.03},
	{"Id": 2, "Name": 117002, "Stat": 51, "StatVal": 325, "AllCharStat": 52, "AllCharStatValMin": 0.001, "AllCharStatValMax": 0.05},
	{"Id": 3, "Name": 117003, "Stat": 47, "StatVal": 320, "AllCharStat": 0, "AllCharStatValMin": 0, "AllCharStatValMax": 0},
	{"Id": 4, "Name": 117004, "Stat": 47, "StatVal": 320, "AllCharStat": 0, "AllCharStatValMin": 0, "AllCharStatValMax": 0},
	{"Id": 5, "Name": 117005, "Stat": 2, "StatVal": 350, "AllCharStat": 48, "AllCharStatValMin": 0.001, "AllCharStatValMax": 0.05},
	{"Id": 6, "Name": 117006, "Stat": 2, "StatVal": 175, "AllCharStat": 0, "AllCharStatValMin": 0, "AllCharStatValMax": 0},
	{"Id": 7, "Name": 117007, "Stat": 49, "StatVal": 320, "AllCharStat": 0, "AllCharStatValMin": 0, "AllCharStatValMax": 0},
	{"Id": 8, "Name": 117008, "Stat": 4, "StatVal": 225, "AllCharStat": 0, "AllCharStatValMin": 0, "AllCharStatValMax": 0},
	{"Id": 9, "Name": 117009, "Stat": 14, "StatVal": 120, "AllCharStat": 0, "AllCharStatValMin": 0, "AllCharStatValMax": 0},
	{"Id": 10, "Name": 117010, "Stat": 1, "StatVal": 100, "AllCharStat": 0, "AllCharStatValMin": 0, "AllCharStatValMax": 0},
	{"Id": 11, "Name": 117011, "Stat": 2, "StatVal": 50, "AllCharStat": 0, "AllCharStatValMin": 0, "AllCharStatValMax": 0},
	{"Id": 12, "Name": 117012, "Stat": 1, "StatVal": 200, "AllCharStat": 0, "AllCharStatValMin": 0, "AllCharStatValMax": 0},
	{"Id": 13, "Name": 117013, "Stat": 11, "StatVal": 240, "AllCharStat": 0, "AllCharStatValMin": 0, "AllCharStatValMax": 0},
	{"Id": 14, "Name": 117014, "Stat": 5, "StatVal": 700, "AllCharStat": 0, "AllCharStatValMin": 0, "AllCharStatValMax": 0},
	{"Id": 15, "Name": 117015, "Stat": 5, "StatVal": 2600, "AllCharStat": 6, "AllCharStatValMin": 0.001, "AllCharStatValMax": 0.03},
	{"Id": 16, "Name": 117016, "Stat": 11, "StatVal": 480, "AllCharStat": 0, "AllCharStatValMin": 0, "AllCharStatValMax": 0},
	{"Id": 17, "Name": 117017, "Stat": 11, "StatVal": 240, "AllCharStat": 0, "AllCharStatValMin": 0, "AllCharStatValMax": 0},
	{"Id": 18, "Name": 117018, "Stat": 47, "StatVal": 400, "AllCharStat": 0, "AllCharStatValMin": 0, "AllCharStatValMax": 0}
]