[
	{"Id": 1, "ShopTab": 1, "BaseTimeHour": 1, "RefreshTurnMinute": 180, "CostType": 1, "CostItem": 0},
	{"Id": 2, "ShopTab": 4, "BaseTimeHour": 1, "RefreshTurnMinute": 180, "CostType": 1, "CostItem": 0},
	{"Id": 3, "ShopTab": 6, "BaseTimeHour": 1, "RefreshTurnMinute": 180, "CostType": 1, "CostItem": 0},
	{"Id": 4, "ShopTab": 9, "BaseTimeHour": 1, "RefreshTurnMinute": 180, "CostType": 1, "CostItem": 0}
]