[
	{"Id": 21, "HitTime":[0.1], "NamePrefab": "Battle/Name/Battle_Name_01", "CutInTime": 0, "IdleTime": 0, "MoveTime": 0, "ReturnTime": 0, "LandingTime": 0, "AtkEndTime": 0, "AtkVoice": 0, "ProjectileTime": 0, "HitAniTime": 0, "DeadTime": 0, "HitEffectTime": 0},
	{"Id": 31, "HitTime":[0.4], "NamePrefab": "Battle/Name/Battle_Name_01", "CutInTime": 0, "IdleTime": 0, "MoveTime": 0.4, "ReturnTime": 0.4, "LandingTime": 0.14, "AtkEndAni": "Skill_Basic_W", "AtkEndTime": 0.6, "AtkVoice": "_0300", "ProjectileTime": 0, "HitAni": "Damage", "HitAniTime": 0.5, "DeadAni": "Dead", "DeadTime": 0.96, "HitEffectTime": 0.4},
	{"Id": 41, "HitTime":[0.9], "NamePrefab": "Battle/Name/Battle_Name_01", "CutInTime": 0, "IdleTime": 0, "MoveTime": 0.4, "ReturnTime": 0.4, "LandingTime": 0.14, "AtkEndAni": "Skill_Single_A", "AtkEndTime": 0.8, "AtkVoice": "_0305", "ProjectileTime": 0.3, "HitAni": "Damage", "HitAniTime": 0.5, "DeadAni": "Dead", "DeadTime": 0.96, "HitEffectTime": 0.4},
	{"Id": 51, "HitTime":[0.9], "NamePrefab": "Battle/Name/Battle_Name_01", "CutInTime": 0, "IdleTime": 0, "MoveTime": 0.4, "ReturnTime": 0.4, "LandingTime": 0.14, "AtkEndAni": "Skill_Single_M", "AtkEndTime": 0.9, "AtkVoice": "_0310", "ProjectileTime": 0.3, "HitAni": "Damage", "HitAniTime": 0.5, "DeadAni": "Dead", "DeadTime": 0.96, "HitEffectTime": 0.4},
	{"Id": 1101, "HitTime":[0.5], "NamePrefab": "Battle/Name/Battle_Name_02", "UseCutin": true, "CutInReady": 0.8, "CutInTime": 2, "IdleTime": 0, "MoveTime": 0.4, "ReturnTime": 0.4, "LandingTime": 0.14, "AtkEndAni": "Skill_Single_W", "AtkEndTime": 0.86, "AtkVoice": "_0301", "ProjectileTime": 0, "HitAni": "Damage", "HitAniTime": 0.5, "DeadAni": "Dead", "DeadTime": 0.96, "HitEffectTime": 0.4},
	{"Id": 1102, "HitTime":[0.5], "NamePrefab": "Battle/Name/Battle_Name_02", "UseCutin": true, "CutInReady": 0.8, "CutInTime": 2, "IdleTime": 0, "MoveTime": 0.4, "ReturnTime": 0.4, "LandingTime": 0.14, "AtkEndAni": "Skill_Single_W", "AtkEndTime": 0.86, "AtkVoice": "_0302", "ProjectileTime": 0, "HitAni": "Damage", "HitAniTime": 0.5, "DeadAni": "Dead", "DeadTime": 0.96, "HitEffectTime": 0.4},
	{"Id": 1103, "HitTime":[0.5], "NamePrefab": "Battle/Name/Battle_Name_02", "UseCutin": true, "CutInReady": 0.8, "CutInTime": 2, "IdleTime": 0, "MoveTime": 0.4, "ReturnTime": 0.4, "LandingTime": 0.14, "AtkEndAni": "Skill_Single_W", "AtkEndTime": 0.86, "AtkVoice": "_0302", "ProjectileTime": 0, "HitAni": "Damage", "HitAniTime": 0.5, "DeadAni": "Dead", "DeadTime": 0.96, "HitEffectTime": 0.4},
	{"Id": 1104, "HitTime":[0.5, 0.01, 0.01], "NamePrefab": "Battle/Name/Battle_Name_02", "UseCutin": true, "CutInReady": 0.8, "CutInTime": 2, "IdleTime": 0, "MoveTime": 0.4, "ReturnTime": 0.4, "LandingTime": 0.14, "AtkEndAni": "Skill_Range_W", "AtkEndTime": 0.86, "AtkVoice": "_0302", "ProjectileTime": 0, "HitAni": "Damage", "HitAniTime": 0.5, "DeadAni": "Dead", "DeadTime": 0.96, "HitEffectTime": 0.8},
	{"Id": 1105, "HitTime":[0.5], "NamePrefab": "Battle/Name/Battle_Name_02", "UseCutin": true, "CutInReady": 0.8, "CutInTime": 2, "IdleTime": 0, "MoveTime": 0.4, "ReturnTime": 0.4, "LandingTime": 0.14, "AtkEndAni": "Skill_Single_W", "AtkEndTime": 0.86, "AtkVoice": "_0301", "ProjectileTime": 0, "HitAni": "Damage", "HitAniTime": 0.5, "DeadAni": "Dead", "DeadTime": 0.96, "HitEffectTime": 0.4},
	{"Id": 1106, "HitTime":[0.5], "NamePrefab": "Battle/Name/Battle_Name_02", "UseCutin": true, "CutInReady": 0.8, "CutInTime": 2, "IdleTime": 0, "MoveTime": 0.4, "ReturnTime": 0.4, "LandingTime": 0.14, "AtkEndAni": "Skill_Single_W", "AtkEndTime": 0.8, "AtkVoice": "_0302", "ProjectileTime": 0, "HitAni": "Damage", "HitAniTime": 0.5, "DeadAni": "Dead", "DeadTime": 0.96, "HitEffectTime": 2},
	{"Id": 1107, "HitTime":[0.5], "NamePrefab": "Battle/Name/Battle_Name_02", "UseCutin": true, "CutInReady": 0.8, "CutInTime": 2, "IdleTime": 0, "MoveTime": 0.4, "ReturnTime": 0.4, "LandingTime": 0.14, "AtkEndAni": "Skill_Single_W", "AtkEndTime": 0.86, "AtkVoice": "_0301", "ProjectileTime": 0, "HitAni": "Damage", "HitAniTime": 0.5, "DeadAni": "Dead", "DeadTime": 0.96, "HitEffectTime": 0.4},
	{"Id": 1108, "HitTime":[0.9], "NamePrefab": "Battle/Name/Battle_Name_02", "UseCutin": true, "CutInReady": 0.8, "CutInTime": 2, "IdleTime": 0, "MoveTime": 0.4, "ReturnTime": 0.4, "LandingTime": 0.14, "AtkEndAni": "Skill_Buff_W", "AtkEndTime": 0.86, "AtkVoice": "_0304", "ProjectileTime": 0, "HitAni": "Damage", "HitAniTime": 0.5, "DeadAni": "Dead", "DeadTime": 0.96, "HitEffectTime": 2},
	{"Id": 2101, "HitTime":[0.9], "NamePrefab": "Battle/Name/Battle_Name_02", "UseCutin": true, "CutInReady": 0.8, "CutInTime": 2, "IdleTime": 0, "MoveTime": 0.4, "ReturnTime": 0.4, "LandingTime": 0.14, "AtkEndAni": "Skill_Single_A", "AtkEndTime": 0.8, "AtkVoice": "_0306", "ProjectileTime": 0.3, "HitAni": "Damage", "HitAniTime": 0.5, "DeadAni": "Dead", "DeadTime": 0.96, "HitEffectTime": 0.6},
	{"Id": 2102, "HitTime":[0.9], "NamePrefab": "Battle/Name/Battle_Name_02", "UseCutin": true, "CutInReady": 0.8, "CutInTime": 2, "IdleTime": 0, "MoveTime": 0.4, "ReturnTime": 0.4, "LandingTime": 0.14, "AtkEndAni": "Skill_Single_A", "AtkEndTime": 0.8, "AtkVoice": "_0307", "ProjectileTime": 0.3, "HitAni": "Damage", "HitAniTime": 0.5, "DeadAni": "Dead", "DeadTime": 0.96, "HitEffectTime": 0.6},
	{"Id": 2103, "HitTime":[0.9, 0.01, 0.01], "NamePrefab": "Battle/Name/Battle_Name_02", "UseCutin": true, "CutInReady": 0.8, "CutInTime": 2, "IdleTime": 0, "MoveTime": 0.4, "ReturnTime": 0.4, "LandingTime": 0.14, "AtkEndAni": "Skill_Range_A", "AtkEndTime": 0.8, "AtkVoice": "_0307", "ProjectileTime": 0.3, "HitAni": "Damage", "HitAniTime": 0.5, "DeadAni": "Dead", "DeadTime": 0.96, "HitEffectTime": 0.6},
	{"Id": 2104, "HitTime":[0.9], "NamePrefab": "Battle/Name/Battle_Name_02", "UseCutin": true, "CutInReady": 0.8, "CutInTime": 2, "IdleTime": 0, "MoveTime": 0.4, "ReturnTime": 0.4, "LandingTime": 0.14, "AtkEndAni": "Skill_Single_A", "AtkEndTime": 0.8, "AtkVoice": "_0307", "ProjectileTime": 0.3, "HitAni": "Damage", "HitAniTime": 0.5, "DeadAni": "Dead", "DeadTime": 0.96, "HitEffectTime": 0.6},
	{"Id": 2105, "HitTime":[0.9], "NamePrefab": "Battle/Name/Battle_Name_02", "UseCutin": true, "CutInReady": 0.8, "CutInTime": 2, "IdleTime": 0, "MoveTime": 0.4, "ReturnTime": 0.4, "LandingTime": 0.14, "AtkEndAni": "Skill_Range_A", "AtkEndTime": 0.8, "AtkVoice": "_0306", "ProjectileTime": 0.3, "HitAni": "Damage", "HitAniTime": 0.5, "DeadAni": "Dead", "DeadTime": 0.96, "HitEffectTime": 0.6},
	{"Id": 2106, "HitTime":[0.9], "NamePrefab": "Battle/Name/Battle_Name_02", "UseCutin": true, "CutInReady": 0.8, "CutInTime": 2, "IdleTime": 0, "MoveTime": 0.4, "ReturnTime": 0.4, "LandingTime": 0.14, "AtkEndAni": "Skill_Single_A", "AtkEndTime": 0.8, "AtkVoice": "_0309", "ProjectileTime": 0.3, "HitAni": "Damage", "HitAniTime": 0.5, "DeadAni": "Dead", "DeadTime": 0.96, "HitEffectTime": 0.6},
	{"Id": 2107, "HitTime":[0.9], "NamePrefab": "Battle/Name/Battle_Name_02", "UseCutin": true, "CutInReady": 0.8, "CutInTime": 2, "IdleTime": 0, "MoveTime": 0.4, "ReturnTime": 0.4, "LandingTime": 0.14, "AtkEndAni": "Skill_Single_A", "AtkEndTime": 0.8, "AtkVoice": "_0306", "ProjectileTime": 0.3, "HitAni": "Damage", "HitAniTime": 0.5, "DeadAni": "Dead", "DeadTime": 0.96, "HitEffectTime": 0.6},
	{"Id": 2108, "HitTime":[0.9, 0.01, 0.01, 0.01, 0.01, 0.01], "NamePrefab": "Battle/Name/Battle_Name_02", "UseCutin": true, "CutInReady": 0.8, "CutInTime": 2, "IdleTime": 0, "MoveTime": 0.4, "ReturnTime": 0.4, "LandingTime": 0.14, "AtkEndAni": "Skill_Single_A", "AtkEndTime": 0.8, "AtkVoice": "_0309", "ProjectileTime": 0.3, "HitAni": "Damage", "HitAniTime": 0.5, "DeadAni": "Dead", "DeadTime": 0.96, "HitEffectTime": 0.6},
	{"Id": 3101, "HitTime":[0.9], "NamePrefab": "Battle/Name/Battle_Name_02", "UseCutin": true, "CutInReady": 0.8, "CutInTime": 2, "IdleTime": 0, "MoveTime": 0.4, "ReturnTime": 0.4, "LandingTime": 0.14, "AtkEndAni": "Skill_Single_M", "AtkEndTime": 0.9, "AtkVoice": "_0311", "ProjectileTime": 0.3, "HitAni": "Damage", "HitAniTime": 0.5, "DeadAni": "Dead", "DeadTime": 0.96, "HitEffectTime": 0.4},
	{"Id": 3102, "HitTime":[0.5], "NamePrefab": "Battle/Name/Battle_Name_02", "UseCutin": true, "CutInReady": 0.8, "CutInTime": 2, "IdleTime": 0, "MoveTime": 0.4, "ReturnTime": 0.4, "LandingTime": 0.14, "AtkEndAni": "Skill_Range_M", "AtkEndTime": 0.9, "AtkVoice": "_0312", "ProjectileTime": 0.3, "HitAni": "Damage", "HitAniTime": 0.5, "DeadAni": "Dead", "DeadTime": 0.96, "HitEffectTime": 0.4},
	{"Id": 3103, "HitTime":[0.6], "NamePrefab": "Battle/Name/Battle_Name_02", "UseCutin": true, "CutInReady": 0.8, "CutInTime": 2, "IdleTime": 0, "MoveTime": 0.4, "ReturnTime": 0.4, "LandingTime": 0.14, "AtkEndAni": "Skill_Range_M", "AtkEndTime": 0.9, "AtkVoice": "_0312", "ProjectileTime": 0.3, "HitAni": "Damage", "HitAniTime": 0.5, "DeadAni": "Dead", "DeadTime": 0.96, "HitEffectTime": 0.4},
	{"Id": 3104, "HitTime":[0.6], "NamePrefab": "Battle/Name/Battle_Name_02", "UseCutin": true, "CutInReady": 0.8, "CutInTime": 2, "IdleTime": 0, "MoveTime": 0.4, "ReturnTime": 0.4, "LandingTime": 0.14, "AtkEndAni": "Skill_Range_M", "AtkEndTime": 0.9, "AtkVoice": "_0311", "ProjectileTime": 0.3, "HitAni": "Damage", "HitAniTime": 0.5, "DeadAni": "Dead", "DeadTime": 0.96, "HitEffectTime": 0.6},
	{"Id": 3105, "HitTime":[0.6, 0.01, 0.01], "NamePrefab": "Battle/Name/Battle_Name_02", "UseCutin": true, "CutInReady": 0.8, "CutInTime": 2, "IdleTime": 0, "MoveTime": 0.4, "ReturnTime": 0.4, "LandingTime": 0.14, "AtkEndAni": "Skill_Range_M", "AtkEndTime": 0.9, "AtkVoice": "_0311", "ProjectileTime": 0.3, "HitAni": "Damage", "HitAniTime": 0.5, "DeadAni": "Dead", "DeadTime": 0.96, "HitEffectTime": 0.6},
	{"Id": 3106, "HitTime":[0.6], "NamePrefab": "Battle/Name/Battle_Name_02", "UseCutin": true, "CutInReady": 0.8, "CutInTime": 2, "IdleTime": 0, "MoveTime": 0.4, "ReturnTime": 0.4, "LandingTime": 0.14, "AtkEndAni": "Skill_Buff_M", "AtkEndTime": 1, "AtkVoice": "_0313", "ProjectileTime": 0, "HitAni": "Heal", "HitAniTime": 0.5, "DeadAni": "Dead", "DeadTime": 0.96, "HitEffectTime": 0},
	{"Id": 3107, "HitTime":[0.6], "NamePrefab": "Battle/Name/Battle_Name_02", "UseCutin": true, "CutInReady": 0.8, "CutInTime": 2, "IdleTime": 0, "MoveTime": 0.4, "ReturnTime": 0.4, "LandingTime": 0.14, "AtkEndAni": "Skill_Buff_M", "AtkEndTime": 0.9, "AtkVoice": "_0312", "ProjectileTime": 0.3, "HitAni": "Damage", "HitAniTime": 0.5, "DeadAni": "Dead", "DeadTime": 0.96, "HitEffectTime": 2},
	{"Id": 3108, "HitTime":[0.6], "NamePrefab": "Battle/Name/Battle_Name_02", "UseCutin": true, "CutInReady": 0.8, "CutInTime": 2, "IdleTime": 0, "MoveTime": 0.4, "ReturnTime": 0.4, "LandingTime": 0.14, "AtkEndAni": "Skill_Buff_M", "AtkEndTime": 1, "AtkVoice": "_0313", "ProjectileTime": 0, "HitAni": "Heal", "HitAniTime": 0.5, "DeadAni": "Dead", "DeadTime": 0.96, "HitEffectTime": 2},
	{"Id": 100, "HitTime":[0.4], "NamePrefab": "Battle/Name/Battle_Name_01", "CutInTime": 0, "IdleTime": 0, "MoveTime": 0.4, "ReturnTime": 0.4, "LandingTime": 0.14, "AtkEndAni": "Skill_Basic_W", "AtkEndTime": 0.6, "AtkVoice": "_0018", "ProjectileTime": 0, "HitAni": "Damage", "HitAniTime": 0.5, "DeadAni": "Dead", "DeadTime": 0.96, "HitEffectTime": 0.4},
	{"Id": 101, "HitTime":[0.8], "NamePrefab": "Battle/Name/Battle_Name_01", "UseCutin": true, "CutInReady": 0.8, "CutInTime": 2, "IdleTime": 0, "MoveTime": 0.4, "ReturnTime": 0.4, "LandingTime": 0.14, "AtkEndAni": "Skill_Buff_W", "AtkEndTime": 0.86, "AtkVoice": "_0020", "ProjectileTime": 0, "HitAni": "Damage", "HitAniTime": 0.5, "DeadAni": "Dead", "DeadTime": 0.96, "HitEffectTime": 2},
	{"Id": 102, "HitTime":[0.8], "NamePrefab": "Battle/Name/Battle_Name_03", "UseCutin": true, "CutInReady": 0.8, "CutInTime": 2, "IdleTime": 0, "MoveTime": 0.4, "ReturnTime": 0.4, "LandingTime": 0.14, "AtkEndAni": "Skill_Single_W", "AtkEndTime": 0.86, "AtkVoice": "_0022", "ProjectileTime": 0, "HitAni": "Damage", "HitAniTime": 0.5, "DeadAni": "Dead", "DeadTime": 0.96, "HitEffectTime": 0.8},
	{"Id": 103, "HitTime":[0.4], "NamePrefab": "Battle/Name/Battle_Name_01", "CutInTime": 0, "IdleTime": 0, "MoveTime": 0.4, "ReturnTime": 0.4, "LandingTime": 0.14, "AtkEndAni": "Skill_Basic_W", "AtkEndTime": 0.6, "AtkVoice": "_0018", "ProjectileTime": 0, "HitAni": "Damage", "HitAniTime": 0.5, "DeadAni": "Dead", "DeadTime": 0.96, "HitEffectTime": 0.4},
	{"Id": 104, "HitTime":[0.5], "NamePrefab": "Battle/Name/Battle_Name_01", "UseCutin": true, "CutInReady": 0.8, "CutInTime": 2, "IdleTime": 0, "MoveTime": 0.4, "ReturnTime": 0.4, "LandingTime": 0.14, "AtkEndAni": "Skill_Single_W", "AtkEndTime": 0.86, "AtkVoice": "_0020", "ProjectileTime": 0, "HitAni": "Damage", "HitAniTime": 0.5, "DeadAni": "Dead", "DeadTime": 0.96, "HitEffectTime": 0.4},
	{"Id": 105, "HitTime":[0.5], "NamePrefab": "Battle/Name/Battle_Name_03", "UseCutin": true, "CutInReady": 0.8, "CutInTime": 2, "IdleTime": 0, "MoveTime": 0.4, "ReturnTime": 0.4, "LandingTime": 0.14, "AtkEndAni": "Skill_Single_W", "AtkEndTime": 0.86, "AtkVoice": "_0022", "ProjectileTime": 0, "HitAni": "Damage", "HitAniTime": 0.5, "DeadAni": "Dead", "DeadTime": 0.96, "HitEffectTime": 0.4},
	{"Id": 106, "HitTime":[0.4], "NamePrefab": "Battle/Name/Battle_Name_01", "CutInTime": 0, "IdleTime": 0, "MoveTime": 0.4, "ReturnTime": 0.4, "LandingTime": 0.14, "AtkEndAni": "Skill_Basic_W", "AtkEndTime": 0.6, "AtkVoice": "_0018", "ProjectileTime": 0, "HitAni": "Damage", "HitAniTime": 0.5, "DeadAni": "Dead", "DeadTime": 0.96, "HitEffectTime": 0.4},
	{"Id": 107, "HitTime":[0.4], "NamePrefab": "Battle/Name/Battle_Name_01", "UseCutin": true, "CutInReady": 0.8, "CutInTime": 2, "IdleTime": 0, "MoveTime": 0.4, "ReturnTime": 0.4, "LandingTime": 0.14, "AtkEndAni": "Skill_Buff_W", "AtkEndTime": 0.86, "AtkVoice": "_0020", "ProjectileTime": 0, "HitAni": "Damage", "HitAniTime": 0.5, "DeadAni": "Dead", "DeadTime": 0.96, "HitEffectTime": 1.4},
	{"Id": 108, "HitTime":[0.4, 0.01, 0.01, 0.01, 0.01, 0.01], "NamePrefab": "Battle/Name/Battle_Name_03", "UseCutin": true, "CutInReady": 0.8, "CutInTime": 2, "IdleTime": 0, "MoveTime": 0.4, "ReturnTime": 0.4, "LandingTime": 0.14, "AtkEndAni": "Skill_Single_W", "AtkEndTime": 0.8, "AtkVoice": "_0022", "ProjectileTime": 0, "HitAni": "Damage", "HitAniTime": 0.5, "DeadAni": "Dead", "DeadTime": 0.96, "HitEffectTime": 1},
	{"Id": 109, "HitTime":[0.9], "NamePrefab": "Battle/Name/Battle_Name_01", "CutInTime": 0, "IdleTime": 0, "MoveTime": 0.4, "ReturnTime": 0.4, "LandingTime": 0.14, "AtkEndAni": "Skill_Basic_A", "AtkEndTime": 0.62, "AtkVoice": "_0018", "ProjectileTime": 0.3, "HitAni": "Damage", "HitAniTime": 0.5, "DeadAni": "Dead", "DeadTime": 0.96, "HitEffectTime": 0.4},
	{"Id": 110, "HitTime":[0.9], "NamePrefab": "Battle/Name/Battle_Name_01", "UseCutin": true, "CutInReady": 0.8, "CutInTime": 2, "IdleTime": 0, "MoveTime": 0.4, "ReturnTime": 0.4, "LandingTime": 0.14, "AtkEndAni": "Skill_Single_A", "AtkEndTime": 0.8, "AtkVoice": "_0020", "ProjectileTime": 0.3, "HitAni": "Damage", "HitAniTime": 0.5, "DeadAni": "Dead", "DeadTime": 0.96, "HitEffectTime": 0.6},
	{"Id": 111, "HitTime":[0.9], "NamePrefab": "Battle/Name/Battle_Name_03", "UseCutin": true, "CutInReady": 0.8, "CutInTime": 2, "IdleTime": 0, "MoveTime": 0.4, "ReturnTime": 0.4, "LandingTime": 0.14, "AtkEndAni": "Skill_Single_A", "AtkEndTime": 0.8, "AtkVoice": "_0022", "ProjectileTime": 0.3, "HitAni": "Damage", "HitAniTime": 0.5, "DeadAni": "Dead", "DeadTime": 0.96, "HitEffectTime": 0.6},
	{"Id": 112, "HitTime":[0.4], "NamePrefab": "Battle/Name/Battle_Name_01", "CutInTime": 0, "IdleTime": 0, "MoveTime": 0.4, "ReturnTime": 0.4, "LandingTime": 0.14, "AtkEndAni": "Skill_Basic_G", "AtkEndTime": 0.6, "AtkVoice": "_0018", "ProjectileTime": 0, "HitAni": "Damage", "HitAniTime": 0.5, "DeadAni": "Dead", "DeadTime": 0.96, "HitEffectTime": 0.4},
	{"Id": 113, "HitTime":[0.9, 0.01, 0.01], "NamePrefab": "Battle/Name/Battle_Name_01", "UseCutin": true, "CutInReady": 0.8, "CutInTime": 2, "IdleTime": 0, "MoveTime": 0.4, "ReturnTime": 0.4, "LandingTime": 0.14, "AtkEndAni": "Skill_Single_G", "AtkEndTime": 1.14, "AtkVoice": "_0020", "ProjectileTime": 0.3, "HitAni": "Damage", "HitAniTime": 0.5, "DeadAni": "Dead", "DeadTime": 0.96, "HitEffectTime": 0.4},
	{"Id": 114, "HitTime":[0.5], "NamePrefab": "Battle/Name/Battle_Name_03", "UseCutin": true, "CutInReady": 0.8, "CutInTime": 2, "IdleTime": 0, "MoveTime": 0.4, "ReturnTime": 0.4, "LandingTime": 0.14, "AtkEndAni": "Skill_Buff_G", "AtkEndTime": 0.8, "AtkVoice": "_0021", "ProjectileTime": 0, "HitAni": "Heal", "HitAniTime": 0.5, "DeadAni": "Dead", "DeadTime": 0.96, "HitEffectTime": 0},
	{"Id": 115, "HitTime":[0.9], "NamePrefab": "Battle/Name/Battle_Name_01", "CutInTime": 0, "IdleTime": 0, "MoveTime": 0.4, "ReturnTime": 0.4, "LandingTime": 0.14, "AtkEndAni": "Skill_Basic_A", "AtkEndTime": 0.62, "AtkVoice": "_0018", "ProjectileTime": 0.3, "HitAni": "Damage", "HitAniTime": 0.5, "DeadAni": "Dead", "DeadTime": 0.96, "HitEffectTime": 0.4},
	{"Id": 116, "HitTime":[0.9], "NamePrefab": "Battle/Name/Battle_Name_01", "UseCutin": true, "CutInReady": 0.8, "CutInTime": 2, "IdleTime": 0, "MoveTime": 0.4, "ReturnTime": 0.4, "LandingTime": 0.14, "AtkEndAni": "Skill_Single_A", "AtkEndTime": 0.8, "AtkVoice": "_0020", "ProjectileTime": 0.3, "HitAni": "Damage", "HitAniTime": 0.5, "DeadAni": "Dead", "DeadTime": 0.96, "HitEffectTime": 0.6},
	{"Id": 117, "HitTime":[0.9], "NamePrefab": "Battle/Name/Battle_Name_03", "UseCutin": true, "CutInReady": 0.8, "CutInTime": 2, "IdleTime": 0, "MoveTime": 0.4, "ReturnTime": 0.4, "LandingTime": 0.14, "AtkEndAni": "Skill_Single_A", "AtkEndTime": 0.8, "AtkVoice": "_0022", "ProjectileTime": 0.3, "HitAni": "Damage", "HitAniTime": 0.5, "DeadAni": "Dead", "DeadTime": 0.96, "HitEffectTime": 0.6},
	{"Id": 118, "HitTime":[0.9], "NamePrefab": "Battle/Name/Battle_Name_01", "CutInTime": 0, "IdleTime": 0, "MoveTime": 0.4, "ReturnTime": 0.4, "LandingTime": 0.14, "AtkEndAni": "Skill_Basic_A", "AtkEndTime": 0.62, "AtkVoice": "_0018", "ProjectileTime": 0.3, "HitAni": "Damage", "HitAniTime": 0.5, "DeadAni": "Dead", "DeadTime": 0.96, "HitEffectTime": 0.4},
	{"Id": 119, "HitTime":[0.9], "NamePrefab": "Battle/Name/Battle_Name_01", "UseCutin": true, "CutInReady": 0.8, "CutInTime": 2, "IdleTime": 0, "MoveTime": 0.4, "ReturnTime": 0.4, "LandingTime": 0.14, "AtkEndAni": "Skill_Single_A", "AtkEndTime": 0.8, "AtkVoice": "_0020", "ProjectileTime": 0.3, "HitAni": "Damage", "HitAniTime": 0.5, "DeadAni": "Dead", "DeadTime": 0.96, "HitEffectTime": 0.6},
	{"Id": 120, "HitTime":[0.9], "NamePrefab": "Battle/Name/Battle_Name_03", "UseCutin": true, "CutInReady": 0.8, "CutInTime": 2, "IdleTime": 0, "MoveTime": 0.4, "ReturnTime": 0.4, "LandingTime": 0.14, "AtkEndAni": "Skill_Single_A", "AtkEndTime": 0.8, "AtkVoice": "_0022", "ProjectileTime": 0.3, "HitAni": "Damage", "HitAniTime": 0.5, "DeadAni": "Dead", "DeadTime": 0.96, "HitEffectTime": 0.6},
	{"Id": 121, "HitTime":[0.9], "NamePrefab": "Battle/Name/Battle_Name_01", "CutInTime": 0, "IdleTime": 0, "MoveTime": 0.4, "ReturnTime": 0.4, "LandingTime": 0.14, "AtkEndAni": "Skill_Basic_M", "AtkEndTime": 0.6, "AtkVoice": "_0018", "ProjectileTime": 0.3, "HitAni": "Damage", "HitAniTime": 0.5, "DeadAni": "Dead", "DeadTime": 0.96, "HitEffectTime": 0.4},
	{"Id": 122, "HitTime":[0.9], "NamePrefab": "Battle/Name/Battle_Name_01", "UseCutin": true, "CutInReady": 0.8, "CutInTime": 2, "IdleTime": 0, "MoveTime": 0.4, "ReturnTime": 0.4, "LandingTime": 0.14, "AtkEndAni": "Skill_Single_M", "AtkEndTime": 0.9, "AtkVoice": "_0020", "ProjectileTime": 0.3, "HitAni": "Damage", "HitAniTime": 0.5, "DeadAni": "Dead", "DeadTime": 0.96, "HitEffectTime": 0.4},
	{"Id": 123, "HitTime":[0.9], "NamePrefab": "Battle/Name/Battle_Name_03", "UseCutin": true, "CutInReady": 0.8, "CutInTime": 2, "IdleTime": 0, "MoveTime": 0.4, "ReturnTime": 0.4, "LandingTime": 0.14, "AtkEndAni": "Skill_Single_M", "AtkEndTime": 0.9, "AtkVoice": "_0022", "ProjectileTime": 0.3, "HitAni": "Damage", "HitAniTime": 0.5, "DeadAni": "Dead", "DeadTime": 0.96, "HitEffectTime": 0.4},
	{"Id": 124, "HitTime":[0.4], "NamePrefab": "Battle/Name/Battle_Name_01", "CutInTime": 0, "IdleTime": 0, "MoveTime": 0.4, "ReturnTime": 0.4, "LandingTime": 0.14, "AtkEndAni": "Skill_Basic_W", "AtkEndTime": 0.6, "AtkVoice": "_0018", "ProjectileTime": 0, "HitAni": "Damage", "HitAniTime": 0.5, "DeadAni": "Dead", "DeadTime": 0.96, "HitEffectTime": 0.4},
	{"Id": 125, "HitTime":[0.5, 0.01, 0.01], "NamePrefab": "Battle/Name/Battle_Name_01", "UseCutin": true, "CutInReady": 0.8, "CutInTime": 2, "IdleTime": 0, "MoveTime": 0.4, "ReturnTime": 0.4, "LandingTime": 0.14, "AtkEndAni": "Skill_Single_W", "AtkEndTime": 0.8, "AtkVoice": "_0020", "ProjectileTime": 0, "HitAni": "Damage", "HitAniTime": 0.5, "DeadAni": "Dead", "DeadTime": 0.96, "HitEffectTime": 0.4},
	{"Id": 126, "HitTime":[0.6], "NamePrefab": "Battle/Name/Battle_Name_03", "UseCutin": true, "CutInReady": 0.8, "CutInTime": 2, "IdleTime": 0, "MoveTime": 0.4, "ReturnTime": 0.4, "LandingTime": 0.14, "AtkEndAni": "Skill_Range_W", "AtkEndTime": 0.86, "AtkVoice": "_0022", "ProjectileTime": 0, "HitAni": "Damage", "HitAniTime": 0.5, "DeadAni": "Dead", "DeadTime": 0.96, "HitEffectTime": 0.4},
	{"Id": 127, "HitTime":[0.9], "NamePrefab": "Battle/Name/Battle_Name_01", "CutInTime": 0, "IdleTime": 0, "MoveTime": 0.4, "ReturnTime": 0.4, "LandingTime": 0.14, "AtkEndAni": "Skill_Basic_A", "AtkEndTime": 0.62, "AtkVoice": "_0018", "ProjectileTime": 0.3, "HitAni": "Damage", "HitAniTime": 0.5, "DeadAni": "Dead", "DeadTime": 0.96, "HitEffectTime": 0.4},
	{"Id": 128, "HitTime":[0.9, 0.01, 0.01], "NamePrefab": "Battle/Name/Battle_Name_01", "UseCutin": true, "CutInReady": 0.8, "CutInTime": 2, "IdleTime": 0, "MoveTime": 0.4, "ReturnTime": 0.4, "LandingTime": 0.14, "AtkEndAni": "Skill_Single_A", "AtkEndTime": 0.8, "AtkVoice": "_0020", "ProjectileTime": 0.3, "HitAni": "Damage", "HitAniTime": 0.5, "DeadAni": "Dead", "DeadTime": 0.96, "HitEffectTime": 0.6},
	{"Id": 129, "HitTime":[0.9], "NamePrefab": "Battle/Name/Battle_Name_03", "UseCutin": true, "CutInReady": 0.8, "CutInTime": 2, "IdleTime": 0, "MoveTime": 0.4, "ReturnTime": 0.4, "LandingTime": 0.14, "AtkEndAni": "Skill_Single_A", "AtkEndTime": 0.8, "AtkVoice": "_0022", "ProjectileTime": 0.3, "HitAni": "Damage", "HitAniTime": 0.5, "DeadAni": "Dead", "DeadTime": 0.96, "HitEffectTime": 0.6},
	{"Id": 130, "HitTime":[0.4], "NamePrefab": "Battle/Name/Battle_Name_01", "CutInTime": 0, "IdleTime": 0, "MoveTime": 0.4, "ReturnTime": 0.4, "LandingTime": 0.14, "AtkEndAni": "Skill_Basic_G", "AtkEndTime": 0.6, "AtkVoice": "_0018", "ProjectileTime": 0, "HitAni": "Damage", "HitAniTime": 0.5, "DeadAni": "Dead", "DeadTime": 0.96, "HitEffectTime": 0.4},
	{"Id": 131, "HitTime":[0.4], "NamePrefab": "Battle/Name/Battle_Name_01", "UseCutin": true, "CutInReady": 0.8, "CutInTime": 2, "IdleTime": 0, "MoveTime": 0.4, "ReturnTime": 0.4, "LandingTime": 0.14, "AtkEndAni": "Skill_Single_G", "AtkEndTime": 0.8, "AtkVoice": "_0020", "ProjectileTime": 0, "HitAni": "Damage", "HitAniTime": 0.5, "DeadAni": "Dead", "DeadTime": 0.96, "HitEffectTime": 0.4},
	{"Id": 132, "HitTime":[0.4], "NamePrefab": "Battle/Name/Battle_Name_03", "UseCutin": true, "CutInReady": 0.8, "CutInTime": 2, "IdleTime": 0, "MoveTime": 0.4, "ReturnTime": 0.4, "LandingTime": 0.14, "AtkEndAni": "Skill_Single_G", "AtkEndTime": 0.8, "AtkVoice": "_0022", "ProjectileTime": 0, "HitAni": "Damage", "HitAniTime": 0.5, "DeadAni": "Dead", "DeadTime": 0.96, "HitEffectTime": 0.4},
	{"Id": 133, "HitTime":[0.4], "NamePrefab": "Battle/Name/Battle_Name_01", "CutInTime": 0, "IdleTime": 0, "MoveTime": 0.4, "ReturnTime": 0.4, "LandingTime": 0.14, "AtkEndAni": "Skill_Basic_W", "AtkEndTime": 0.6, "AtkVoice": "_0018", "ProjectileTime": 0, "HitAni": "Damage", "HitAniTime": 0.5, "DeadAni": "Dead", "DeadTime": 0.96, "HitEffectTime": 0.4},
	{"Id": 134, "HitTime":[0.4], "NamePrefab": "Battle/Name/Battle_Name_01", "UseCutin": true, "CutInReady": 0.8, "CutInTime": 2, "IdleTime": 0, "MoveTime": 0.4, "ReturnTime": 0.4, "LandingTime": 0.14, "AtkEndAni": "Skill_Buff_W", "AtkEndTime": 0.86, "AtkVoice": "_0020", "ProjectileTime": 0, "HitAni": "Damage", "HitAniTime": 0.5, "DeadAni": "Dead", "DeadTime": 0.96, "HitEffectTime": 0.4},
	{"Id": 135, "HitTime":[0.5], "NamePrefab": "Battle/Name/Battle_Name_03", "UseCutin": true, "CutInReady": 0.8, "CutInTime": 2, "IdleTime": 0, "MoveTime": 0.4, "ReturnTime": 0.4, "LandingTime": 0.14, "AtkEndAni": "Skill_Single_W", "AtkEndTime": 0.86, "AtkVoice": "_0021", "ProjectileTime": 0, "HitAni": "Damage", "HitAniTime": 0.5, "DeadAni": "Dead", "DeadTime": 0.96, "HitEffectTime": 0.4},
	{"Id": 136, "HitTime":[0.4], "NamePrefab": "Battle/Name/Battle_Name_01", "CutInTime": 0, "IdleTime": 0, "MoveTime": 0.4, "ReturnTime": 0.4, "LandingTime": 0.14, "AtkEndAni": "Skill_Basic_W", "AtkEndTime": 0.6, "AtkVoice": "_0018", "ProjectileTime": 0, "HitAni": "Damage", "HitAniTime": 0.5, "DeadAni": "Dead", "DeadTime": 0.96, "HitEffectTime": 0.4},
	{"Id": 137, "HitTime":[0.4], "NamePrefab": "Battle/Name/Battle_Name_01", "UseCutin": true, "CutInReady": 0.8, "CutInTime": 2, "IdleTime": 0, "MoveTime": 0.4, "ReturnTime": 0.4, "LandingTime": 0.14, "AtkEndAni": "Skill_Single_W", "AtkEndTime": 0.86, "AtkVoice": "_0020", "ProjectileTime": 0, "HitAni": "Damage", "HitAniTime": 0.5, "DeadAni": "Dead", "DeadTime": 0.96, "HitEffectTime": 0.4},
	{"Id": 138, "HitTime":[0.4, 0.01, 0.01], "NamePrefab": "Battle/Name/Battle_Name_03", "UseCutin": true, "CutInReady": 0.8, "CutInTime": 2, "IdleTime": 0, "MoveTime": 0.4, "ReturnTime": 0.4, "LandingTime": 0.14, "AtkEndAni": "Skill_Buff_W", "AtkEndTime": 0.8, "AtkVoice": "_0022", "ProjectileTime": 0, "HitAni": "Damage", "HitAniTime": 0.5, "DeadAni": "Dead", "DeadTime": 0.96, "HitEffectTime": 0.4},
	{"Id": 139, "HitTime":[0.9], "NamePrefab": "Battle/Name/Battle_Name_01", "CutInTime": 0, "IdleTime": 0, "MoveTime": 0.4, "ReturnTime": 0.4, "LandingTime": 0.14, "AtkEndAni": "Skill_Basic_M", "AtkEndTime": 0.6, "AtkVoice": "_0018", "ProjectileTime": 0.3, "HitAni": "Damage", "HitAniTime": 0.5, "DeadAni": "Dead", "DeadTime": 0.96, "HitEffectTime": 0.4},
	{"Id": 140, "HitTime":[0.9, 0.01, 0.01], "NamePrefab": "Battle/Name/Battle_Name_01", "UseCutin": true, "CutInReady": 0.8, "CutInTime": 2, "IdleTime": 0, "MoveTime": 0.4, "ReturnTime": 0.4, "LandingTime": 0.14, "AtkEndAni": "Skill_Single_M", "AtkEndTime": 0.9, "AtkVoice": "_0020", "ProjectileTime": 0.3, "HitAni": "Damage", "HitAniTime": 0.5, "DeadAni": "Dead", "DeadTime": 0.96, "HitEffectTime": 0.4},
	{"Id": 141, "HitTime":[0.9], "NamePrefab": "Battle/Name/Battle_Name_03", "UseCutin": true, "CutInReady": 0.8, "CutInTime": 2, "IdleTime": 0, "MoveTime": 0.4, "ReturnTime": 0.4, "LandingTime": 0.14, "AtkEndAni": "Skill_Single_M", "AtkEndTime": 0.9, "AtkVoice": "_0022", "ProjectileTime": 0.3, "HitAni": "Damage", "HitAniTime": 0.5, "DeadAni": "Dead", "DeadTime": 0.96, "HitEffectTime": 0.4},
	{"Id": 142, "HitTime":[0.9], "NamePrefab": "Battle/Name/Battle_Name_01", "CutInTime": 0, "IdleTime": 0, "MoveTime": 0.4, "ReturnTime": 0.4, "LandingTime": 0.14, "AtkEndAni": "Skill_Basic_M", "AtkEndTime": 0.6, "AtkVoice": "_0018", "ProjectileTime": 0.3, "HitAni": "Damage", "HitAniTime": 0.5, "DeadAni": "Dead", "DeadTime": 0.96, "HitEffectTime": 0.4},
	{"Id": 143, "HitTime":[0.6], "NamePrefab": "Battle/Name/Battle_Name_01", "UseCutin": true, "CutInReady": 0.8, "CutInTime": 2, "IdleTime": 0, "MoveTime": 0.4, "ReturnTime": 0.4, "LandingTime": 0.14, "AtkEndAni": "Skill_Buff_M", "AtkEndTime": 1, "AtkVoice": "_0020", "ProjectileTime": 0, "HitAni": "Heal", "HitAniTime": 0.5, "DeadAni": "Dead", "DeadTime": 0.96, "HitEffectTime": 0},
	{"Id": 144, "HitTime":[0.6], "NamePrefab": "Battle/Name/Battle_Name_03", "UseCutin": true, "CutInReady": 0.8, "CutInTime": 2, "IdleTime": 0, "MoveTime": 0.4, "ReturnTime": 0.4, "LandingTime": 0.14, "AtkEndAni": "Skill_Buff_M", "AtkEndTime": 1, "AtkVoice": "_0021", "ProjectileTime": 0, "HitAni": "Heal", "HitAniTime": 0.5, "DeadAni": "Dead", "DeadTime": 0.96, "HitEffectTime": 0},
	{"Id": 145, "HitTime":[0.9], "NamePrefab": "Battle/Name/Battle_Name_01", "CutInTime": 0, "IdleTime": 0, "MoveTime": 0.4, "ReturnTime": 0.4, "LandingTime": 0.14, "AtkEndAni": "Skill_Basic_A", "AtkEndTime": 0.62, "AtkVoice": "_0018", "ProjectileTime": 0.3, "HitAni": "Damage", "HitAniTime": 0.5, "DeadAni": "Dead", "DeadTime": 0.96, "HitEffectTime": 0.4},
	{"Id": 146, "HitTime":[0.9], "NamePrefab": "Battle/Name/Battle_Name_01", "UseCutin": true, "CutInReady": 0.8, "CutInTime": 2, "IdleTime": 0, "MoveTime": 0.4, "ReturnTime": 0.4, "LandingTime": 0.14, "AtkEndAni": "Skill_Range_A", "AtkEndTime": 0.8, "AtkVoice": "_0020", "ProjectileTime": 0.3, "HitAni": "Damage", "HitAniTime": 0.5, "DeadAni": "Dead", "DeadTime": 0.96, "HitEffectTime": 0.6},
	{"Id": 147, "HitTime":[0.9, 0.01, 0.01], "NamePrefab": "Battle/Name/Battle_Name_03", "UseCutin": true, "CutInReady": 0.8, "CutInTime": 2, "IdleTime": 0, "MoveTime": 0.4, "ReturnTime": 0.4, "LandingTime": 0.14, "AtkEndAni": "Skill_Range_A", "AtkEndTime": 0.8, "AtkVoice": "_0022", "ProjectileTime": 0.3, "HitAni": "Damage", "HitAniTime": 0.5, "DeadAni": "Dead", "DeadTime": 0.96, "HitEffectTime": 0.6},
	{"Id": 148, "HitTime":[0.4], "NamePrefab": "Battle/Name/Battle_Name_01", "CutInTime": 0, "IdleTime": 0, "MoveTime": 0.4, "ReturnTime": 0.4, "LandingTime": 0.14, "AtkEndAni": "Skill_Basic_G", "AtkEndTime": 0.6, "AtkVoice": "_0018", "ProjectileTime": 0, "HitAni": "Damage", "HitAniTime": 0.5, "DeadAni": "Dead", "DeadTime": 0.96, "HitEffectTime": 0.4},
	{"Id": 149, "HitTime":[0.5], "NamePrefab": "Battle/Name/Battle_Name_03", "UseCutin": true, "CutInReady": 0.8, "CutInTime": 2, "IdleTime": 0, "MoveTime": 0.4, "ReturnTime": 0.4, "LandingTime": 0.14, "AtkEndAni": "Skill_Single_G", "AtkEndTime": 0.8, "AtkVoice": "_0020", "ProjectileTime": 0, "HitAni": "Damage", "HitAniTime": 0.5, "DeadAni": "Dead", "DeadTime": 0.96, "HitEffectTime": 0.4},
	{"Id": 150, "HitTime":[0.5], "NamePrefab": "Battle/Name/Battle_Name_03", "UseCutin": true, "CutInReady": 0.8, "CutInTime": 2, "IdleTime": 0, "MoveTime": 0.4, "ReturnTime": 0.4, "LandingTime": 0.14, "AtkEndAni": "Skill_Single_G", "AtkEndTime": 0.8, "AtkVoice": "_0022", "ProjectileTime": 0, "HitAni": "Damage", "HitAniTime": 0.5, "DeadAni": "Dead", "DeadTime": 0.96, "HitEffectTime": 0.4},
	{"Id": 151, "HitTime":[0.9], "NamePrefab": "Battle/Name/Battle_Name_01", "CutInTime": 0, "IdleTime": 0, "MoveTime": 0.4, "ReturnTime": 0.4, "LandingTime": 0.14, "AtkEndAni": "Skill_Basic_M", "AtkEndTime": 0.6, "AtkVoice": "_0018", "ProjectileTime": 0.3, "HitAni": "Damage", "HitAniTime": 0.5, "DeadAni": "Dead", "DeadTime": 0.96, "HitEffectTime": 0.4},
	{"Id": 152, "HitTime":[2, 0.01], "NamePrefab": "Battle/Name/Battle_Name_01", "UseCutin": true, "CutInReady": 0.8, "CutInTime": 2, "IdleTime": 0, "MoveTime": 0.4, "ReturnTime": 0.4, "LandingTime": 0.14, "AtkEndAni": "Skill_Buff_M", "AtkEndTime": 1, "AtkVoice": "_0021", "ProjectileTime": 0, "HitAni": "Heal", "HitAniTime": 0.5, "DeadAni": "Dead", "DeadTime": 0.96, "HitEffectTime": 3},
	{"Id": 153, "HitTime":[2], "NamePrefab": "Battle/Name/Battle_Name_01", "UseCutin": true, "CutInReady": 0.8, "CutInTime": 2, "IdleTime": 0, "MoveTime": 0.4, "ReturnTime": 0.4, "LandingTime": 0.14, "AtkEndAni": "Skill_Buff_M", "AtkEndTime": 1, "AtkVoice": "_0021", "ProjectileTime": 0, "HitAni": "Heal", "HitAniTime": 0.5, "DeadAni": "Dead", "DeadTime": 0.96, "HitEffectTime": 3},
	{"Id": 154, "HitTime":[0.9], "NamePrefab": "Battle/Name/Battle_Name_01", "CutInTime": 0, "IdleTime": 0, "MoveTime": 0.4, "ReturnTime": 0.4, "LandingTime": 0.14, "AtkEndAni": "Skill_Basic_M", "AtkEndTime": 0.6, "AtkVoice": "_0018", "ProjectileTime": 0.3, "HitAni": "Damage", "HitAniTime": 0.5, "DeadAni": "Dead", "DeadTime": 0.96, "HitEffectTime": 0.4},
	{"Id": 155, "HitTime":[0.6], "NamePrefab": "Battle/Name/Battle_Name_01", "UseCutin": true, "CutInReady": 0.8, "CutInTime": 2, "IdleTime": 0, "MoveTime": 0.4, "ReturnTime": 0.4, "LandingTime": 0.14, "AtkEndAni": "Skill_Buff_M", "AtkEndTime": 0.9, "AtkVoice": "_0020", "ProjectileTime": 0.3, "HitAni": "Damage", "HitAniTime": 0.5, "DeadAni": "Dead", "DeadTime": 0.96, "HitEffectTime": 1},
	{"Id": 156, "HitTime":[0.9], "NamePrefab": "Battle/Name/Battle_Name_03", "UseCutin": true, "CutInReady": 0.8, "CutInTime": 2, "IdleTime": 0, "MoveTime": 0.4, "ReturnTime": 0.4, "LandingTime": 0.14, "AtkEndAni": "Skill_Single_M", "AtkEndTime": 0.9, "AtkVoice": "_0022", "ProjectileTime": 0.3, "HitAni": "Damage", "HitAniTime": 0.5, "DeadAni": "Dead", "DeadTime": 0.96, "HitEffectTime": 0.4},
	{"Id": 157, "HitTime":[0.9], "NamePrefab": "Battle/Name/Battle_Name_01", "CutInTime": 0, "IdleTime": 0, "MoveTime": 0.4, "ReturnTime": 0.4, "LandingTime": 0.14, "AtkEndAni": "Skill_Basic_A", "AtkEndTime": 0.62, "AtkVoice": "_0018", "ProjectileTime": 0.3, "HitAni": "Damage", "HitAniTime": 0.5, "DeadAni": "Dead", "DeadTime": 0.96, "HitEffectTime": 0.4},
	{"Id": 158, "HitTime":[0.9, 0.01, 0.01], "NamePrefab": "Battle/Name/Battle_Name_01", "UseCutin": true, "CutInReady": 0.8, "CutInTime": 2, "IdleTime": 0, "MoveTime": 0.4, "ReturnTime": 0.4, "LandingTime": 0.14, "AtkEndAni": "Skill_Range_A", "AtkEndTime": 0.8, "AtkVoice": "_0020", "ProjectileTime": 0.3, "HitAni": "Damage", "HitAniTime": 0.5, "DeadAni": "Dead", "DeadTime": 0.96, "HitEffectTime": 0.6},
	{"Id": 159, "HitTime":[0.9], "NamePrefab": "Battle/Name/Battle_Name_03", "UseCutin": true, "CutInReady": 0.8, "CutInTime": 2, "IdleTime": 0, "MoveTime": 0.4, "ReturnTime": 0.4, "LandingTime": 0.14, "AtkEndAni": "Skill_Single_A", "AtkEndTime": 0.8, "AtkVoice": "_0022", "ProjectileTime": 0.3, "HitAni": "Damage", "HitAniTime": 0.5, "DeadAni": "Dead", "DeadTime": 0.96, "HitEffectTime": 0.6},
	{"Id": 160, "HitTime":[0.9], "NamePrefab": "Battle/Name/Battle_Name_01", "CutInTime": 0, "IdleTime": 0, "MoveTime": 0.4, "ReturnTime": 0.4, "LandingTime": 0.14, "AtkEndAni": "Skill_Basic_M", "AtkEndTime": 0.6, "AtkVoice": "_0018", "ProjectileTime": 0.3, "HitAni": "Damage", "HitAniTime": 0.5, "DeadAni": "Dead", "DeadTime": 0.96, "HitEffectTime": 0.4},
	{"Id": 161, "HitTime":[0.9], "NamePrefab": "Battle/Name/Battle_Name_01", "UseCutin": true, "CutInReady": 0.8, "CutInTime": 2, "IdleTime": 0, "MoveTime": 0.4, "ReturnTime": 0.4, "LandingTime": 0.14, "AtkEndAni": "Skill_Single_M", "AtkEndTime": 0.9, "AtkVoice": "_0020", "ProjectileTime": 0.3, "HitAni": "Damage", "HitAniTime": 0.5, "DeadAni": "Dead", "DeadTime": 0.96, "HitEffectTime": 0.6},
	{"Id": 162, "HitTime":[0.6], "NamePrefab": "Battle/Name/Battle_Name_03", "UseCutin": true, "CutInReady": 0.8, "CutInTime": 2, "IdleTime": 0, "MoveTime": 0.4, "ReturnTime": 0.4, "LandingTime": 0.14, "AtkEndAni": "Skill_Range_M", "AtkEndTime": 0.9, "AtkVoice": "_0022", "ProjectileTime": 0.3, "HitAni": "Damage", "HitAniTime": 0.5, "DeadAni": "Dead", "DeadTime": 0.96, "HitEffectTime": 0.6},
	{"Id": 163, "HitTime":[0.9], "NamePrefab": "Battle/Name/Battle_Name_01", "CutInTime": 0, "IdleTime": 0, "MoveTime": 0.4, "ReturnTime": 0.4, "LandingTime": 0.14, "AtkEndAni": "Skill_Basic_M", "AtkEndTime": 0.6, "AtkVoice": "_0018", "ProjectileTime": 0.3, "HitAni": "Damage", "HitAniTime": 0.5, "DeadAni": "Dead", "DeadTime": 0.96, "HitEffectTime": 0.4},
	{"Id": 164, "HitTime":[0.6], "NamePrefab": "Battle/Name/Battle_Name_01", "UseCutin": true, "CutInReady": 0.8, "CutInTime": 2, "IdleTime": 0, "MoveTime": 0.4, "ReturnTime": 0.4, "LandingTime": 0.14, "AtkEndAni": "Skill_Range_M", "AtkEndTime": 0.9, "AtkVoice": "_0020", "ProjectileTime": 0.3, "HitAni": "Damage", "HitAniTime": 0.5, "DeadAni": "Dead", "DeadTime": 0.96, "HitEffectTime": 1},
	{"Id": 165, "HitTime":[0.6], "NamePrefab": "Battle/Name/Battle_Name_03", "UseCutin": true, "CutInReady": 0.8, "CutInTime": 2, "IdleTime": 0, "MoveTime": 0.4, "ReturnTime": 0.4, "LandingTime": 0.14, "AtkEndAni": "Skill_Range_M", "AtkEndTime": 0.9, "AtkVoice": "_0021", "ProjectileTime": 0.3, "HitAni": "Damage", "HitAniTime": 0.5, "DeadAni": "Dead", "DeadTime": 0.96, "HitEffectTime": 0.6},
	{"Id": 166, "HitTime":[0.9], "NamePrefab": "Battle/Name/Battle_Name_01", "CutInTime": 0, "IdleTime": 0, "MoveTime": 0.4, "ReturnTime": 0.4, "LandingTime": 0.14, "AtkEndAni": "Skill_Basic_M", "AtkEndTime": 0.6, "AtkVoice": "_0018", "ProjectileTime": 0.3, "HitAni": "Damage", "HitAniTime": 0.5, "DeadAni": "Dead", "DeadTime": 0.96, "HitEffectTime": 0.4},
	{"Id": 167, "HitTime":[0.9], "NamePrefab": "Battle/Name/Battle_Name_01", "UseCutin": true, "CutInReady": 0.8, "CutInTime": 2, "IdleTime": 0, "MoveTime": 0.4, "ReturnTime": 0.4, "LandingTime": 0.14, "AtkEndAni": "Skill_Single_M", "AtkEndTime": 0.9, "AtkVoice": "_0020", "ProjectileTime": 0.3, "HitAni": "Damage", "HitAniTime": 0.5, "DeadAni": "Dead", "DeadTime": 0.96, "HitEffectTime": 0.6},
	{"Id": 168, "HitTime":[0.9], "NamePrefab": "Battle/Name/Battle_Name_03", "UseCutin": true, "CutInReady": 0.8, "CutInTime": 2, "IdleTime": 0, "MoveTime": 0.4, "ReturnTime": 0.4, "LandingTime": 0.14, "AtkEndAni": "Skill_Single_M", "AtkEndTime": 0.9, "AtkVoice": "_0022", "ProjectileTime": 0.3, "HitAni": "Damage", "HitAniTime": 0.5, "DeadAni": "Dead", "DeadTime": 0.96, "HitEffectTime": 0.6},
	{"Id": 169, "HitTime":[0.4], "NamePrefab": "Battle/Name/Battle_Name_01", "CutInTime": 0, "IdleTime": 0, "MoveTime": 0.4, "ReturnTime": 0.4, "LandingTime": 0.14, "AtkEndAni": "Skill_Basic_W", "AtkEndTime": 0.6, "AtkVoice": "_0018", "ProjectileTime": 0, "HitAni": "Damage", "HitAniTime": 0.5, "DeadAni": "Dead", "DeadTime": 0.96, "HitEffectTime": 0.4},
	{"Id": 170, "HitTime":[0.4], "NamePrefab": "Battle/Name/Battle_Name_01", "UseCutin": true, "CutInReady": 0.8, "CutInTime": 2, "IdleTime": 0, "MoveTime": 0.4, "ReturnTime": 0.4, "LandingTime": 0.14, "AtkEndAni": "Skill_Single_W", "AtkEndTime": 0.86, "AtkVoice": "_0020", "ProjectileTime": 0, "HitAni": "Damage", "HitAniTime": 0.5, "DeadAni": "Dead", "DeadTime": 0.96, "HitEffectTime": 0.4},
	{"Id": 171, "HitTime":[0.4], "NamePrefab": "Battle/Name/Battle_Name_03", "UseCutin": true, "CutInReady": 0.8, "CutInTime": 2, "IdleTime": 0, "MoveTime": 0.4, "ReturnTime": 0.4, "LandingTime": 0.14, "AtkEndAni": "Skill_Single_W", "AtkEndTime": 0.86, "AtkVoice": "_0022", "ProjectileTime": 0, "HitAni": "Damage", "HitAniTime": 0.5, "DeadAni": "Dead", "DeadTime": 0.96, "HitEffectTime": 0.4},
	{"Id": 172, "HitTime":[0.9], "NamePrefab": "Battle/Name/Battle_Name_01", "CutInTime": 0, "IdleTime": 0, "MoveTime": 0.4, "ReturnTime": 0.4, "LandingTime": 0.14, "AtkEndAni": "Skill_Basic_M", "AtkEndTime": 0.6, "AtkVoice": "_0018", "ProjectileTime": 0.3, "HitAni": "Damage", "HitAniTime": 0.5, "DeadAni": "Dead", "DeadTime": 0.96, "HitEffectTime": 0.4},
	{"Id": 173, "HitTime":[0.6], "NamePrefab": "Battle/Name/Battle_Name_01", "UseCutin": true, "CutInReady": 0.8, "CutInTime": 2, "IdleTime": 0, "MoveTime": 0.4, "ReturnTime": 0.4, "LandingTime": 0.14, "AtkEndAni": "Skill_Buff_M", "AtkEndTime": 1, "AtkVoice": "_0021", "ProjectileTime": 0, "HitAni": "Heal", "HitAniTime": 0.5, "DeadAni": "Dead", "DeadTime": 0.96, "HitEffectTime": 0.6},
	{"Id": 174, "HitTime":[0.6, 0.01, 0.01], "NamePrefab": "Battle/Name/Battle_Name_03", "UseCutin": true, "CutInReady": 0.8, "CutInTime": 2, "IdleTime": 0, "MoveTime": 0.4, "ReturnTime": 0.4, "LandingTime": 0.14, "AtkEndAni": "Skill_Buff_M", "AtkEndTime": 1, "AtkVoice": "_0021", "ProjectileTime": 0, "HitAni": "Heal", "HitAniTime": 0.5, "DeadAni": "Dead", "DeadTime": 0.96, "HitEffectTime": 0},
	{"Id": 175, "HitTime":[0.9], "NamePrefab": "Battle/Name/Battle_Name_01", "CutInTime": 0, "IdleTime": 0, "MoveTime": 0.4, "ReturnTime": 0.4, "LandingTime": 0.14, "AtkEndAni": "Skill_Basic_M", "AtkEndTime": 0.6, "AtkVoice": "_0018", "ProjectileTime": 0.3, "HitAni": "Damage", "HitAniTime": 0.5, "DeadAni": "Dead", "DeadTime": 0.96, "HitEffectTime": 0.4},
	{"Id": 176, "HitTime":[0.6], "NamePrefab": "Battle/Name/Battle_Name_01", "UseCutin": true, "CutInReady": 0.8, "CutInTime": 2, "IdleTime": 0, "MoveTime": 0.4, "ReturnTime": 0.4, "LandingTime": 0.14, "AtkEndAni": "Skill_Range_M", "AtkEndTime": 1, "AtkVoice": "_0020", "ProjectileTime": 0, "HitAni": "Heal", "HitAniTime": 0.5, "DeadAni": "Dead", "DeadTime": 0.96, "HitEffectTime": 0.6},
	{"Id": 177, "HitTime":[0.6], "NamePrefab": "Battle/Name/Battle_Name_03", "UseCutin": true, "CutInReady": 0.8, "CutInTime": 2, "IdleTime": 0, "MoveTime": 0.4, "ReturnTime": 0.4, "LandingTime": 0.14, "AtkEndAni": "Skill_Range_M", "AtkEndTime": 1, "AtkVoice": "_0021", "ProjectileTime": 0, "HitAni": "Heal", "HitAniTime": 0.5, "DeadAni": "Dead", "DeadTime": 0.96, "HitEffectTime": 0},
	{"Id": 178, "HitTime":[0.9], "NamePrefab": "Battle/Name/Battle_Name_01", "CutInTime": 0, "IdleTime": 0, "MoveTime": 0.4, "ReturnTime": 0.4, "LandingTime": 0.14, "AtkEndAni": "Skill_Basic_A", "AtkEndTime": 0.62, "AtkVoice": "_0018", "ProjectileTime": 0.3, "HitAni": "Damage", "HitAniTime": 0.5, "DeadAni": "Dead", "DeadTime": 0.96, "HitEffectTime": 0.4},
	{"Id": 179, "HitTime":[0.9, 0.01, 0.01], "NamePrefab": "Battle/Name/Battle_Name_01", "UseCutin": true, "CutInReady": 0.8, "CutInTime": 2, "IdleTime": 0, "MoveTime": 0.4, "ReturnTime": 0.4, "LandingTime": 0.14, "AtkEndAni": "Skill_Single_A", "AtkEndTime": 0.8, "AtkVoice": "_0020", "ProjectileTime": 0.3, "HitAni": "Damage", "HitAniTime": 0.5, "DeadAni": "Dead", "DeadTime": 0.96, "HitEffectTime": 0.6},
	{"Id": 180, "HitTime":[0.9, 0.01, 0.01], "NamePrefab": "Battle/Name/Battle_Name_03", "UseCutin": true, "CutInReady": 0.8, "CutInTime": 2, "IdleTime": 0, "MoveTime": 0.4, "ReturnTime": 0.4, "LandingTime": 0.14, "AtkEndAni": "Skill_Single_A", "AtkEndTime": 0.8, "AtkVoice": "_0022", "ProjectileTime": 0.3, "HitAni": "Damage", "HitAniTime": 0.5, "DeadAni": "Dead", "DeadTime": 0.96, "HitEffectTime": 0.6},
	{"Id": 181, "HitTime":[0.4], "NamePrefab": "Battle/Name/Battle_Name_01", "CutInTime": 0, "IdleTime": 0, "MoveTime": 0.4, "ReturnTime": 0.4, "LandingTime": 0.14, "AtkEndAni": "Skill_Basic_W", "AtkEndTime": 0.6, "AtkVoice": "_0018", "ProjectileTime": 0, "HitAni": "Damage", "HitAniTime": 0.5, "DeadAni": "Dead", "DeadTime": 0.96, "HitEffectTime": 0.4},
	{"Id": 182, "HitTime":[0.4], "NamePrefab": "Battle/Name/Battle_Name_01", "UseCutin": true, "CutInReady": 0.8, "CutInTime": 2, "IdleTime": 0, "MoveTime": 0.4, "ReturnTime": 0.4, "LandingTime": 0.14, "AtkEndAni": "Skill_Single_W", "AtkEndTime": 0.86, "AtkVoice": "_0020", "ProjectileTime": 0, "HitAni": "Damage", "HitAniTime": 0.5, "DeadAni": "Dead", "DeadTime": 0.96, "HitEffectTime": 0.4},
	{"Id": 183, "HitTime":[0.4], "NamePrefab": "Battle/Name/Battle_Name_03", "UseCutin": true, "CutInReady": 0.8, "CutInTime": 2, "IdleTime": 0, "MoveTime": 0.4, "ReturnTime": 0.4, "LandingTime": 0.14, "AtkEndAni": "Skill_Single_W", "AtkEndTime": 0.86, "AtkVoice": "_0022", "ProjectileTime": 0, "HitAni": "Damage", "HitAniTime": 0.5, "DeadAni": "Dead", "DeadTime": 0.96, "HitEffectTime": 0.4},
	{"Id": 184, "HitTime":[0.9], "NamePrefab": "Battle/Name/Battle_Name_01", "CutInTime": 0, "IdleTime": 0, "MoveTime": 0.4, "ReturnTime": 0.4, "LandingTime": 0.14, "AtkEndAni": "Skill_Basic_A", "AtkEndTime": 0.62, "AtkVoice": "_0018", "ProjectileTime": 0.3, "HitAni": "Damage", "HitAniTime": 0.5, "DeadAni": "Dead", "DeadTime": 0.96, "HitEffectTime": 0.4},
	{"Id": 185, "HitTime":[0.9], "NamePrefab": "Battle/Name/Battle_Name_01", "UseCutin": true, "CutInReady": 0.8, "CutInTime": 2, "IdleTime": 0, "MoveTime": 0.4, "ReturnTime": 0.4, "LandingTime": 0.14, "AtkEndAni": "Skill_Single_A", "AtkEndTime": 0.8, "AtkVoice": "_0020", "ProjectileTime": 0.3, "HitAni": "Damage", "HitAniTime": 0.5, "DeadAni": "Dead", "DeadTime": 0.96, "HitEffectTime": 0.6},
	{"Id": 186, "HitTime":[0.9], "NamePrefab": "Battle/Name/Battle_Name_03", "UseCutin": true, "CutInReady": 0.8, "CutInTime": 2, "IdleTime": 0, "MoveTime": 0.4, "ReturnTime": 0.4, "LandingTime": 0.14, "AtkEndAni": "Skill_Single_A", "AtkEndTime": 0.8, "AtkVoice": "_0022", "ProjectileTime": 0.3, "HitAni": "Damage", "HitAniTime": 0.5, "DeadAni": "Dead", "DeadTime": 0.96, "HitEffectTime": 0.6},
	{"Id": 187, "HitTime":[0.9], "NamePrefab": "Battle/Name/Battle_Name_01", "CutInTime": 0, "IdleTime": 0, "MoveTime": 0.4, "ReturnTime": 0.4, "LandingTime": 0.14, "AtkEndAni": "Skill_Basic_A", "AtkEndTime": 0.62, "AtkVoice": "_0018", "ProjectileTime": 0.3, "HitAni": "Damage", "HitAniTime": 0.5, "DeadAni": "Dead", "DeadTime": 0.96, "HitEffectTime": 0.4},
	{"Id": 188, "HitTime":[0.9], "NamePrefab": "Battle/Name/Battle_Name_01", "UseCutin": true, "CutInReady": 0.8, "CutInTime": 2, "IdleTime": 0, "MoveTime": 0.4, "ReturnTime": 0.4, "LandingTime": 0.14, "AtkEndAni": "Skill_Single_A", "AtkEndTime": 0.8, "AtkVoice": "_0020", "ProjectileTime": 0.3, "HitAni": "Damage", "HitAniTime": 0.5, "DeadAni": "Dead", "DeadTime": 0.96, "HitEffectTime": 0.6},
	{"Id": 189, "HitTime":[0.9], "NamePrefab": "Battle/Name/Battle_Name_03", "UseCutin": true, "CutInReady": 0.8, "CutInTime": 2, "IdleTime": 0, "MoveTime": 0.4, "ReturnTime": 0.4, "LandingTime": 0.14, "AtkEndAni": "Skill_Single_A", "AtkEndTime": 0.8, "AtkVoice": "_0022", "ProjectileTime": 0.3, "HitAni": "Damage", "HitAniTime": 0.5, "DeadAni": "Dead", "DeadTime": 0.96, "HitEffectTime": 0.6},
	{"Id": 190, "HitTime":[0.4], "NamePrefab": "Battle/Name/Battle_Name_01", "CutInTime": 0, "IdleTime": 0, "MoveTime": 0.4, "ReturnTime": 0.4, "LandingTime": 0.14, "AtkEndAni": "Skill_Basic_W", "AtkEndTime": 0.6, "AtkVoice": "_0018", "ProjectileTime": 0, "HitAni": "Damage", "HitAniTime": 0.5, "DeadAni": "Dead", "DeadTime": 0.96, "HitEffectTime": 0.4},
	{"Id": 191, "HitTime":[0.4], "NamePrefab": "Battle/Name/Battle_Name_01", "UseCutin": true, "CutInReady": 0.8, "CutInTime": 2, "IdleTime": 0, "MoveTime": 0.4, "ReturnTime": 0.4, "LandingTime": 0.14, "AtkEndAni": "Skill_Single_W", "AtkEndTime": 0.86, "AtkVoice": "_0020", "ProjectileTime": 0, "HitAni": "Damage", "HitAniTime": 0.5, "DeadAni": "Dead", "DeadTime": 0.96, "HitEffectTime": 0.4},
	{"Id": 192, "HitTime":[0.9], "NamePrefab": "Battle/Name/Battle_Name_01", "UseCutin": true, "CutInReady": 0.8, "CutInTime": 2, "IdleTime": 0, "MoveTime": 0.4, "ReturnTime": 0.4, "LandingTime": 0.14, "AtkEndAni": "Skill_Single_W", "AtkEndTime": 0.86, "AtkVoice": "_0022", "ProjectileTime": 0.3, "HitAni": "Damage", "HitAniTime": 0.5, "DeadAni": "Dead", "DeadTime": 0.96, "HitEffectTime": 0.4},
	{"Id": 193, "HitTime":[0.4], "NamePrefab": "Battle/Name/Battle_Name_01", "CutInTime": 0, "IdleTime": 0, "MoveTime": 0.4, "ReturnTime": 0.4, "LandingTime": 0.14, "AtkEndAni": "Skill_Basic_W", "AtkEndTime": 0.6, "AtkVoice": "_0018", "ProjectileTime": 0, "HitAni": "Damage", "HitAniTime": 0.5, "DeadAni": "Dead", "DeadTime": 0.96, "HitEffectTime": 0.4},
	{"Id": 194, "HitTime":[0.7, 0.01, 0.01], "NamePrefab": "Battle/Name/Battle_Name_01", "UseCutin": true, "CutInReady": 0.8, "CutInTime": 2, "IdleTime": 0, "MoveTime": 0.4, "ReturnTime": 0.4, "LandingTime": 0.14, "AtkEndAni": "Skill_Buff_W", "AtkEndTime": 0.8, "AtkVoice": "_0020", "ProjectileTime": 0, "HitAni": "Damage", "HitAniTime": 0.5, "DeadAni": "Dead", "DeadTime": 0.96, "HitEffectTime": 0.4},
	{"Id": 195, "HitTime":[0.9, 0.01, 0.01], "NamePrefab": "Battle/Name/Battle_Name_01", "UseCutin": true, "CutInReady": 0.8, "CutInTime": 2, "IdleTime": 0, "MoveTime": 0.4, "ReturnTime": 0.4, "LandingTime": 0.14, "AtkEndAni": "Skill_Range_W", "AtkEndTime": 0.8, "AtkVoice": "_0022", "ProjectileTime": 0, "HitAni": "Damage", "HitAniTime": 0.5, "DeadAni": "Dead", "DeadTime": 0.96, "HitEffectTime": 2},
	{"Id": 196, "HitTime":[0.4], "NamePrefab": "Battle/Name/Battle_Name_01", "CutInTime": 0, "IdleTime": 0, "MoveTime": 0.4, "ReturnTime": 0.4, "LandingTime": 0.14, "AtkEndAni": "Skill_Basic_G", "AtkEndTime": 0.6, "AtkVoice": "_0018", "ProjectileTime": 0, "HitAni": "Damage", "HitAniTime": 0.5, "DeadAni": "Dead", "DeadTime": 0.96, "HitEffectTime": 0.4},
	{"Id": 197, "HitTime":[0.9], "NamePrefab": "Battle/Name/Battle_Name_01", "UseCutin": true, "CutInReady": 0.8, "CutInTime": 2, "IdleTime": 0, "MoveTime": 0.4, "ReturnTime": 0.4, "LandingTime": 0.14, "AtkEndAni": "Skill_Single_G", "AtkEndTime": 1.14, "AtkVoice": "_0020", "ProjectileTime": 0.3, "HitAni": "Damage", "HitAniTime": 0.5, "DeadAni": "Dead", "DeadTime": 0.96, "HitEffectTime": 0.4},
	{"Id": 198, "HitTime":[0.9], "NamePrefab": "Battle/Name/Battle_Name_01", "UseCutin": true, "CutInReady": 0.8, "CutInTime": 2, "IdleTime": 0, "MoveTime": 0.4, "ReturnTime": 0.4, "LandingTime": 0.14, "AtkEndAni": "Skill_Single_G", "AtkEndTime": 1.14, "AtkVoice": "_0022", "ProjectileTime": 0.3, "HitAni": "Damage", "HitAniTime": 0.5, "DeadAni": "Dead", "DeadTime": 0.96, "HitEffectTime": 0.4},
	{"Id": 199, "HitTime":[0.4], "NamePrefab": "Battle/Name/Battle_Name_01", "CutInTime": 0, "IdleTime": 0, "MoveTime": 0.4, "ReturnTime": 0.4, "LandingTime": 0.14, "AtkEndAni": "Skill_Basic_G", "AtkEndTime": 0.6, "AtkVoice": "_0018", "ProjectileTime": 0, "HitAni": "Damage", "HitAniTime": 0.5, "DeadAni": "Dead", "DeadTime": 0.96, "HitEffectTime": 0.4},
	{"Id": 200, "HitTime":[0.5], "NamePrefab": "Battle/Name/Battle_Name_01", "UseCutin": true, "CutInReady": 0.8, "CutInTime": 2, "IdleTime": 0, "MoveTime": 0.4, "ReturnTime": 0.4, "LandingTime": 0.14, "AtkEndAni": "Skill_Buff_G", "AtkEndTime": 0.8, "AtkVoice": "_0020", "ProjectileTime": 0, "HitAni": "Heal", "HitAniTime": 0.5, "DeadAni": "Dead", "DeadTime": 0.96, "HitEffectTime": 0},
	{"Id": 201, "HitTime":[0.5], "NamePrefab": "Battle/Name/Battle_Name_01", "UseCutin": true, "CutInReady": 0.8, "CutInTime": 2, "IdleTime": 0, "MoveTime": 0.4, "ReturnTime": 0.4, "LandingTime": 0.14, "AtkEndAni": "Skill_Single_G", "AtkEndTime": 0.8, "AtkVoice": "_0022", "ProjectileTime": 0, "HitAni": "Damage", "HitAniTime": 0.5, "DeadAni": "Dead", "DeadTime": 0.96, "HitEffectTime": 0.4},
	{"Id": 202, "HitTime":[0.4], "NamePrefab": "Battle/Name/Battle_Name_01", "CutInTime": 0, "IdleTime": 0, "MoveTime": 0.4, "ReturnTime": 0.4, "LandingTime": 0.14, "AtkEndAni": "Skill_Basic_G", "AtkEndTime": 0.6, "AtkVoice": "_0018", "ProjectileTime": 0, "HitAni": "Damage", "HitAniTime": 0.5, "DeadAni": "Dead", "DeadTime": 0.96, "HitEffectTime": 0.4},
	{"Id": 203, "HitTime":[0.5], "NamePrefab": "Battle/Name/Battle_Name_01", "UseCutin": true, "CutInReady": 0.8, "CutInTime": 2, "IdleTime": 0, "MoveTime": 0.4, "ReturnTime": 0.4, "LandingTime": 0.14, "AtkEndAni": "Skill_Buff_G", "AtkEndTime": 0.8, "AtkVoice": "_0020", "ProjectileTime": 0, "HitAni": "Heal", "HitAniTime": 0.5, "DeadAni": "Dead", "DeadTime": 0.96, "HitEffectTime": 0},
	{"Id": 204, "HitTime":[0.5], "NamePrefab": "Battle/Name/Battle_Name_01", "UseCutin": true, "CutInReady": 0.8, "CutInTime": 2, "IdleTime": 0, "MoveTime": 0.4, "ReturnTime": 0.4, "LandingTime": 0.14, "AtkEndAni": "Skill_Buff_G", "AtkEndTime": 0.8, "AtkVoice": "_0022", "ProjectileTime": 0, "HitAni": "Heal", "HitAniTime": 0.5, "DeadAni": "Dead", "DeadTime": 0.96, "HitEffectTime": 0},
	{"Id": 205, "HitTime":[0.9], "NamePrefab": "Battle/Name/Battle_Name_01", "CutInTime": 0, "IdleTime": 0, "MoveTime": 0.4, "ReturnTime": 0.4, "LandingTime": 0.14, "AtkEndAni": "Skill_Basic_M", "AtkEndTime": 0.6, "AtkVoice": "_0018", "ProjectileTime": 0.3, "HitAni": "Damage", "HitAniTime": 0.5, "DeadAni": "Dead", "DeadTime": 0.96, "HitEffectTime": 0.4},
	{"Id": 206, "HitTime":[0.9], "NamePrefab": "Battle/Name/Battle_Name_01", "UseCutin": true, "CutInReady": 0.8, "CutInTime": 2, "IdleTime": 0, "MoveTime": 0.4, "ReturnTime": 0.4, "LandingTime": 0.14, "AtkEndAni": "Skill_Single_M", "AtkEndTime": 0.9, "AtkVoice": "_0020", "ProjectileTime": 0.3, "HitAni": "Damage", "HitAniTime": 0.5, "DeadAni": "Dead", "DeadTime": 0.96, "HitEffectTime": 0.6},
	{"Id": 207, "HitTime":[1.2], "NamePrefab": "Battle/Name/Battle_Name_01", "UseCutin": true, "CutInReady": 0.8, "CutInTime": 2, "IdleTime": 0, "MoveTime": 0.4, "ReturnTime": 0.4, "LandingTime": 0.14, "AtkEndAni": "Skill_Buff_M", "AtkEndTime": 0.9, "AtkVoice": "_0022", "ProjectileTime": 0.3, "HitAni": "Damage", "HitAniTime": 0.5, "DeadAni": "Dead", "DeadTime": 0.96, "HitEffectTime": 2},
	{"Id": 208, "HitTime":[0.9], "NamePrefab": "Battle/Name/Battle_Name_01", "CutInTime": 0, "IdleTime": 0, "MoveTime": 0.4, "ReturnTime": 0.4, "LandingTime": 0.14, "AtkEndAni": "Skill_Basic_A", "AtkEndTime": 0.62, "AtkVoice": "_0018", "ProjectileTime": 0.3, "HitAni": "Damage", "HitAniTime": 0.5, "DeadAni": "Dead", "DeadTime": 0.96, "HitEffectTime": 0.4},
	{"Id": 209, "HitTime":[0.9], "NamePrefab": "Battle/Name/Battle_Name_01", "UseCutin": true, "CutInReady": 0.8, "CutInTime": 2, "IdleTime": 0, "MoveTime": 0.4, "ReturnTime": 0.4, "LandingTime": 0.14, "AtkEndAni": "Skill_Single_A", "AtkEndTime": 0.8, "AtkVoice": "_0020", "ProjectileTime": 0.3, "HitAni": "Damage", "HitAniTime": 0.5, "DeadAni": "Dead", "DeadTime": 0.96, "HitEffectTime": 0.6},
	{"Id": 210, "HitTime":[0.9], "NamePrefab": "Battle/Name/Battle_Name_01", "UseCutin": true, "CutInReady": 0.8, "CutInTime": 2, "IdleTime": 0, "MoveTime": 0.4, "ReturnTime": 0.4, "LandingTime": 0.14, "AtkEndAni": "Skill_Range_A", "AtkEndTime": 0.8, "AtkVoice": "_0022", "ProjectileTime": 0.3, "HitAni": "Damage", "HitAniTime": 0.5, "DeadAni": "Dead", "DeadTime": 0.96, "HitEffectTime": 0.6},
	{"Id": 211, "HitTime":[0.4], "NamePrefab": "Battle/Name/Battle_Name_01", "CutInTime": 0, "IdleTime": 0, "MoveTime": 0.4, "ReturnTime": 0.4, "LandingTime": 0.14, "AtkEndAni": "Skill_Basic_W", "AtkEndTime": 0.6, "AtkVoice": "_0018", "ProjectileTime": 0, "HitAni": "Damage", "HitAniTime": 0.5, "DeadAni": "Dead", "DeadTime": 0.96, "HitEffectTime": 0.4},
	{"Id": 212, "HitTime":[0.4], "NamePrefab": "Battle/Name/Battle_Name_01", "UseCutin": true, "CutInReady": 0.8, "CutInTime": 2, "IdleTime": 0, "MoveTime": 0.4, "ReturnTime": 0.4, "LandingTime": 0.14, "AtkEndAni": "Skill_Single_W", "AtkEndTime": 0.86, "AtkVoice": "_0020", "ProjectileTime": 0, "HitAni": "Damage", "HitAniTime": 0.5, "DeadAni": "Dead", "DeadTime": 0.96, "HitEffectTime": 0.4},
	{"Id": 213, "HitTime":[0.4], "NamePrefab": "Battle/Name/Battle_Name_01", "UseCutin": true, "CutInReady": 0.8, "CutInTime": 2, "IdleTime": 0, "MoveTime": 0.4, "ReturnTime": 0.4, "LandingTime": 0.14, "AtkEndAni": "Skill_Single_W", "AtkEndTime": 0.86, "AtkVoice": "_0022", "ProjectileTime": 0, "HitAni": "Damage", "HitAniTime": 0.5, "DeadAni": "Dead", "DeadTime": 0.96, "HitEffectTime": 0.4},
	{"Id": 214, "HitTime":[0.9], "NamePrefab": "Battle/Name/Battle_Name_01", "CutInTime": 0, "IdleTime": 0, "MoveTime": 0.4, "ReturnTime": 0.4, "LandingTime": 0.14, "AtkEndAni": "Skill_Basic_M", "AtkEndTime": 0.6, "AtkVoice": "_0018", "ProjectileTime": 0.3, "HitAni": "Damage", "HitAniTime": 0.5, "DeadAni": "Dead", "DeadTime": 0.96, "HitEffectTime": 0.4},
	{"Id": 215, "HitTime":[0.9], "NamePrefab": "Battle/Name/Battle_Name_01", "UseCutin": true, "CutInReady": 0.8, "CutInTime": 2, "IdleTime": 0, "MoveTime": 0.4, "ReturnTime": 0.4, "LandingTime": 0.14, "AtkEndAni": "Skill_Buff_M", "AtkEndTime": 0.9, "AtkVoice": "_0020", "ProjectileTime": 0.3, "HitAni": "Damage", "HitAniTime": 0.5, "DeadAni": "Dead", "DeadTime": 0.96, "HitEffectTime": 1},
	{"Id": 216, "HitTime":[0.9], "NamePrefab": "Battle/Name/Battle_Name_01", "UseCutin": true, "CutInReady": 0.8, "CutInTime": 2, "IdleTime": 0, "MoveTime": 0.4, "ReturnTime": 0.4, "LandingTime": 0.14, "AtkEndAni": "Skill_Buff_M", "AtkEndTime": 0.9, "AtkVoice": "_0022", "ProjectileTime": 0.3, "HitAni": "Damage", "HitAniTime": 0.5, "DeadAni": "Dead", "DeadTime": 0.96, "HitEffectTime": 1},
	{"Id": 217, "HitTime":[0.9], "NamePrefab": "Battle/Name/Battle_Name_01", "CutInTime": 0, "IdleTime": 0, "MoveTime": 0.4, "ReturnTime": 0.4, "LandingTime": 0.14, "AtkEndAni": "Skill_Basic_M", "AtkEndTime": 0.6, "AtkVoice": "_0018", "ProjectileTime": 0.3, "HitAni": "Damage", "HitAniTime": 0.5, "DeadAni": "Dead", "DeadTime": 0.96, "HitEffectTime": 0.4},
	{"Id": 218, "HitTime":[0.9], "NamePrefab": "Battle/Name/Battle_Name_01", "UseCutin": true, "CutInReady": 0.8, "CutInTime": 2, "IdleTime": 0, "MoveTime": 0.4, "ReturnTime": 0.4, "LandingTime": 0.14, "AtkEndAni": "Skill_Single_M", "AtkEndTime": 0.9, "AtkVoice": "_0020", "ProjectileTime": 0.3, "HitAni": "Damage", "HitAniTime": 0.5, "DeadAni": "Dead", "DeadTime": 0.96, "HitEffectTime": 0},
	{"Id": 219, "HitTime":[0.9], "NamePrefab": "Battle/Name/Battle_Name_01", "UseCutin": true, "CutInReady": 0.8, "CutInTime": 2, "IdleTime": 0, "MoveTime": 0.4, "ReturnTime": 0.4, "LandingTime": 0.14, "AtkEndAni": "Skill_Single_M", "AtkEndTime": 0.9, "AtkVoice": "_0022", "ProjectileTime": 0.3, "HitAni": "Damage", "HitAniTime": 0.5, "DeadAni": "Dead", "DeadTime": 0.96, "HitEffectTime": 0},
	{"Id": 220, "HitTime":[0.9], "NamePrefab": "Battle/Name/Battle_Name_01", "CutInTime": 0, "IdleTime": 0, "MoveTime": 0.4, "ReturnTime": 0.4, "LandingTime": 0.14, "AtkEndAni": "Skill_Basic_A", "AtkEndTime": 0.62, "AtkVoice": "_0018", "ProjectileTime": 0.3, "HitAni": "Damage", "HitAniTime": 0.5, "DeadAni": "Dead", "DeadTime": 0.96, "HitEffectTime": 0.4},
	{"Id": 221, "HitTime":[0.6], "NamePrefab": "Battle/Name/Battle_Name_01", "UseCutin": true, "CutInReady": 0.8, "CutInTime": 2, "IdleTime": 0, "MoveTime": 0.4, "ReturnTime": 0.4, "LandingTime": 0.14, "AtkEndAni": "Skill_Buff_A", "AtkEndTime": 0.8, "AtkVoice": "_0020", "ProjectileTime": 0.3, "HitAni": "Damage", "HitAniTime": 0.5, "DeadAni": "Dead", "DeadTime": 0.96, "HitEffectTime": 2},
	{"Id": 222, "HitTime":[0.9], "NamePrefab": "Battle/Name/Battle_Name_01", "UseCutin": true, "CutInReady": 0.8, "CutInTime": 2, "IdleTime": 0, "MoveTime": 0.4, "ReturnTime": 0.4, "LandingTime": 0.14, "AtkEndAni": "Skill_Single_A", "AtkEndTime": 0.8, "AtkVoice": "_0021", "ProjectileTime": 0.3, "HitAni": "Damage", "HitAniTime": 0.5, "DeadAni": "Dead", "DeadTime": 0.96, "HitEffectTime": 0.6},
	{"Id": 223, "HitTime":[0.9], "NamePrefab": "Battle/Name/Battle_Name_01", "CutInTime": 0, "IdleTime": 0, "MoveTime": 0.4, "ReturnTime": 0.4, "LandingTime": 0.14, "AtkEndAni": "Skill_Basic_M", "AtkEndTime": 0.6, "AtkVoice": "_0018", "ProjectileTime": 0.3, "HitAni": "Damage", "HitAniTime": 0.5, "DeadAni": "Dead", "DeadTime": 0.96, "HitEffectTime": 0.4},
	{"Id": 224, "HitTime":[0.6], "NamePrefab": "Battle/Name/Battle_Name_01", "UseCutin": true, "CutInReady": 0.8, "CutInTime": 2, "IdleTime": 0, "MoveTime": 0.4, "ReturnTime": 0.4, "LandingTime": 0.14, "AtkEndAni": "Skill_Buff_M", "AtkEndTime": 1, "AtkVoice": "_0020", "ProjectileTime": 0.3, "HitAni": "Damage", "HitAniTime": 0.5, "DeadAni": "Dead", "DeadTime": 0.96, "HitEffectTime": 0},
	{"Id": 225, "HitTime":[0.6], "NamePrefab": "Battle/Name/Battle_Name_01", "UseCutin": true, "CutInReady": 0.8, "CutInTime": 2, "IdleTime": 0, "MoveTime": 0.4, "ReturnTime": 0.4, "LandingTime": 0.14, "AtkEndAni": "Skill_Buff_M", "AtkEndTime": 1, "AtkVoice": "_0021", "ProjectileTime": 0.3, "HitAni": "Damage", "HitAniTime": 0.5, "DeadAni": "Dead", "DeadTime": 0.96, "HitEffectTime": 0},
	{"Id": 226, "HitTime":[0.9], "NamePrefab": "Battle/Name/Battle_Name_01", "CutInTime": 0, "IdleTime": 0, "MoveTime": 0.4, "ReturnTime": 0.4, "LandingTime": 0.14, "AtkEndAni": "Skill_Basic_A", "AtkEndTime": 0.62, "AtkVoice": "_0018", "ProjectileTime": 0.3, "HitAni": "Damage", "HitAniTime": 0.5, "DeadAni": "Dead", "DeadTime": 0.96, "HitEffectTime": 0.4},
	{"Id": 227, "HitTime":[0.9], "NamePrefab": "Battle/Name/Battle_Name_01", "UseCutin": true, "CutInReady": 0.8, "CutInTime": 2, "IdleTime": 0, "MoveTime": 0.4, "ReturnTime": 0.4, "LandingTime": 0.14, "AtkEndAni": "Skill_Single_A", "AtkEndTime": 0.8, "AtkVoice": "_0020", "ProjectileTime": 0.3, "HitAni": "Damage", "HitAniTime": 0.5, "DeadAni": "Dead", "DeadTime": 0.96, "HitEffectTime": 0.6},
	{"Id": 228, "HitTime":[0.9], "NamePrefab": "Battle/Name/Battle_Name_01", "UseCutin": true, "CutInReady": 0.8, "CutInTime": 2, "IdleTime": 0, "MoveTime": 0.4, "ReturnTime": 0.4, "LandingTime": 0.14, "AtkEndAni": "Skill_Single_A", "AtkEndTime": 0.8, "AtkVoice": "_0021", "ProjectileTime": 0.3, "HitAni": "Damage", "HitAniTime": 0.5, "DeadAni": "Dead", "DeadTime": 0.96, "HitEffectTime": 0.6},
	{"Id": 229, "HitTime":[0.4], "NamePrefab": "Battle/Name/Battle_Name_01", "CutInTime": 0, "IdleTime": 0, "MoveTime": 0.4, "ReturnTime": 0.4, "LandingTime": 0.14, "AtkEndAni": "Skill_Basic_W", "AtkEndTime": 0.6, "AtkVoice": "_0018", "ProjectileTime": 0, "HitAni": "Damage", "HitAniTime": 0.5, "DeadAni": "Dead", "DeadTime": 0.96, "HitEffectTime": 0.4},
	{"Id": 230, "HitTime":[0.6], "NamePrefab": "Battle/Name/Battle_Name_01", "UseCutin": true, "CutInReady": 0.8, "CutInTime": 2, "IdleTime": 0, "MoveTime": 0.4, "ReturnTime": 0.4, "LandingTime": 0.14, "AtkEndAni": "Skill_Buff_W", "AtkEndTime": 0.86, "AtkVoice": "_0020", "ProjectileTime": 0, "HitAni": "Damage", "HitAniTime": 0.5, "DeadAni": "Dead", "DeadTime": 0.96, "HitEffectTime": 0.6},
	{"Id": 231, "HitTime":[0.6], "NamePrefab": "Battle/Name/Battle_Name_01", "UseCutin": true, "CutInReady": 0.8, "CutInTime": 2, "IdleTime": 0, "MoveTime": 0.4, "ReturnTime": 0.4, "LandingTime": 0.14, "AtkEndAni": "Skill_Buff_W", "AtkEndTime": 0.86, "AtkVoice": "_0022", "ProjectileTime": 0, "HitAni": "Damage", "HitAniTime": 0.5, "DeadAni": "Dead", "DeadTime": 0.96, "HitEffectTime": 0.8},
	{"Id": 232, "HitTime":[0.4], "NamePrefab": "Battle/Name/Battle_Name_01", "CutInTime": 0, "IdleTime": 0, "MoveTime": 0.4, "ReturnTime": 0.4, "LandingTime": 0.14, "AtkEndAni": "Skill_Basic_G", "AtkEndTime": 0.6, "AtkVoice": "_0018", "ProjectileTime": 0, "HitAni": "Damage", "HitAniTime": 0.5, "DeadAni": "Dead", "DeadTime": 0.96, "HitEffectTime": 0.4},
	{"Id": 233, "HitTime":[0.6], "NamePrefab": "Battle/Name/Battle_Name_01", "UseCutin": true, "CutInReady": 0.8, "CutInTime": 2, "IdleTime": 0, "MoveTime": 0.4, "ReturnTime": 0.4, "LandingTime": 0.14, "AtkEndAni": "Skill_Buff_G", "AtkEndTime": 1.14, "AtkVoice": "_0020", "ProjectileTime": 0.3, "HitAni": "Damage", "HitAniTime": 0.5, "DeadAni": "Dead", "DeadTime": 0.96, "HitEffectTime": 2},
	{"Id": 234, "HitTime":[0.6], "NamePrefab": "Battle/Name/Battle_Name_01", "UseCutin": true, "CutInReady": 0.8, "CutInTime": 2, "IdleTime": 0, "MoveTime": 0.4, "ReturnTime": 0.4, "LandingTime": 0.14, "AtkEndAni": "Skill_Buff_G", "AtkEndTime": 0.8, "AtkVoice": "_0022", "ProjectileTime": 0, "HitAni": "Heal", "HitAniTime": 0.5, "DeadAni": "Dead", "DeadTime": 0.96, "HitEffectTime": 2},
	{"Id": 235, "HitTime":[0.4], "NamePrefab": "Battle/Name/Battle_Name_01", "CutInTime": 0, "IdleTime": 0, "MoveTime": 0.4, "ReturnTime": 0.4, "LandingTime": 0.14, "AtkEndAni": "Skill_Basic_W", "AtkEndTime": 0.6, "AtkVoice": "_0018", "ProjectileTime": 0, "HitAni": "Damage", "HitAniTime": 0.5, "DeadAni": "Dead", "DeadTime": 0.96, "HitEffectTime": 0.4},
	{"Id": 236, "HitTime":[0.5], "NamePrefab": "Battle/Name/Battle_Name_01", "UseCutin": true, "CutInReady": 0.8, "CutInTime": 2, "IdleTime": 0, "MoveTime": 0.4, "ReturnTime": 0.4, "LandingTime": 0.14, "AtkEndAni": "Skill_Single_W", "AtkEndTime": 0.86, "AtkVoice": "_0020", "ProjectileTime": 0, "HitAni": "Damage", "HitAniTime": 0.5, "DeadAni": "Dead", "DeadTime": 0.96, "HitEffectTime": 0.4},
	{"Id": 237, "HitTime":[0.5], "NamePrefab": "Battle/Name/Battle_Name_01", "UseCutin": true, "CutInReady": 0.8, "CutInTime": 2, "IdleTime": 0, "MoveTime": 0.4, "ReturnTime": 0.4, "LandingTime": 0.14, "AtkEndAni": "Skill_Single_W", "AtkEndTime": 0.86, "AtkVoice": "_0022", "ProjectileTime": 0, "HitAni": "Damage", "HitAniTime": 0.5, "DeadAni": "Dead", "DeadTime": 0.96, "HitEffectTime": 0.4},
	{"Id": 238, "HitTime":[0.9], "NamePrefab": "Battle/Name/Battle_Name_01", "CutInTime": 0, "IdleTime": 0, "MoveTime": 0.4, "ReturnTime": 0.4, "LandingTime": 0.14, "AtkEndAni": "Skill_Basic_M", "AtkEndTime": 0.6, "AtkVoice": "_0018", "ProjectileTime": 0.3, "HitAni": "Damage", "HitAniTime": 0.5, "DeadAni": "Dead", "DeadTime": 0.96, "HitEffectTime": 0.4},
	{"Id": 239, "HitTime":[1.8], "NamePrefab": "Battle/Name/Battle_Name_01", "UseCutin": true, "CutInReady": 0.8, "CutInTime": 2, "IdleTime": 0, "MoveTime": 0.4, "ReturnTime": 0.4, "LandingTime": 0.14, "AtkEndAni": "Skill_Buff_M", "AtkEndTime": 0.9, "AtkVoice": "_0020", "ProjectileTime": 0, "HitAni": "Damage", "HitAniTime": 0.5, "DeadAni": "Dead", "DeadTime": 0.96, "HitEffectTime": 3},
	{"Id": 240, "HitTime":[2], "NamePrefab": "Battle/Name/Battle_Name_01", "UseCutin": true, "CutInReady": 0.8, "CutInTime": 2, "IdleTime": 0, "MoveTime": 0.4, "ReturnTime": 0.4, "LandingTime": 0.14, "AtkEndAni": "Skill_Buff_M", "AtkEndTime": 0.9, "AtkVoice": "_0022", "ProjectileTime": 0, "HitAni": "Damage", "HitAniTime": 0.5, "DeadAni": "Dead", "DeadTime": 0.96, "HitEffectTime": 3},
	{"Id": 241, "HitTime":[0.9], "NamePrefab": "Battle/Name/Battle_Name_01", "CutInTime": 0, "IdleTime": 0, "MoveTime": 0.4, "ReturnTime": 0.4, "LandingTime": 0.14, "AtkEndAni": "Skill_Basic_A", "AtkEndTime": 0.62, "AtkVoice": "_0018", "ProjectileTime": 0.3, "HitAni": "Damage", "HitAniTime": 0.5, "DeadAni": "Dead", "DeadTime": 0.96, "HitEffectTime": 0.4},
	{"Id": 242, "HitTime":[0.9], "NamePrefab": "Battle/Name/Battle_Name_01", "UseCutin": true, "CutInReady": 0.8, "CutInTime": 2, "IdleTime": 0, "MoveTime": 0.4, "ReturnTime": 0.4, "LandingTime": 0.14, "AtkEndAni": "Skill_Single_A", "AtkEndTime": 0.8, "AtkVoice": "_0020", "ProjectileTime": 0.3, "HitAni": "Damage", "HitAniTime": 0.5, "DeadAni": "Dead", "DeadTime": 0.96, "HitEffectTime": 1},
	{"Id": 243, "HitTime":[3], "NamePrefab": "Battle/Name/Battle_Name_03", "UseCutin": true, "CutInReady": 0.8, "CutInTime": 2, "IdleTime": 0, "MoveTime": 0.4, "ReturnTime": 0.4, "LandingTime": 0.14, "AtkEndAni": "Skill_Buff_A", "AtkEndTime": 0.8, "AtkVoice": "_0022", "ProjectileTime": 0.3, "HitAni": "Damage", "HitAniTime": 0.5, "DeadAni": "Dead", "DeadTime": 0.96, "HitEffectTime": 4},
	{"Id": 244, "HitTime":[0.9], "NamePrefab": "Battle/Name/Battle_Name_01", "CutInTime": 0, "IdleTime": 0, "MoveTime": 0.4, "ReturnTime": 0.4, "LandingTime": 0.14, "AtkEndAni": "Skill_Basic_M", "AtkEndTime": 0.6, "AtkVoice": "_0018", "ProjectileTime": 0.3, "HitAni": "Damage", "HitAniTime": 0.5, "DeadAni": "Dead", "DeadTime": 0.96, "HitEffectTime": 0.4},
	{"Id": 245, "HitTime":[0.9], "NamePrefab": "Battle/Name/Battle_Name_01", "UseCutin": true, "CutInReady": 0.8, "CutInTime": 2, "IdleTime": 0, "MoveTime": 0.4, "ReturnTime": 0.4, "LandingTime": 0.14, "AtkEndAni": "Skill_Single_M", "AtkEndTime": 0.9, "AtkVoice": "_0020", "ProjectileTime": 0.3, "HitAni": "Damage", "HitAniTime": 0.5, "DeadAni": "Dead", "DeadTime": 0.96, "HitEffectTime": 0.6},
	{"Id": 246, "HitTime":[2, 0.01], "NamePrefab": "Battle/Name/Battle_Name_01", "UseCutin": true, "CutInReady": 0.8, "CutInTime": 2, "IdleTime": 0, "MoveTime": 0.4, "ReturnTime": 0.4, "LandingTime": 0.14, "AtkEndAni": "Skill_Range_M", "AtkEndTime": 0.9, "AtkVoice": "_0022", "ProjectileTime": 0.3, "HitAni": "Damage", "HitAniTime": 0.5, "DeadAni": "Dead", "DeadTime": 0.96, "HitEffectTime": 4.5},
	{"Id": 247, "HitTime":[0.9], "NamePrefab": "Battle/Name/Battle_Name_01", "CutInTime": 0, "IdleTime": 0, "MoveTime": 0.4, "ReturnTime": 0.4, "LandingTime": 0.14, "AtkEndAni": "Skill_Basic_A", "AtkEndTime": 0.62, "AtkVoice": "_0018", "ProjectileTime": 0.3, "HitAni": "Damage", "HitAniTime": 0.5, "DeadAni": "Dead", "DeadTime": 0.96, "HitEffectTime": 0.4},
	{"Id": 248, "HitTime":[0.9], "NamePrefab": "Battle/Name/Battle_Name_01", "UseCutin": true, "CutInReady": 0.8, "CutInTime": 2, "IdleTime": 0, "MoveTime": 0.4, "ReturnTime": 0.4, "LandingTime": 0.14, "AtkEndAni": "Skill_Single_A", "AtkEndTime": 0.62, "AtkVoice": "_0020", "ProjectileTime": 0.3, "HitAni": "Damage", "HitAniTime": 0.5, "DeadAni": "Dead", "DeadTime": 0.96, "HitEffectTime": 1},
	{"Id": 249, "HitTime":[2, 0.01, 0.01], "NamePrefab": "Battle/Name/Battle_Name_01", "UseCutin": true, "CutInReady": 0.8, "CutInTime": 2, "IdleTime": 0, "MoveTime": 0.4, "ReturnTime": 0.4, "LandingTime": 0.14, "AtkEndAni": "Skill_Buff_A", "AtkEndTime": 0.62, "AtkVoice": "_0022", "ProjectileTime": 0.3, "HitAni": "Damage", "HitAniTime": 0.5, "DeadAni": "Dead", "DeadTime": 0.96, "HitEffectTime": 2.5},
	{"Id": 701, "HitTime":[0.8, 0.01, 0.01], "NamePrefab": "Battle/Name/Battle_Name_01", "CutInTime": 0, "IdleTime": 0, "MoveTime": 0.4, "ReturnTime": 0.4, "LandingTime": 0.14, "AtkEndAni": "Skill_Range_M", "AtkEndTime": 0.9, "ProjectileTime": 0.3, "HitAni": "Damage", "HitAniTime": 0.5, "DeadAni": "Dead", "DeadTime": 0.96, "HitEffectTime": 0.4},
	{"Id": 702, "HitTime":[0.4, 0.01, 0.01, 0.01, 0.01, 0.01], "NamePrefab": "Battle/Name/Battle_Name_01", "CutInTime": 0, "IdleTime": 0, "MoveTime": 0.4, "ReturnTime": 0.4, "LandingTime": 0.14, "AtkEndAni": "Skill_Range_W", "AtkEndTime": 0.8, "ProjectileTime": 0, "HitAni": "Damage", "HitAniTime": 0.5, "DeadAni": "Dead", "DeadTime": 0.96, "HitEffectTime": 0.4},
	{"Id": 703, "HitTime":[0.4], "NamePrefab": "Battle/Name/Battle_Name_03", "CutInTime": 0, "IdleTime": 0, "MoveTime": 0.4, "ReturnTime": 0.4, "LandingTime": 0.14, "AtkEndAni": "Skill_Buff_W", "AtkEndTime": 0.8, "ProjectileTime": 0, "HitAni": "Heal", "HitAniTime": 0.5, "DeadAni": "Dead", "DeadTime": 0.96, "HitEffectTime": 0.4},
	{"Id": 704, "HitTime":[0.4], "NamePrefab": "Battle/Name/Battle_Name_03", "CutInTime": 0, "IdleTime": 0, "MoveTime": 0.4, "ReturnTime": 0.4, "LandingTime": 0.14, "AtkEndAni": "Skill_Single_W", "AtkEndTime": 0.86, "ProjectileTime": 0, "HitAni": "Damage", "HitAniTime": 0.5, "DeadAni": "Dead", "DeadTime": 0.96, "HitEffectTime": 0.4},
	{"Id": 705, "HitTime":[0.4], "NamePrefab": "Battle/Name/Battle_Name_03", "CutInTime": 0, "IdleTime": 0, "MoveTime": 0.4, "ReturnTime": 0.4, "LandingTime": 0.14, "AtkEndAni": "Skill_Range_W", "AtkEndTime": 0.8, "ProjectileTime": 0, "HitAni": "Damage", "HitAniTime": 0.5, "DeadAni": "Dead", "DeadTime": 0.96, "HitEffectTime": 0.4},
	{"Id": 706, "HitTime":[0.9], "NamePrefab": "Battle/Name/Battle_Name_03", "CutInTime": 0, "IdleTime": 0, "MoveTime": 0.4, "ReturnTime": 0.4, "LandingTime": 0.14, "AtkEndAni": "Skill_Range_A", "AtkEndTime": 0.8, "ProjectileTime": 0.3, "HitAni": "Damage", "HitAniTime": 0.5, "DeadAni": "Dead", "DeadTime": 0.96, "HitEffectTime": 0.4},
	{"Id": 801, "HitTime":[0.4], "NamePrefab": "Battle/Name/Battle_Name_01", "CutInTime": 0, "IdleTime": 0, "MoveTime": 0.4, "ReturnTime": 0.4, "LandingTime": 0.14, "AtkEndAni": "Skill_Basic_W", "AtkEndTime": 0.6, "ProjectileTime": 0, "HitAni": "Damage", "HitAniTime": 0.5, "DeadAni": "Dead", "DeadTime": 0.96, "HitEffectTime": 0.4},
	{"Id": 802, "HitTime":[0.5], "NamePrefab": "Battle/Name/Battle_Name_03", "CutInTime": 0, "IdleTime": 0, "MoveTime": 0.4, "ReturnTime": 0.4, "LandingTime": 0.14, "AtkEndAni": "Skill_Single_W", "AtkEndTime": 0.86, "ProjectileTime": 0, "HitAni": "Damage", "HitAniTime": 0.5, "DeadAni": "Dead", "DeadTime": 0.96, "HitEffectTime": 0.4},
	{"Id": 803, "HitTime":[0.5], "NamePrefab": "Battle/Name/Battle_Name_03", "CutInTime": 0, "IdleTime": 0, "MoveTime": 0.4, "ReturnTime": 0.4, "LandingTime": 0.14, "AtkEndAni": "Skill_Single_W", "AtkEndTime": 0.86, "ProjectileTime": 0, "HitAni": "Damage", "HitAniTime": 0.5, "DeadAni": "Dead", "DeadTime": 0.96, "HitEffectTime": 0.4},
	{"Id": 804, "HitTime":[0.4], "NamePrefab": "Battle/Name/Battle_Name_01", "CutInTime": 0, "IdleTime": 0, "MoveTime": 0.4, "ReturnTime": 0.4, "LandingTime": 0.14, "AtkEndAni": "Skill_Basic_W", "AtkEndTime": 0.6, "ProjectileTime": 0, "HitAni": "Damage", "HitAniTime": 0.5, "DeadAni": "Dead", "DeadTime": 0.96, "HitEffectTime": 0.4},
	{"Id": 805, "HitTime":[0.5], "NamePrefab": "Battle/Name/Battle_Name_03", "CutInTime": 0, "IdleTime": 0, "MoveTime": 0.4, "ReturnTime": 0.4, "LandingTime": 0.14, "AtkEndAni": "Skill_Single_W", "AtkEndTime": 0.86, "ProjectileTime": 0, "HitAni": "Damage", "HitAniTime": 0.5, "DeadAni": "Dead", "DeadTime": 0.96, "HitEffectTime": 0.4},
	{"Id": 806, "HitTime":[0.5], "NamePrefab": "Battle/Name/Battle_Name_03", "CutInTime": 0, "IdleTime": 0, "MoveTime": 0.4, "ReturnTime": 0.4, "LandingTime": 0.14, "AtkEndAni": "Skill_Single_W", "AtkEndTime": 0.86, "ProjectileTime": 0, "HitAni": "Damage", "HitAniTime": 0.5, "DeadAni": "Dead", "DeadTime": 0.96, "HitEffectTime": 0.4},
	{"Id": 807, "HitTime":[0.4], "NamePrefab": "Battle/Name/Battle_Name_01", "CutInTime": 0, "IdleTime": 0, "MoveTime": 0.4, "ReturnTime": 0.4, "LandingTime": 0.14, "AtkEndAni": "Skill_Basic_W", "AtkEndTime": 0.6, "ProjectileTime": 0, "HitAni": "Damage", "HitAniTime": 0.5, "DeadAni": "Dead", "DeadTime": 0.96, "HitEffectTime": 0.4},
	{"Id": 808, "HitTime":[0.9], "NamePrefab": "Battle/Name/Battle_Name_03", "CutInTime": 0, "IdleTime": 0, "MoveTime": 0.4, "ReturnTime": 0.4, "LandingTime": 0.14, "AtkEndAni": "Skill_Single_W", "AtkEndTime": 0.8, "ProjectileTime": 0, "HitAni": "Damage", "HitAniTime": 0.5, "DeadAni": "Dead", "DeadTime": 0.96, "HitEffectTime": 0.6},
	{"Id": 809, "HitTime":[0.9], "NamePrefab": "Battle/Name/Battle_Name_03", "CutInTime": 0, "IdleTime": 0, "MoveTime": 0.4, "ReturnTime": 0.4, "LandingTime": 0.14, "AtkEndAni": "Skill_Single_W", "AtkEndTime": 0.8, "ProjectileTime": 0, "HitAni": "Damage", "HitAniTime": 0.5, "DeadAni": "Dead", "DeadTime": 0.96, "HitEffectTime": 0.6},
	{"Id": 810, "HitTime":[0.9], "NamePrefab": "Battle/Name/Battle_Name_01", "CutInTime": 0, "IdleTime": 0, "MoveTime": 0.4, "ReturnTime": 0.4, "LandingTime": 0.14, "AtkEndAni": "Skill_Basic_A", "AtkEndTime": 0.62, "ProjectileTime": 0.3, "HitAni": "Damage", "HitAniTime": 0.5, "DeadAni": "Dead", "DeadTime": 0.96, "HitEffectTime": 0.4},
	{"Id": 811, "HitTime":[0.9], "NamePrefab": "Battle/Name/Battle_Name_01", "CutInTime": 0, "IdleTime": 0, "MoveTime": 0.4, "ReturnTime": 0.4, "LandingTime": 0.14, "AtkEndAni": "Skill_Single_A", "AtkEndTime": 0.8, "ProjectileTime": 0.3, "HitAni": "Damage", "HitAniTime": 0.5, "DeadAni": "Dead", "DeadTime": 0.96, "HitEffectTime": 0.6},
	{"Id": 812, "HitTime":[0.9], "NamePrefab": "Battle/Name/Battle_Name_01", "CutInTime": 0, "IdleTime": 0, "MoveTime": 0.4, "ReturnTime": 0.4, "LandingTime": 0.14, "AtkEndAni": "Skill_Single_A", "AtkEndTime": 0.8, "ProjectileTime": 0.3, "HitAni": "Damage", "HitAniTime": 0.5, "DeadAni": "Dead", "DeadTime": 0.96, "HitEffectTime": 0.6},
	{"Id": 813, "HitTime":[0.9], "NamePrefab": "Battle/Name/Battle_Name_01", "CutInTime": 0, "IdleTime": 0, "MoveTime": 0.4, "ReturnTime": 0.4, "LandingTime": 0.14, "AtkEndAni": "Skill_Basic_A", "AtkEndTime": 0.62, "ProjectileTime": 0.3, "HitAni": "Damage", "HitAniTime": 0.5, "DeadAni": "Dead", "DeadTime": 0.96, "HitEffectTime": 0.4},
	{"Id": 814, "HitTime":[0.9], "NamePrefab": "Battle/Name/Battle_Name_01", "CutInTime": 0, "IdleTime": 0, "MoveTime": 0.4, "ReturnTime": 0.4, "LandingTime": 0.14, "AtkEndAni": "Skill_Range_A", "AtkEndTime": 0.8, "ProjectileTime": 0.3, "HitAni": "Damage", "HitAniTime": 0.5, "DeadAni": "Dead", "DeadTime": 0.96, "HitEffectTime": 0.6},
	{"Id": 815, "HitTime":[0.9], "NamePrefab": "Battle/Name/Battle_Name_01", "CutInTime": 0, "IdleTime": 0, "MoveTime": 0.4, "ReturnTime": 0.4, "LandingTime": 0.14, "AtkEndAni": "Skill_Range_A", "AtkEndTime": 0.8, "ProjectileTime": 0.3, "HitAni": "Damage", "HitAniTime": 0.5, "DeadAni": "Dead", "DeadTime": 0.96, "HitEffectTime": 0.6},
	{"Id": 816, "HitTime":[0.9], "NamePrefab": "Battle/Name/Battle_Name_01", "CutInTime": 0, "IdleTime": 0, "MoveTime": 0.4, "ReturnTime": 0.4, "LandingTime": 0.14, "AtkEndAni": "Skill_Basic_A", "AtkEndTime": 0.62, "ProjectileTime": 0.3, "HitAni": "Damage", "HitAniTime": 0.5, "DeadAni": "Dead", "DeadTime": 0.96, "HitEffectTime": 0.4},
	{"Id": 817, "HitTime":[0.9], "NamePrefab": "Battle/Name/Battle_Name_01", "CutInTime": 0, "IdleTime": 0, "MoveTime": 0.4, "ReturnTime": 0.4, "LandingTime": 0.14, "AtkEndAni": "Skill_Single_A", "AtkEndTime": 0.8, "ProjectileTime": 0.3, "HitAni": "Damage", "HitAniTime": 0.5, "DeadAni": "Dead", "DeadTime": 0.96, "HitEffectTime": 0.6},
	{"Id": 818, "HitTime":[0.9], "NamePrefab": "Battle/Name/Battle_Name_01", "CutInTime": 0, "IdleTime": 0, "MoveTime": 0.4, "ReturnTime": 0.4, "LandingTime": 0.14, "AtkEndAni": "Skill_Single_A", "AtkEndTime": 0.8, "ProjectileTime": 0.3, "HitAni": "Damage", "HitAniTime": 0.5, "DeadAni": "Dead", "DeadTime": 0.96, "HitEffectTime": 0.6},
	{"Id": 819, "HitTime":[0.9], "NamePrefab": "Battle/Name/Battle_Name_01", "CutInTime": 0, "IdleTime": 0, "MoveTime": 0.4, "ReturnTime": 0.4, "LandingTime": 0.14, "AtkEndAni": "Skill_Basic_M", "AtkEndTime": 0.6, "ProjectileTime": 0.3, "HitAni": "Damage", "HitAniTime": 0.5, "DeadAni": "Dead", "DeadTime": 0.96, "HitEffectTime": 0.4},
	{"Id": 820, "HitTime":[0.9], "NamePrefab": "Battle/Name/Battle_Name_01", "CutInTime": 0, "IdleTime": 0, "MoveTime": 0.4, "ReturnTime": 0.4, "LandingTime": 0.14, "AtkEndAni": "Skill_Single_M", "AtkEndTime": 0.9, "ProjectileTime": 0.3, "HitAni": "Damage", "HitAniTime": 0.5, "DeadAni": "Dead", "DeadTime": 0.96, "HitEffectTime": 0.6},
	{"Id": 821, "HitTime":[0.6], "NamePrefab": "Battle/Name/Battle_Name_01", "CutInTime": 0, "IdleTime": 0, "MoveTime": 0.4, "ReturnTime": 0.4, "LandingTime": 0.14, "AtkEndAni": "Skill_Range_M", "AtkEndTime": 0.9, "ProjectileTime": 0.3, "HitAni": "Damage", "HitAniTime": 0.5, "DeadAni": "Dead", "DeadTime": 0.96, "HitEffectTime": 0.6},
	{"Id": 822, "HitTime":[0.9], "NamePrefab": "Battle/Name/Battle_Name_01", "CutInTime": 0, "IdleTime": 0, "MoveTime": 0.4, "ReturnTime": 0.4, "LandingTime": 0.14, "AtkEndAni": "Skill_Basic_M", "AtkEndTime": 0.6, "ProjectileTime": 0.3, "HitAni": "Damage", "HitAniTime": 0.5, "DeadAni": "Dead", "DeadTime": 0.96, "HitEffectTime": 0.4},
	{"Id": 823, "HitTime":[0.9], "NamePrefab": "Battle/Name/Battle_Name_01", "CutInTime": 0, "IdleTime": 0, "MoveTime": 0.4, "ReturnTime": 0.4, "LandingTime": 0.14, "AtkEndAni": "Skill_Single_M", "AtkEndTime": 0.9, "ProjectileTime": 0.3, "HitAni": "Damage", "HitAniTime": 0.5, "DeadAni": "Dead", "DeadTime": 0.96, "HitEffectTime": 0.6},
	{"Id": 824, "HitTime":[0.9], "NamePrefab": "Battle/Name/Battle_Name_01", "CutInTime": 0, "IdleTime": 0, "MoveTime": 0.4, "ReturnTime": 0.4, "LandingTime": 0.14, "AtkEndAni": "Skill_Single_M", "AtkEndTime": 0.9, "ProjectileTime": 0.3, "HitAni": "Damage", "HitAniTime": 0.5, "DeadAni": "Dead", "DeadTime": 0.96, "HitEffectTime": 0.6},
	{"Id": 825, "HitTime":[0.9], "NamePrefab": "Battle/Name/Battle_Name_01", "CutInTime": 0, "IdleTime": 0, "MoveTime": 0.4, "ReturnTime": 0.4, "LandingTime": 0.14, "AtkEndAni": "Skill_Basic_M", "AtkEndTime": 0.6, "ProjectileTime": 0.3, "HitAni": "Damage", "HitAniTime": 0.5, "DeadAni": "Dead", "DeadTime": 0.96, "HitEffectTime": 0.4},
	{"Id": 826, "HitTime":[0.6], "NamePrefab": "Battle/Name/Battle_Name_03", "CutInTime": 0, "IdleTime": 0, "MoveTime": 0.4, "ReturnTime": 0.4, "LandingTime": 0.14, "AtkEndAni": "Skill_Buff_M", "AtkEndTime": 1, "ProjectileTime": 0, "HitAni": "Heal", "HitAniTime": 0.5, "DeadAni": "Dead", "DeadTime": 0.96, "HitEffectTime": 0},
	{"Id": 827, "HitTime":[0.6], "NamePrefab": "Battle/Name/Battle_Name_03", "CutInTime": 0, "IdleTime": 0, "MoveTime": 0.4, "ReturnTime": 0.4, "LandingTime": 0.14, "AtkEndAni": "Skill_Buff_M", "AtkEndTime": 1, "ProjectileTime": 0, "HitAni": "Heal", "HitAniTime": 0.5, "DeadAni": "Dead", "DeadTime": 0.96, "HitEffectTime": 0.6},
	{"Id": 828, "HitTime":[0.4], "NamePrefab": "Battle/Name/Battle_Name_01", "CutInTime": 0, "IdleTime": 0, "MoveTime": 0.4, "ReturnTime": 0.4, "LandingTime": 0.14, "AtkEndAni": "Skill_Basic_G", "AtkEndTime": 0.6, "ProjectileTime": 0, "HitAni": "Damage", "HitAniTime": 0.5, "DeadAni": "Dead", "DeadTime": 0.96, "HitEffectTime": 0.4},
	{"Id": 829, "HitTime":[0.4], "NamePrefab": "Battle/Name/Battle_Name_03", "CutInTime": 0, "IdleTime": 0, "MoveTime": 0.4, "ReturnTime": 0.4, "LandingTime": 0.14, "AtkEndAni": "Skill_Single_G", "AtkEndTime": 0.8, "ProjectileTime": 0, "HitAni": "Damage", "HitAniTime": 0.5, "DeadAni": "Dead", "DeadTime": 0.96, "HitEffectTime": 0.4},
	{"Id": 830, "HitTime":[0.6], "NamePrefab": "Battle/Name/Battle_Name_01", "CutInTime": 0, "IdleTime": 0, "MoveTime": 0.4, "ReturnTime": 0.4, "LandingTime": 0.14, "AtkEndAni": "Skill_Buff_G", "AtkEndTime": 1.14, "ProjectileTime": 0, "HitAni": "Damage", "HitAniTime": 0.5, "DeadAni": "Dead", "DeadTime": 0.96, "HitEffectTime": 0.4},
	{"Id": 831, "HitTime":[0.4], "NamePrefab": "Battle/Name/Battle_Name_01", "CutInTime": 0, "IdleTime": 0, "MoveTime": 0.4, "ReturnTime": 0.4, "LandingTime": 0.14, "AtkEndAni": "Skill_Basic_G", "AtkEndTime": 0.6, "ProjectileTime": 0, "HitAni": "Damage", "HitAniTime": 0.5, "DeadAni": "Dead", "DeadTime": 0.96, "HitEffectTime": 0.4},
	{"Id": 832, "HitTime":[0.4], "NamePrefab": "Battle/Name/Battle_Name_03", "CutInTime": 0, "IdleTime": 0, "MoveTime": 0.4, "ReturnTime": 0.4, "LandingTime": 0.14, "AtkEndAni": "Skill_Single_G", "AtkEndTime": 0.8, "ProjectileTime": 0, "HitAni": "Damage", "HitAniTime": 0.5, "DeadAni": "Dead", "DeadTime": 0.96, "HitEffectTime": 0.4},
	{"Id": 833, "HitTime":[0.4], "NamePrefab": "Battle/Name/Battle_Name_03", "CutInTime": 0, "IdleTime": 0, "MoveTime": 0.4, "ReturnTime": 0.4, "LandingTime": 0.14, "AtkEndAni": "Skill_Single_G", "AtkEndTime": 0.8, "ProjectileTime": 0, "HitAni": "Damage", "HitAniTime": 0.5, "DeadAni": "Dead", "DeadTime": 0.96, "HitEffectTime": 0.4},
	{"Id": 834, "HitTime":[0.4], "NamePrefab": "Battle/Name/Battle_Name_01", "CutInTime": 0, "IdleTime": 0, "MoveTime": 0.4, "ReturnTime": 0.4, "LandingTime": 0.14, "AtkEndAni": "Skill_Basic_G", "AtkEndTime": 0.6, "ProjectileTime": 0, "HitAni": "Damage", "HitAniTime": 0.5, "DeadAni": "Dead", "DeadTime": 0.96, "HitEffectTime": 0.4},
	{"Id": 835, "HitTime":[0.4], "NamePrefab": "Battle/Name/Battle_Name_03", "CutInTime": 0, "IdleTime": 0, "MoveTime": 0.4, "ReturnTime": 0.4, "LandingTime": 0.14, "AtkEndAni": "Skill_Single_G", "AtkEndTime": 0.8, "ProjectileTime": 0, "HitAni": "Damage", "HitAniTime": 0.5, "DeadAni": "Dead", "DeadTime": 0.96, "HitEffectTime": 0.4},
	{"Id": 836, "HitTime":[0.5], "NamePrefab": "Battle/Name/Battle_Name_01", "CutInTime": 0, "IdleTime": 0, "MoveTime": 0.4, "ReturnTime": 0.4, "LandingTime": 0.14, "AtkEndAni": "Skill_Buff_G", "AtkEndTime": 0.8, "ProjectileTime": 0, "HitAni": "Heal", "HitAniTime": 0.5, "DeadAni": "Dead", "DeadTime": 0.96, "HitEffectTime": 0},
	{"Id": 837, "HitTime":[0.4], "NamePrefab": "Battle/Name/Battle_Name_01", "CutInTime": 0, "IdleTime": 0, "MoveTime": 0.4, "ReturnTime": 0.4, "LandingTime": 0.14, "AtkEndAni": "Skill_Basic_W", "AtkEndTime": 0.6, "ProjectileTime": 0, "HitAni": "Damage", "HitAniTime": 0.5, "DeadAni": "Dead", "DeadTime": 0.96, "HitEffectTime": 0.4},
	{"Id": 838, "HitTime":[0.5], "NamePrefab": "Battle/Name/Battle_Name_01", "CutInTime": 0, "IdleTime": 0, "MoveTime": 0.4, "ReturnTime": 0.4, "LandingTime": 0.14, "AtkEndAni": "Skill_Single_W", "AtkEndTime": 0.86, "ProjectileTime": 0, "HitAni": "Damage", "HitAniTime": 0.5, "DeadAni": "Dead", "DeadTime": 0.96, "HitEffectTime": 0.4},
	{"Id": 839, "HitTime":[0.5], "NamePrefab": "Battle/Name/Battle_Name_01", "CutInTime": 0, "IdleTime": 0, "MoveTime": 0.4, "ReturnTime": 0.4, "LandingTime": 0.14, "AtkEndAni": "Skill_Single_W", "AtkEndTime": 0.86, "ProjectileTime": 0, "HitAni": "Damage", "HitAniTime": 0.5, "DeadAni": "Dead", "DeadTime": 0.96, "HitEffectTime": 0.4},
	{"Id": 840, "HitTime":[0.4], "NamePrefab": "Battle/Name/Battle_Name_01", "CutInTime": 0, "IdleTime": 0, "MoveTime": 0.4, "ReturnTime": 0.4, "LandingTime": 0.14, "AtkEndAni": "Skill_Basic_W", "AtkEndTime": 0.6, "ProjectileTime": 0, "HitAni": "Damage", "HitAniTime": 0.5, "DeadAni": "Dead", "DeadTime": 0.96, "HitEffectTime": 0.4},
	{"Id": 841, "HitTime":[0.5], "NamePrefab": "Battle/Name/Battle_Name_01", "CutInTime": 0, "IdleTime": 0, "MoveTime": 0.4, "ReturnTime": 0.4, "LandingTime": 0.14, "AtkEndAni": "Skill_Single_W", "AtkEndTime": 0.86, "ProjectileTime": 0, "HitAni": "Damage", "HitAniTime": 0.5, "DeadAni": "Dead", "DeadTime": 0.96, "HitEffectTime": 0.4},
	{"Id": 842, "HitTime":[0.5], "NamePrefab": "Battle/Name/Battle_Name_01", "CutInTime": 0, "IdleTime": 0, "MoveTime": 0.4, "ReturnTime": 0.4, "LandingTime": 0.14, "AtkEndAni": "Skill_Single_W", "AtkEndTime": 0.86, "ProjectileTime": 0, "HitAni": "Damage", "HitAniTime": 0.5, "DeadAni": "Dead", "DeadTime": 0.96, "HitEffectTime": 0.4},
	{"Id": 843, "HitTime":[0.4], "NamePrefab": "Battle/Name/Battle_Name_01", "CutInTime": 0, "IdleTime": 0, "MoveTime": 0.4, "ReturnTime": 0.4, "LandingTime": 0.14, "AtkEndAni": "Skill_Basic_W", "AtkEndTime": 0.6, "ProjectileTime": 0, "HitAni": "Damage", "HitAniTime": 0.5, "DeadAni": "Dead", "DeadTime": 0.96, "HitEffectTime": 0.4},
	{"Id": 844, "HitTime":[0.5], "NamePrefab": "Battle/Name/Battle_Name_01", "CutInTime": 0, "IdleTime": 0, "MoveTime": 0.4, "ReturnTime": 0.4, "LandingTime": 0.14, "AtkEndAni": "Skill_Single_W", "AtkEndTime": 0.86, "ProjectileTime": 0, "HitAni": "Damage", "HitAniTime": 0.5, "DeadAni": "Dead", "DeadTime": 0.96, "HitEffectTime": 0.4},
	{"Id": 845, "HitTime":[0.5], "NamePrefab": "Battle/Name/Battle_Name_01", "CutInTime": 0, "IdleTime": 0, "MoveTime": 0.4, "ReturnTime": 0.4, "LandingTime": 0.14, "AtkEndAni": "Skill_Single_W", "AtkEndTime": 0.86, "ProjectileTime": 0, "HitAni": "Damage", "HitAniTime": 0.5, "DeadAni": "Dead", "DeadTime": 0.96, "HitEffectTime": 0.4},
	{"Id": 846, "HitTime":[0.9], "NamePrefab": "Battle/Name/Battle_Name_01", "CutInTime": 0, "IdleTime": 0, "MoveTime": 0.4, "ReturnTime": 0.4, "LandingTime": 0.14, "AtkEndAni": "Skill_Basic_A", "AtkEndTime": 0.62, "ProjectileTime": 0.3, "HitAni": "Damage", "HitAniTime": 0.5, "DeadAni": "Dead", "DeadTime": 0.96, "HitEffectTime": 0.4},
	{"Id": 847, "HitTime":[0.9], "NamePrefab": "Battle/Name/Battle_Name_01", "CutInTime": 0, "IdleTime": 0, "MoveTime": 0.4, "ReturnTime": 0.4, "LandingTime": 0.14, "AtkEndAni": "Skill_Single_A", "AtkEndTime": 0.8, "ProjectileTime": 0.3, "HitAni": "Damage", "HitAniTime": 0.5, "DeadAni": "Dead", "DeadTime": 0.96, "HitEffectTime": 0.6},
	{"Id": 848, "HitTime":[0.9], "NamePrefab": "Battle/Name/Battle_Name_01", "CutInTime": 0, "IdleTime": 0, "MoveTime": 0.4, "ReturnTime": 0.4, "LandingTime": 0.14, "AtkEndAni": "Skill_Single_A", "AtkEndTime": 0.8, "ProjectileTime": 0.3, "HitAni": "Damage", "HitAniTime": 0.5, "DeadAni": "Dead", "DeadTime": 0.96, "HitEffectTime": 0.6},
	{"Id": 849, "HitTime":[0.9], "NamePrefab": "Battle/Name/Battle_Name_01", "CutInTime": 0, "IdleTime": 0, "MoveTime": 0.4, "ReturnTime": 0.4, "LandingTime": 0.14, "AtkEndAni": "Skill_Basic_A", "AtkEndTime": 0.62, "ProjectileTime": 0.3, "HitAni": "Damage", "HitAniTime": 0.5, "DeadAni": "Dead", "DeadTime": 0.96, "HitEffectTime": 0.4},
	{"Id": 850, "HitTime":[0.9], "NamePrefab": "Battle/Name/Battle_Name_01", "CutInTime": 0, "IdleTime": 0, "MoveTime": 0.4, "ReturnTime": 0.4, "LandingTime": 0.14, "AtkEndAni": "Skill_Single_A", "AtkEndTime": 0.8, "ProjectileTime": 0.3, "HitAni": "Damage", "HitAniTime": 0.5, "DeadAni": "Dead", "DeadTime": 0.96, "HitEffectTime": 0.6},
	{"Id": 851, "HitTime":[0.9], "NamePrefab": "Battle/Name/Battle_Name_01", "CutInTime": 0, "IdleTime": 0, "MoveTime": 0.4, "ReturnTime": 0.4, "LandingTime": 0.14, "AtkEndAni": "Skill_Single_A", "AtkEndTime": 0.8, "ProjectileTime": 0.3, "HitAni": "Damage", "HitAniTime": 0.5, "DeadAni": "Dead", "DeadTime": 0.96, "HitEffectTime": 0.6},
	{"Id": 852, "HitTime":[0.9], "NamePrefab": "Battle/Name/Battle_Name_01", "CutInTime": 0, "IdleTime": 0, "MoveTime": 0.4, "ReturnTime": 0.4, "LandingTime": 0.14, "AtkEndAni": "Skill_Basic_A", "AtkEndTime": 0.62, "ProjectileTime": 0.3, "HitAni": "Damage", "HitAniTime": 0.5, "DeadAni": "Dead", "DeadTime": 0.96, "HitEffectTime": 0.4},
	{"Id": 853, "HitTime":[0.9], "NamePrefab": "Battle/Name/Battle_Name_01", "CutInTime": 0, "IdleTime": 0, "MoveTime": 0.4, "ReturnTime": 0.4, "LandingTime": 0.14, "AtkEndAni": "Skill_Single_A", "AtkEndTime": 0.8, "ProjectileTime": 0.3, "HitAni": "Damage", "HitAniTime": 0.5, "DeadAni": "Dead", "DeadTime": 0.96, "HitEffectTime": 0.6},
	{"Id": 854, "HitTime":[0.9], "NamePrefab": "Battle/Name/Battle_Name_01", "CutInTime": 0, "IdleTime": 0, "MoveTime": 0.4, "ReturnTime": 0.4, "LandingTime": 0.14, "AtkEndAni": "Skill_Single_A", "AtkEndTime": 0.8, "ProjectileTime": 0.3, "HitAni": "Damage", "HitAniTime": 0.5, "DeadAni": "Dead", "DeadTime": 0.96, "HitEffectTime": 0.6},
	{"Id": 855, "HitTime":[0.9], "NamePrefab": "Battle/Name/Battle_Name_01", "CutInTime": 0, "IdleTime": 0, "MoveTime": 0.4, "ReturnTime": 0.4, "LandingTime": 0.14, "AtkEndAni": "Skill_Basic_M", "AtkEndTime": 0.6, "ProjectileTime": 0.3, "HitAni": "Damage", "HitAniTime": 0.5, "DeadAni": "Dead", "DeadTime": 0.96, "HitEffectTime": 0.4},
	{"Id": 856, "HitTime":[0.9], "NamePrefab": "Battle/Name/Battle_Name_01", "CutInTime": 0, "IdleTime": 0, "MoveTime": 0.4, "ReturnTime": 0.4, "LandingTime": 0.14, "AtkEndAni": "Skill_Single_M", "AtkEndTime": 0.9, "ProjectileTime": 0.3, "HitAni": "Damage", "HitAniTime": 0.5, "DeadAni": "Dead", "DeadTime": 0.96, "HitEffectTime": 0.6},
	{"Id": 857, "HitTime":[0.9], "NamePrefab": "Battle/Name/Battle_Name_01", "CutInTime": 0, "IdleTime": 0, "MoveTime": 0.4, "ReturnTime": 0.4, "LandingTime": 0.14, "AtkEndAni": "Skill_Single_M", "AtkEndTime": 0.9, "ProjectileTime": 0.3, "HitAni": "Damage", "HitAniTime": 0.5, "DeadAni": "Dead", "DeadTime": 0.96, "HitEffectTime": 0.6},
	{"Id": 858, "HitTime":[0.9], "NamePrefab": "Battle/Name/Battle_Name_01", "CutInTime": 0, "IdleTime": 0, "MoveTime": 0.4, "ReturnTime": 0.4, "LandingTime": 0.14, "AtkEndAni": "Skill_Basic_M", "AtkEndTime": 0.6, "ProjectileTime": 0.3, "HitAni": "Damage", "HitAniTime": 0.5, "DeadAni": "Dead", "DeadTime": 0.96, "HitEffectTime": 0.4},
	{"Id": 859, "HitTime":[0.9], "NamePrefab": "Battle/Name/Battle_Name_01", "CutInTime": 0, "IdleTime": 0, "MoveTime": 0.4, "ReturnTime": 0.4, "LandingTime": 0.14, "AtkEndAni": "Skill_Single_M", "AtkEndTime": 0.9, "ProjectileTime": 0.3, "HitAni": "Damage", "HitAniTime": 0.5, "DeadAni": "Dead", "DeadTime": 0.96, "HitEffectTime": 0.6},
	{"Id": 860, "HitTime":[0.9], "NamePrefab": "Battle/Name/Battle_Name_01", "CutInTime": 0, "IdleTime": 0, "MoveTime": 0.4, "ReturnTime": 0.4, "LandingTime": 0.14, "AtkEndAni": "Skill_Single_M", "AtkEndTime": 0.9, "ProjectileTime": 0.3, "HitAni": "Damage", "HitAniTime": 0.5, "DeadAni": "Dead", "DeadTime": 0.96, "HitEffectTime": 0.6},
	{"Id": 861, "HitTime":[0.9], "NamePrefab": "Battle/Name/Battle_Name_01", "CutInTime": 0, "IdleTime": 0, "MoveTime": 0.4, "ReturnTime": 0.4, "LandingTime": 0.14, "AtkEndAni": "Skill_Basic_M", "AtkEndTime": 0.6, "ProjectileTime": 0.3, "HitAni": "Damage", "HitAniTime": 0.5, "DeadAni": "Dead", "DeadTime": 0.96, "HitEffectTime": 0.4},
	{"Id": 862, "HitTime":[0.9], "NamePrefab": "Battle/Name/Battle_Name_01", "CutInTime": 0, "IdleTime": 0, "MoveTime": 0.4, "ReturnTime": 0.4, "LandingTime": 0.14, "AtkEndAni": "Skill_Single_M", "AtkEndTime": 0.9, "ProjectileTime": 0.3, "HitAni": "Damage", "HitAniTime": 0.5, "DeadAni": "Dead", "DeadTime": 0.96, "HitEffectTime": 0.6},
	{"Id": 863, "HitTime":[0.9], "NamePrefab": "Battle/Name/Battle_Name_01", "CutInTime": 0, "IdleTime": 0, "MoveTime": 0.4, "ReturnTime": 0.4, "LandingTime": 0.14, "AtkEndAni": "Skill_Single_M", "AtkEndTime": 0.9, "ProjectileTime": 0.3, "HitAni": "Damage", "HitAniTime": 0.5, "DeadAni": "Dead", "DeadTime": 0.96, "HitEffectTime": 0.6},
	{"Id": 864, "HitTime":[0.4], "NamePrefab": "Battle/Name/Battle_Name_01", "CutInTime": 0, "IdleTime": 0, "MoveTime": 0.4, "ReturnTime": 0.4, "LandingTime": 0.14, "AtkEndAni": "Skill_Basic_G", "AtkEndTime": 0.6, "ProjectileTime": 0, "HitAni": "Damage", "HitAniTime": 0.5, "DeadAni": "Dead", "DeadTime": 0.96, "HitEffectTime": 0.4},
	{"Id": 865, "HitTime":[0.4], "NamePrefab": "Battle/Name/Battle_Name_01", "CutInTime": 0, "IdleTime": 0, "MoveTime": 0.4, "ReturnTime": 0.4, "LandingTime": 0.14, "AtkEndAni": "Skill_Single_G", "AtkEndTime": 0.8, "ProjectileTime": 0, "HitAni": "Damage", "HitAniTime": 0.5, "DeadAni": "Dead", "DeadTime": 0.96, "HitEffectTime": 0.4},
	{"Id": 866, "HitTime":[0.4], "NamePrefab": "Battle/Name/Battle_Name_01", "CutInTime": 0, "IdleTime": 0, "MoveTime": 0.4, "ReturnTime": 0.4, "LandingTime": 0.14, "AtkEndAni": "Skill_Single_G", "AtkEndTime": 0.8, "ProjectileTime": 0, "HitAni": "Damage", "HitAniTime": 0.5, "DeadAni": "Dead", "DeadTime": 0.96, "HitEffectTime": 0.4},
	{"Id": 867, "HitTime":[0.4], "NamePrefab": "Battle/Name/Battle_Name_01", "CutInTime": 0, "IdleTime": 0, "MoveTime": 0.4, "ReturnTime": 0.4, "LandingTime": 0.14, "AtkEndAni": "Skill_Basic_G", "AtkEndTime": 0.6, "ProjectileTime": 0, "HitAni": "Damage", "HitAniTime": 0.5, "DeadAni": "Dead", "DeadTime": 0.96, "HitEffectTime": 0.4},
	{"Id": 868, "HitTime":[0.5], "NamePrefab": "Battle/Name/Battle_Name_01", "CutInTime": 0, "IdleTime": 0, "MoveTime": 0.4, "ReturnTime": 0.4, "LandingTime": 0.14, "AtkEndAni": "Skill_Buff_G", "AtkEndTime": 0.8, "ProjectileTime": 0, "HitAni": "Heal", "HitAniTime": 0.5, "DeadAni": "Dead", "DeadTime": 0.96, "HitEffectTime": 0},
	{"Id": 869, "HitTime":[0.4], "NamePrefab": "Battle/Name/Battle_Name_01", "CutInTime": 0, "IdleTime": 0, "MoveTime": 0.4, "ReturnTime": 0.4, "LandingTime": 0.14, "AtkEndAni": "Skill_Single_G", "AtkEndTime": 0.8, "ProjectileTime": 0, "HitAni": "Damage", "HitAniTime": 0.5, "DeadAni": "Dead", "DeadTime": 0.96, "HitEffectTime": 0.4},
	{"Id": 870, "HitTime":[0.4], "NamePrefab": "Battle/Name/Battle_Name_01", "CutInTime": 0, "IdleTime": 0, "MoveTime": 0.4, "ReturnTime": 0.4, "LandingTime": 0.14, "AtkEndAni": "Skill_Basic_G", "AtkEndTime": 0.6, "ProjectileTime": 0, "HitAni": "Damage", "HitAniTime": 0.5, "DeadAni": "Dead", "DeadTime": 0.96, "HitEffectTime": 0.4},
	{"Id": 871, "HitTime":[0.4], "NamePrefab": "Battle/Name/Battle_Name_01", "CutInTime": 0, "IdleTime": 0, "MoveTime": 0.4, "ReturnTime": 0.4, "LandingTime": 0.14, "AtkEndAni": "Skill_Single_G", "AtkEndTime": 0.8, "ProjectileTime": 0, "HitAni": "Damage", "HitAniTime": 0.5, "DeadAni": "Dead", "DeadTime": 0.96, "HitEffectTime": 0.4},
	{"Id": 872, "HitTime":[0.4], "NamePrefab": "Battle/Name/Battle_Name_01", "CutInTime": 0, "IdleTime": 0, "MoveTime": 0.4, "ReturnTime": 0.4, "LandingTime": 0.14, "AtkEndAni": "Skill_Single_G", "AtkEndTime": 0.8, "ProjectileTime": 0, "HitAni": "Damage", "HitAniTime": 0.5, "DeadAni": "Dead", "DeadTime": 0.96, "HitEffectTime": 0.4}
]