[
	{"Id": 1, "Name": 501, "Desc": 601, "Type": "Str", "Format": 1, "MinUnit": 1},
	{"Id": 2, "Name": 502, "Desc": 602, "Type": "Dex", "Format": 1, "MinUnit": 1},
	{"Id": 3, "Name": 503, "Desc": 603, "Type": "Wis", "Format": 1, "MinUnit": 1},
	{"Id": 4, "Name": 504, "Desc": 604, "Type": "Vit", "Format": 1, "MinUnit": 1},
	{"Id": 5, "Name": 505, "Desc": 605, "Type": "LifeRaw", "Format": 1, "MinUnit": 1},
	{"Id": 6, "Name": 506, "Desc": 606, "Type": "LifePer", "Format": 2, "MinUnit": 0.001},
	{"Id": 7, "Name": 507, "Desc": 607, "Type": "Life", "Format": 1, "MinUnit": 1},
	{"Id": 9, "Name": 509, "Desc": 609, "Type": "Mana", "Format": 1, "MinUnit": 1},
	{"Id": 10, "Name": 510, "Desc": 610, "Type": "ManaCure", "Format": 1, "MinUnit": 1},
	{"Id": 11, "Name": 511, "Desc": 611, "Type": "AtkRaw", "Format": 1, "MinUnit": 1},
	{"Id": 12, "Name": 512, "Desc": 612, "Type": "AtkPer", "Format": 2, "MinUnit": 0.001},
	{"Id": 13, "Name": 513, "Desc": 613, "Type": "Atk", "Format": 1, "MinUnit": 1},
	{"Id": 14, "Name": 514, "Desc": 614, "Type": "PhyDefRaw", "Format": 1, "MinUnit": 1},
	{"Id": 15, "Name": 515, "Desc": 615, "Type": "PhyDefPer", "Format": 2, "MinUnit": 0.001},
	{"Id": 16, "Name": 516, "Desc": 616, "Type": "PhyDef", "Format": 1, "MinUnit": 1},
	{"Id": 17, "Name": 517, "Desc": 617, "Type": "PhyDefPro", "Format": 2, "MinUnit": 0.001},
	{"Id": 19, "Name": 519, "Desc": 619, "Type": "MagDefRaw", "Format": 1, "MinUnit": 1},
	{"Id": 20, "Name": 520, "Desc": 620, "Type": "MagDefPer", "Format": 2, "MinUnit": 0.001},
	{"Id": 21, "Name": 521, "Desc": 621, "Type": "MagDef", "Format": 1, "MinUnit": 1},
	{"Id": 22, "Name": 522, "Desc": 622, "Type": "MagDefPro", "Format": 2, "MinUnit": 0.001},
	{"Id": 24, "Name": 524, "Desc": 624, "Type": "Hit", "Format": 1, "MinUnit": 1},
	{"Id": 25, "Name": 525, "Desc": 625, "Type": "HitPro", "Format": 2, "MinUnit": 0.001},
	{"Id": 26, "Name": 526, "Desc": 626, "Type": "Avo", "Format": 1, "MinUnit": 1},
	{"Id": 27, "Name": 527, "Desc": 627, "Type": "AvoPro", "Format": 2, "MinUnit": 0.001},
	{"Id": 28, "Name": 528, "Desc": 628, "Type": "Cri", "Format": 1, "MinUnit": 1},
	{"Id": 29, "Name": 529, "Desc": 629, "Type": "CriPro", "Format": 2, "MinUnit": 0.001},
	{"Id": 30, "Name": 530, "Desc": 630, "Type": "CriDmgPro", "Format": 2, "MinUnit": 0.001},
	{"Id": 31, "Name": 531, "Desc": 631, "Type": "CriRes", "Format": 1, "MinUnit": 1},
	{"Id": 32, "Name": 532, "Desc": 632, "Type": "CriResPro", "Format": 2, "MinUnit": 0.001},
	{"Id": 34, "Name": 534, "Desc": 634, "Type": "EatLifePro", "Format": 2, "MinUnit": 0.001},
	{"Id": 35, "Name": 535, "Desc": 635, "Type": "PhyPie", "Format": 1, "MinUnit": 1},
	{"Id": 36, "Name": 536, "Desc": 636, "Type": "MagPie", "Format": 1, "MinUnit": 1},
	{"Id": 40, "Name": 540, "Desc": 640, "Type": "HealPro", "Format": 2, "MinUnit": 0.001},
	{"Id": 41, "Name": 541, "Desc": 641, "Type": "DmgPro", "Format": 2, "MinUnit": 0.001},
	{"Id": 42, "Name": 542, "Desc": 642, "Type": "ManaUsePro", "Format": 2, "MinUnit": 0.001},
	{"Id": 43, "Name": 543, "Desc": 643, "Type": "StatResPro", "Format": 2, "MinUnit": 0.001},
	{"Id": 44, "Name": 544, "Desc": 644, "Type": "AggPro", "Format": 2, "MinUnit": 0.001},
	{"Id": 45, "Name": 545, "Desc": 645, "Type": "ManaRaw", "Format": 1, "MinUnit": 1},
	{"Id": 46, "Name": 546, "Desc": 646, "Type": "ManaPer", "Format": 2, "MinUnit": 0.001},
	{"Id": 47, "Name": 547, "Desc": 647, "Type": "HitRaw", "Format": 1, "MinUnit": 1},
	{"Id": 48, "Name": 548, "Desc": 648, "Type": "HitPer", "Format": 2, "MinUnit": 0.001},
	{"Id": 49, "Name": 549, "Desc": 649, "Type": "AvoRaw", "Format": 1, "MinUnit": 1},
	{"Id": 50, "Name": 550, "Desc": 650, "Type": "AvoPer", "Format": 2, "MinUnit": 0.001},
	{"Id": 51, "Name": 551, "Desc": 651, "Type": "CriRaw", "Format": 1, "MinUnit": 1},
	{"Id": 52, "Name": 552, "Desc": 652, "Type": "CriPer", "Format": 2, "MinUnit": 0.001},
	{"Id": 53, "Name": 553, "Desc": 653, "Type": "LifeCurePro", "Format": 2, "MinUnit": 0.001},
	{"Id": 54, "Name": 554, "Desc": 654, "Type": "DmgResRaw", "Format": 1, "MinUnit": 1},
	{"Id": 55, "Name": 555, "Desc": 655, "Type": "DmgResPer", "Format": 2, "MinUnit": 0.001},
	{"Id": 56, "Name": 556, "Desc": 656, "Type": "DmgRes", "Format": 1, "MinUnit": 1},
	{"Id": 57, "Name": 557, "Desc": 657, "Type": "DmgRefPro", "Format": 2, "MinUnit": 0.001}
]