[
	{"Id": 1, "Name": 60000001, "Stat": 11, "StatAdd": 720, "LvMax": 1, "ReqGold": 100000, "ReqPoint": 1, "ReqItemCnt": 100, "ReqSlot":[0, 0, 0]},
	{"Id": 2, "Name": 60000002, "Stat": 45, "StatAdd": 420, "LvMax": 2, "ReqGold": 200000, "ReqPoint": 1, "ReqItemCnt": 200, "ReqSlot":[1, 0, 0]},
	{"Id": 3, "Name": 60000003, "Stat": 10, "StatAdd": 85, "LvMax": 2, "ReqGold": 200000, "ReqPoint": 1, "ReqItemCnt": 200, "ReqSlot":[1, 0, 0]},
	{"Id": 4, "Name": 60000004, "Stat": 12, "StatAdd": 0.05, "LvMax": 1, "ReqGold": 300000, "ReqPoint": 1, "ReqItemCnt": 300, "ReqSlot":[2, 0, 0]},
	{"Id": 5, "Name": 60000005, "Stat": 48, "StatAdd": 0.03, "LvMax": 1, "ReqGold": 300000, "ReqPoint": 1, "ReqItemCnt": 300, "ReqSlot":[2, 0, 0]},
	{"Id": 6, "Name": 60000006, "Stat": 52, "StatAdd": 0.03, "LvMax": 1, "ReqGold": 300000, "ReqPoint": 1, "ReqItemCnt": 300, "ReqSlot":[3, 0, 0]},
	{"Id": 7, "Name": 60000004, "Stat": 12, "StatAdd": 0.05, "LvMax": 1, "ReqGold": 300000, "ReqPoint": 1, "ReqItemCnt": 300, "ReqSlot":[3, 0, 0]},
	{"Id": 8, "Name": 60000008, "Stat": 35, "StatAdd": 430, "LvMax": 2, "ReqGold": 400000, "ReqPoint": 1, "ReqItemCnt": 400, "ReqSlot":[4, 0, 0]},
	{"Id": 9, "Name": 60000001, "Stat": 11, "StatAdd": 1200, "LvMax": 3, "ReqGold": 500000, "ReqPoint": 1, "ReqItemCnt": 500, "ReqSlot":[5, 6, 0]},
	{"Id": 10, "Name": 60000010, "Stat": 36, "StatAdd": 430, "LvMax": 2, "ReqGold": 400000, "ReqPoint": 1, "ReqItemCnt": 400, "ReqSlot":[7, 0, 0]},
	{"Id": 11, "Name": 60000011, "Stat": 5, "StatAdd": 600, "LvMax": 1, "ReqGold": 100000, "ReqPoint": 1, "ReqItemCnt": 100, "ReqSlot":[0, 0, 0]},
	{"Id": 12, "Name": 60000012, "Stat": 31, "StatAdd": 420, "LvMax": 1, "ReqGold": 200000, "ReqPoint": 1, "ReqItemCnt": 200, "ReqSlot":[11, 0, 0]},
	{"Id": 13, "Name": 60000013, "Stat": 55, "StatAdd": 0.04, "LvMax": 1, "ReqGold": 200000, "ReqPoint": 1, "ReqItemCnt": 200, "ReqSlot":[11, 0, 0]},
	{"Id": 14, "Name": 60000011, "Stat": 5, "StatAdd": 1000, "LvMax": 2, "ReqGold": 300000, "ReqPoint": 1, "ReqItemCnt": 300, "ReqSlot":[12, 0, 0]},
	{"Id": 15, "Name": 60000015, "Stat": 6, "StatAdd": 0.03, "LvMax": 2, "ReqGold": 300000, "ReqPoint": 1, "ReqItemCnt": 300, "ReqSlot":[13, 0, 0]},
	{"Id": 16, "Name": 60000001, "Stat": 11, "StatAdd": 720, "LvMax": 1, "ReqGold": 400000, "ReqPoint": 1, "ReqItemCnt": 400, "ReqSlot":[14, 0, 0]},
	{"Id": 17, "Name": 60000017, "Stat": 50, "StatAdd": 0.05, "LvMax": 1, "ReqGold": 400000, "ReqPoint": 1, "ReqItemCnt": 400, "ReqSlot":[14, 15, 0]},
	{"Id": 18, "Name": 60000004, "Stat": 12, "StatAdd": 0.05, "LvMax": 1, "ReqGold": 400000, "ReqPoint": 1, "ReqItemCnt": 400, "ReqSlot":[15, 0, 0]},
	{"Id": 19, "Name": 60000011, "Stat": 5, "StatAdd": 1450, "LvMax": 3, "ReqGold": 500000, "ReqPoint": 1, "ReqItemCnt": 500, "ReqSlot":[16, 17, 0]},
	{"Id": 20, "Name": 60000015, "Stat": 6, "StatAdd": 0.05, "LvMax": 3, "ReqGold": 500000, "ReqPoint": 1, "ReqItemCnt": 500, "ReqSlot":[17, 18, 0]},
	{"Id": 21, "Name": 60000021, "Stat": 54, "StatAdd": 430, "LvMax": 1, "ReqGold": 100000, "ReqPoint": 1, "ReqItemCnt": 100, "ReqSlot":[0, 0, 0]},
	{"Id": 22, "Name": 60000013, "Stat": 55, "StatAdd": 0.04, "LvMax": 1, "ReqGold": 200000, "ReqPoint": 1, "ReqItemCnt": 200, "ReqSlot":[21, 0, 0]},
	{"Id": 23, "Name": 60000023, "Stat": 14, "StatAdd": 1000, "LvMax": 1, "ReqGold": 300000, "ReqPoint": 1, "ReqItemCnt": 300, "ReqSlot":[22, 0, 0]},
	{"Id": 24, "Name": 60000001, "Stat": 11, "StatAdd": 720, "LvMax": 1, "ReqGold": 300000, "ReqPoint": 1, "ReqItemCnt": 300, "ReqSlot":[22, 0, 0]},
	{"Id": 25, "Name": 60000004, "Stat": 12, "StatAdd": 0.05, "LvMax": 1, "ReqGold": 300000, "ReqPoint": 1, "ReqItemCnt": 300, "ReqSlot":[22, 0, 0]},
	{"Id": 26, "Name": 60000026, "Stat": 19, "StatAdd": 1000, "LvMax": 1, "ReqGold": 300000, "ReqPoint": 1, "ReqItemCnt": 300, "ReqSlot":[22, 0, 0]},
	{"Id": 27, "Name": 60000027, "Stat": 15, "StatAdd": 0.06, "LvMax": 3, "ReqGold": 500000, "ReqPoint": 1, "ReqItemCnt": 500, "ReqSlot":[23, 28, 0]},
	{"Id": 28, "Name": 60000011, "Stat": 5, "StatAdd": 1620, "LvMax": 2, "ReqGold": 400000, "ReqPoint": 1, "ReqItemCnt": 400, "ReqSlot":[24, 0, 0]},
	{"Id": 29, "Name": 60000015, "Stat": 6, "StatAdd": 0.06, "LvMax": 2, "ReqGold": 400000, "ReqPoint": 1, "ReqItemCnt": 400, "ReqSlot":[25, 0, 0]},
	{"Id": 30, "Name": 60000030, "Stat": 20, "StatAdd": 0.06, "LvMax": 3, "ReqGold": 500000, "ReqPoint": 1, "ReqItemCnt": 500, "ReqSlot":[26, 29, 0]},
	{"Id": 31, "Name": 60000031, "Stat": 46, "StatAdd": 0.04, "LvMax": 1, "ReqGold": 100000, "ReqPoint": 1, "ReqItemCnt": 100, "ReqSlot":[0, 0, 0]},
	{"Id": 32, "Name": 60000032, "Stat": 47, "StatAdd": 680, "LvMax": 1, "ReqGold": 200000, "ReqPoint": 1, "ReqItemCnt": 200, "ReqSlot":[31, 0, 0]},
	{"Id": 33, "Name": 60000033, "Stat": 49, "StatAdd": 680, "LvMax": 1, "ReqGold": 200000, "ReqPoint": 1, "ReqItemCnt": 200, "ReqSlot":[31, 0, 0]},
	{"Id": 34, "Name": 60000021, "Stat": 54, "StatAdd": 500, "LvMax": 1, "ReqGold": 200000, "ReqPoint": 1, "ReqItemCnt": 200, "ReqSlot":[31, 0, 0]},
	{"Id": 35, "Name": 60000004, "Stat": 12, "StatAdd": 0.05, "LvMax": 2, "ReqGold": 300000, "ReqPoint": 1, "ReqItemCnt": 300, "ReqSlot":[32, 0, 0]},
	{"Id": 36, "Name": 60000015, "Stat": 6, "StatAdd": 0.05, "LvMax": 2, "ReqGold": 300000, "ReqPoint": 1, "ReqItemCnt": 300, "ReqSlot":[33, 0, 0]},
	{"Id": 37, "Name": 60000011, "Stat": 5, "StatAdd": 1450, "LvMax": 2, "ReqGold": 300000, "ReqPoint": 1, "ReqItemCnt": 300, "ReqSlot":[34, 0, 0]},
	{"Id": 38, "Name": 60000005, "Stat": 48, "StatAdd": 0.06, "LvMax": 2, "ReqGold": 500000, "ReqPoint": 1, "ReqItemCnt": 500, "ReqSlot":[35, 0, 0]},
	{"Id": 39, "Name": 60000017, "Stat": 50, "StatAdd": 0.06, "LvMax": 2, "ReqGold": 500000, "ReqPoint": 1, "ReqItemCnt": 500, "ReqSlot":[36, 0, 0]},
	{"Id": 40, "Name": 60000013, "Stat": 55, "StatAdd": 0.06, "LvMax": 2, "ReqGold": 500000, "ReqPoint": 1, "ReqItemCnt": 500, "ReqSlot":[37, 0, 0]}
]