[
	{"Id": 1, "ReqVal": 10100, "ReqPage": "Home_Main", "ReqJobType": 0, "ReqLv": 0, "ReqHunt": 0, "Obj": "Tutorial/Grp/Tuto_01_01", "Step":[1, 0], "RwdFix": 0, "Val": 10101, "Next": 2},
	{"Id": 2, "ReqVal": 10101, "ReqPage": "Home_Main", "ReqJobType": 0, "ReqLv": 0, "ReqHunt": 0, "Obj": "Tutorial/Grp/Tuto_01_01", "Step":[2, 0], "RwdFix": 0, "Val": 10102, "Next": 3},
	{"Id": 3, "ReqVal": 10102, "ReqPage": "Home_Main", "ReqJobType": 0, "ReqLv": 0, "ReqHunt": 0, "Obj": "Tutorial/Grp/Tuto_01_01", "Step":[3, 4], "RwdFix": 0, "Val": 10103, "Next": 4, "ExitKey": "action_head"},
	{"Id": 4, "ReqVal": 10103, "ReqPage": "Home_Main", "ReqJobType": 0, "ReqLv": 0, "ReqHunt": 0, "Obj": "Tutorial/Grp/Tuto_01_01", "Step":[5, 0], "RwdFix": 0, "Val": 10111, "Next": 5},
	{"Id": 5, "ReqVal": 10111, "ReqPage": "Home_Main", "ReqJobType": 0, "ReqLv": 0, "ReqHunt": 0, "Obj": "Tutorial/Grp/Tuto_01_01", "Step":[6, 8], "RwdFix": 20, "Val": 10121, "Next": 6, "ExitKey": "action_battle"},
	{"Id": 6, "ReqVal": 10121, "ReqPage": "CharCollection_Main", "ReqJobType": 0, "ReqLv": 0, "ReqHunt": 0, "ReqStart": "$Logic.And($Logic.Not($Daughter.IsEquipped(MAIN_WPN)), $Daughter.IsAvailableEquip(MAIN_WPN))", "ReqSkip": "$Daughter.IsEquipped(MAIN_WPN)", "Obj": "Tutorial/Grp/Tuto_01_01", "Step":[9, 13], "RwdFix": 0, "Val": 10131, "Next": 8, "ExitKey": "tutorial_equip_set"},
	{"Id": 7, "ReqVal": 10121, "ReqPage": "Home_Main", "ReqJobType": 0, "ReqLv": 0, "ReqHunt": 0, "ReqStart": "$Logic.And($Logic.Not($Daughter.IsEquipped(MAIN_WPN)), $Daughter.IsAvailableEquip(MAIN_WPN))", "ReqSkip": "$Daughter.IsEquipped(MAIN_WPN)", "Obj": "Tutorial/Grp/Tuto_01_01", "Step":[9, 13], "RwdFix": 0, "Val": 10131, "Next": 8, "ExitKey": "tutorial_equip_set"},
	{"Id": 8, "ReqVal": 10131, "ReqPage": "Character_Main", "ReqJobType": 0, "ReqLv": 0, "ReqHunt": 0, "ReqStart": "$Daughter.IsEquipped(MAIN_WPN)", "Obj": "Tutorial/Grp/Tuto_01_01", "Step":[16, 24], "RwdFix": 0, "Val": 10132, "Next": 10, "ExitKey": "tutorial_equip_enhance"},
	{"Id": 9, "ReqVal": 10131, "ReqPage": "Home_Main", "ReqJobType": 0, "ReqLv": 0, "ReqHunt": 0, "ReqStart": "$Daughter.IsEquipped(MAIN_WPN)", "Obj": "Tutorial/Grp/Tuto_01_01", "Step":[14, 24], "RwdFix": 0, "Val": 10132, "Next": 10, "ExitKey": "tutorial_equip_enhance"},
	{"Id": 10, "ReqVal": 10132, "ReqPage": "Character_Main", "ReqJobType": 0, "ReqLv": 0, "ReqHunt": 0, "Obj": "Tutorial/Grp/Tuto_01_01", "Step":[27, 29], "RwdFix": 26, "Val": 10141, "Next": 12, "ExitKey": "tutorial_skill"},
	{"Id": 11, "ReqVal": 10132, "ReqPage": "Home_Main", "ReqJobType": 0, "ReqLv": 0, "ReqHunt": 0, "Obj": "Tutorial/Grp/Tuto_01_01", "Step":[25, 29], "RwdFix": 26, "Val": 10141, "Next": 12, "ExitKey": "tutorial_skill"},
	{"Id": 12, "ReqVal": 10141, "ReqPage": "Character_Main", "ReqJobType": 0, "ReqLv": 0, "ReqHunt": 0, "Obj": "Tutorial/Grp/Tuto_01_01", "Step":[35, 37], "RwdFix": 0, "Val": 10151, "Next": 14},
	{"Id": 13, "ReqVal": 10141, "ReqPage": "Home_Main", "ReqJobType": 0, "ReqLv": 0, "ReqHunt": 0, "Obj": "Tutorial/Grp/Tuto_01_01", "Step":[30, 37], "RwdFix": 0, "Val": 10151, "Next": 14},
	{"Id": 14, "ReqVal": 10151, "ReqPage": "Character_Main", "ReqJobType": 0, "ReqLv": 0, "ReqHunt": 0, "Obj": "Tutorial/Grp/Tuto_01_01", "Step":[38, 40], "RwdFix": 0, "Val": 10201, "Next": 0},
	{"Id": 15, "ReqVal": 10151, "ReqPage": "Home_Main", "ReqJobType": 0, "ReqLv": 0, "ReqHunt": 0, "Obj": "Tutorial/Grp/Tuto_01_01", "Step":[38, 40], "RwdFix": 0, "Val": 10201, "Next": 0, "ExitKey": "battle_boss"},
	{"Id": 16, "ReqVal": 10201, "ReqPage": "Home_Main", "ReqJobType": 0, "ReqLv": 0, "ReqHunt": 1, "Obj": "Tutorial/Grp/Tuto_01_02", "Step":[41, 0], "RwdFix": 21, "Val": 10211, "Next": 17},
	{"Id": 17, "ReqVal": 10211, "ReqPage": "Home_Main", "ReqJobType": 0, "ReqLv": 0, "ReqHunt": 1, "Obj": "Tutorial/Grp/Tuto_01_02", "Step":[42, 0], "RwdFix": 0, "Val": 10221, "Next": 18, "ExitKey": "getitem_acepiece"},
	{"Id": 18, "ReqVal": 10221, "ReqPage": "Home_Main", "ReqJobType": 0, "ReqLv": 0, "ReqHunt": 1, "ReqStart": "$CharPiece.Has(1017, 10)", "ReqSkip": "$Char.Has(1017)", "Obj": "Tutorial/Grp/Tuto_01_02", "Step":[43, 46], "RwdFix": 0, "Val": 10231, "Next": 19, "ExitKey": "get_ace"},
	{"Id": 19, "ReqVal": 10231, "ReqPage": "Character_Main", "ReqJobType": 0, "ReqLv": 0, "ReqHunt": 1, "ReqSkip": "$Logic.Or($Char.Cnt(2), $Char.Party())", "Obj": "Tutorial/Grp/Tuto_01_02", "Step":[47, 50], "RwdFix": 0, "Val": 10241, "Next": 21, "ExitKey": "team_completion"},
	{"Id": 20, "ReqVal": 10231, "ReqPage": "Home_Main", "ReqJobType": 0, "ReqLv": 0, "ReqHunt": 1, "ReqSkip": "$Logic.Or($Char.Cnt(2), $Char.Party())", "Obj": "Tutorial/Grp/Tuto_01_02", "Step":[47, 50], "RwdFix": 0, "Val": 10241, "Next": 21, "ExitKey": "team_completion"},
	{"Id": 21, "ReqVal": 10241, "ReqPage": "Battle_Main", "ReqJobType": 0, "ReqLv": 0, "ReqHunt": 1, "Obj": "Tutorial/Grp/Tuto_01_02", "Step":[51, 52], "RwdFix": 0, "Val": 10251, "Next": 23},
	{"Id": 22, "ReqVal": 10241, "ReqPage": "Home_Main", "ReqJobType": 0, "ReqLv": 0, "ReqHunt": 1, "Obj": "Tutorial/Grp/Tuto_01_02", "Step":[51, 52], "RwdFix": 0, "Val": 10251, "Next": 23},
	{"Id": 23, "ReqVal": 10251, "ReqPage": "Battle_Main", "ReqJobType": 0, "ReqLv": 0, "ReqHunt": 1, "Obj": "Tutorial/Grp/Tuto_01_02", "Step":[54, 57], "RwdFix": 0, "Val": 10401, "Next": 0, "ExitKey": "bossteam_completion"},
	{"Id": 24, "ReqVal": 10251, "ReqPage": "Home_Main", "ReqJobType": 0, "ReqLv": 0, "ReqHunt": 1, "Obj": "Tutorial/Grp/Tuto_01_02", "Step":[53, 57], "RwdFix": 0, "Val": 10401, "Next": 0, "ExitKey": "bossteam_completion"},
	{"Id": 25, "ReqVal": 10401, "ReqPage": "Home_Main", "ReqJobType": 0, "ReqLv": 0, "ReqHunt": 2, "Obj": "Tutorial/Grp/Tuto_01_04", "Step":[65, 0], "RwdFix": 23, "Val": 10411, "Next": 26},
	{"Id": 26, "ReqVal": 10411, "ReqPage": "Home_Main", "ReqJobType": 0, "ReqLv": 0, "ReqHunt": 2, "ReqStart": "$CharPiece.Has(1004, 10)", "ReqSkip": "$Char.Has(1004)", "ReqMethod": "$Method.InitFilter()", "Obj": "Tutorial/Grp/Tuto_01_04", "Step":[66, 71], "RwdFix": 0, "Val": 10421, "Next": 27, "ExitKey": "get_raphael"},
	{"Id": 27, "ReqVal": 10421, "ReqPage": "Home_Main", "ReqJobType": 0, "ReqLv": 0, "ReqHunt": 2, "Obj": "Tutorial/Grp/Tuto_01_04", "Step":[72, 74], "RwdFix": 24, "Val": 10422, "Next": 29},
	{"Id": 28, "ReqVal": 10421, "ReqPage": "Home_Main", "ReqJobType": 0, "ReqLv": 0, "ReqHunt": 2, "Obj": "Tutorial/Grp/Tuto_01_04", "Step":[72, 74], "RwdFix": 24, "Val": 10422, "Next": 29},
	{"Id": 29, "ReqVal": 10422, "ReqPage": "Character_Main", "ReqJobType": 0, "ReqLv": 0, "ReqHunt": 2, "ReqSkip": "$Char.DoAlba(1, 75)", "Obj": "Tutorial/Grp/Tuto_01_04", "Step":[77, 80], "RwdFix": 0, "Val": 10431, "Next": 31},
	{"Id": 30, "ReqVal": 10422, "ReqPage": "Home_Main", "ReqJobType": 0, "ReqLv": 0, "ReqHunt": 2, "ReqSkip": "$Char.DoAlba(1, 75)", "Obj": "Tutorial/Grp/Tuto_01_04", "Step":[75, 80], "RwdFix": 0, "Val": 10431, "Next": 31},
	{"Id": 31, "ReqVal": 10431, "ReqPage": "Alba_Main", "ReqJobType": 0, "ReqLv": 0, "ReqHunt": 2, "ReqStart": "$Logic.And($Material.Has(62, 1), $Char.DoAlba(1, 1))", "ReqSkip": "$Logic.Or($Logic.Not($Material.Has(62, 1)), $Logic.Not($Char.DoAlba(1, 1)))", "Obj": "Tutorial/Grp/Tuto_01_04", "Step":[84, 85], "RwdFix": 0, "Val": 10441, "Next": 0, "ExitKey": "errand_completion"},
	{"Id": 32, "ReqVal": 10431, "ReqPage": "Home_Main", "ReqJobType": 0, "ReqLv": 0, "ReqHunt": 2, "ReqStart": "$Logic.And($Material.Has(62, 1), $Char.DoAlba(1, 1))", "ReqSkip": "$Logic.Or($Logic.Not($Material.Has(62, 1)), $Logic.Not($Char.DoAlba(1, 1)))", "Obj": "Tutorial/Grp/Tuto_01_04", "Step":[81, 85], "RwdFix": 0, "Val": 10441, "Next": 0, "ExitKey": "errand_completion"},
	{"Id": 33, "ReqVal": 10441, "ReqPage": "Alba_Main", "ReqJobType": 0, "ReqLv": 0, "ReqHunt": 2, "ReqStart": "$Material.Has(24, 1)", "ReqSkip": "$Logic.Not($Material.Has(24, 1))", "ExitMethod": "$Method.GoHome()", "Obj": "Tutorial/Grp/Tuto_01_04", "Step":[86, 90], "RwdFix": 0, "Val": 10451, "Next": 35},
	{"Id": 34, "ReqVal": 10441, "ReqPage": "Home_Main", "ReqJobType": 0, "ReqLv": 0, "ReqHunt": 2, "ReqStart": "$Material.Has(24, 1)", "ReqSkip": "$Logic.Not($Material.Has(24, 1))", "ExitMethod": "$Method.GoHome()", "Obj": "Tutorial/Grp/Tuto_01_04", "Step":[86, 90], "RwdFix": 0, "Val": 10451, "Next": 35},
	{"Id": 35, "ReqVal": 10451, "ReqPage": "Edu_Main", "ReqJobType": 0, "ReqLv": 0, "ReqHunt": 2, "Obj": "Tutorial/Grp/Tuto_01_04", "Step":[91, 94], "RwdFix": 0, "Val": 10511, "Next": 37, "ExitKey": "education_completion"},
	{"Id": 36, "ReqVal": 10451, "ReqPage": "Home_Main", "ReqJobType": 0, "ReqLv": 0, "ReqHunt": 2, "Obj": "Tutorial/Grp/Tuto_01_04", "Step":[91, 94], "RwdFix": 0, "Val": 10511, "Next": 37, "ExitKey": "education_completion"},
	{"Id": 37, "ReqVal": 10511, "ReqPage": "Home_Main", "ReqJobType": 0, "ReqLv": 0, "ReqHunt": 2, "Obj": "Tutorial/Grp/Tuto_01_04", "Step":[95, 96], "RwdFix": 0, "Val": 10512, "Next": 38},
	{"Id": 38, "ReqVal": 10512, "ReqPage": "Battle_Main", "ReqJobType": 0, "ReqLv": 0, "ReqHunt": 2, "ExitMethod": "$Method.GoHome()", "Obj": "Tutorial/Grp/Tuto_01_04", "Step":[97, 98], "RwdFix": 0, "Val": 10513, "Next": 39, "ExitKey": "tutorial_idlereward"},
	{"Id": 39, "ReqVal": 10513, "ReqPage": "Home_Main", "ReqJobType": 0, "ReqLv": 0, "ReqHunt": 2, "Obj": "Tutorial/Grp/Tuto_01_04", "Step":[99, 0], "RwdFix": 27, "Val": 10514, "Next": 40},
	{"Id": 40, "ReqVal": 10514, "ReqPage": "Home_Main", "ReqJobType": 0, "ReqLv": 0, "ReqHunt": 2, "Obj": "Tutorial/Grp/Tuto_01_04", "Step":[100, 102], "RwdFix": 0, "Val": 10521, "Next": 0},
	{"Id": 41, "ReqVal": 10521, "ReqPage": "Home_Main", "ReqJobType": 0, "ReqLv": 0, "ReqHunt": 20, "Obj": "Tutorial/Grp/Tuto_01_05", "Step":[103, 104], "RwdFix": 0, "Val": 10522, "Next": 42},
	{"Id": 42, "ReqVal": 10522, "ReqPage": "AttrDungeon_Main", "ReqJobType": 0, "ReqLv": 0, "ReqHunt": 20, "Obj": "Tutorial/Grp/Tuto_01_05", "Step":[105, 0], "RwdFix": 0, "Val": 10801, "Next": 0, "ExitKey": "turorial_dungeon"},
	{"Id": 43, "ReqVal": 10523, "ReqPage": "Home_Main", "ReqJobType": 0, "ReqLv": 0, "ReqHunt": 20, "Obj": "Tutorial/Grp/Tuto_01_05", "Step":[105, 0], "RwdFix": 0, "Val": 10801, "Next": 0, "ExitKey": "turorial_dungeon"},
	{"Id": 44, "ReqVal": 10801, "ReqPage": "Battle_Main", "ReqJobType": 0, "ReqLv": 0, "ReqHunt": 25, "Obj": "Tutorial/Grp/Tuto_SubContents", "Step":[106, 0], "RwdFix": 0, "Val": 20101, "Next": 0, "ExitKey": "guild_unlock"},
	{"Id": 45, "ReqVal": 20101, "ReqPage": "Home_Main", "ReqJobType": 0, "ReqLv": 0, "ReqHunt": 40, "Obj": "Tutorial/Grp/Tuto_SubContents", "Step":[109, 110], "RwdFix": 0, "Val": 30101, "Next": 0, "ExitKey": "arena_unlock"},
	{"Id": 46, "ReqVal": 30101, "ReqPage": "Home_Main", "ReqJobType": 0, "ReqLv": 0, "ReqHunt": 70, "Obj": "Tutorial/Grp/Tuto_SubContents", "Step":[107, 108], "RwdFix": 0, "Val": 30102, "Next": 0, "ExitKey": "partyraid_unlock"}
]